"image name","distance score"
faces\askh_sheep5_0.jpg,107.06261
faces\askh_sheep5_2.jpg,114.62203
faces\askh_sheep10_1.jpg,114.7998
faces\askh17.jpg,116.75435
faces\askh31.jpg,119.111626
faces\askh_sheep10_0.jpg,119.647606
faces\askh24.jpg,121.04242
faces\askh68.jpg,121.361374
faces\askh_sheep1_0.jpg,122.035835
faces\askh73.jpg,122.35638
faces\askh_sheep1_1.jpg,122.448006
faces\askh29.jpg,123.17183
faces\askh25.jpg,123.99162
faces\askh76.jpg,124.34512
faces\askh_sheep7_0.jpg,124.69493
faces\askh71.jpg,124.826454
faces\askh60.jpg,126.2024
faces\askh74.jpg,126.53734
faces\askh_sheep7_1.jpg,127.0522
faces\askh13.jpg,127.15772
faces\askh81.jpg,127.29377
faces\askh_sheep6_1.jpg,127.518364
faces\askh35.jpg,127.91195
faces\askh_sheep4_2.jpg,128.55101
faces\askh14.jpg,128.90376
faces\askh34.jpg,128.91411
faces\askh_sheep6_0.jpg,129.3397
faces\askh_sheep2_2.jpg,129.645
faces\askh45.jpg,129.85255
faces\askh_sheep9_1.jpg,130.2253
faces\askh57.jpg,130.56462
faces\askh39.jpg,130.67796
faces\askh12.jpg,130.86203
faces\askh88.jpg,131.53355
faces\askh9.jpg,131.96996
faces\fost2.jpg,132.23581
faces\askh_sheep4_0.jpg,132.82726
faces\fost17.jpg,133.83585
faces\askh75.jpg,133.96892
faces\askh_sheep9_0.jpg,134.10933
faces\askh10.jpg,134.11687
faces\askh72.jpg,134.66978
faces\askh70.jpg,134.81274
faces\askh1.jpg,134.86205
faces\askh_sheep3_0.jpg,135.31511
faces\askh_sheep2_4.jpg,136.25087
faces\askh36.jpg,136.6544
faces\askh83.jpg,137.66843
faces\askh77.jpg,137.93985
faces\askh33.jpg,138.00244
faces\askh_sheep2_1.jpg,138.1495
faces\askh93.jpg,138.19398
faces\askh78.jpg,138.41945
faces\askh94.jpg,138.52078
faces\askh_sheep1_2.jpg,138.56381
faces\fost30.jpg,139.93494
faces\askh69.jpg,140.52693
faces\fost10.jpg,141.63177
faces\askh23.jpg,142.1469
faces\askh_sheep2_0.jpg,142.9451
faces\askh15.jpg,143.00417
faces\askh82.jpg,143.86537
faces\askh96.jpg,144.40915
faces\askh42.jpg,145.22926
faces\askh84.jpg,145.30305
faces\askh_sheep4_1.jpg,145.48598
faces\fost14.jpg,145.9398
faces\askh58.jpg,146.11511
faces\askh43.jpg,146.2825
faces\askh19.jpg,147.39299
faces\askh97.jpg,147.57683
faces\askh7.jpg,148.4542
faces\askh_sheep2_3.jpg,148.49852
faces\askh8.jpg,148.86827
faces\askh18.jpg,149.61282
faces\askh_sheep8_1.jpg,150.19945
faces\bish13.jpg,150.65315
faces\askh64.jpg,150.93375
faces\askh37.jpg,151.25993
faces\askh44.jpg,151.41077
faces\askh61.jpg,151.59094
faces\askh2.jpg,151.64597
faces\askh_sheep3_1.jpg,153.14586
faces\fost19.jpg,154.0462
faces\fost16.jpg,154.37263
faces\askh41.jpg,154.64677
faces\askh48.jpg,154.8023
faces\askh53.jpg,155.30284
faces\askh5.jpg,155.39561
faces\askh3.jpg,155.77316
faces\fost22.jpg,157.08928
faces\fost25.jpg,157.76843
faces\askh62.jpg,158.9739
faces\fost29.jpg,160.13892
faces\fost_sheep2_1.jpg,160.29129
faces\fost3.jpg,160.64502
faces\askh92.jpg,161.44804
faces\askh_sheep8_0.jpg,162.51093
faces\fost12.jpg,163.40326
faces\askh30.jpg,163.45482
faces\fost40.jpg,163.4652
faces\askh47.jpg,163.97716
faces\fost_sheep2_0.jpg,165.70695
faces\fost7.jpg,167.15414
faces\askh6.jpg,167.22192
faces\fost8.jpg,167.40448
faces\fost35.jpg,168.72859
faces\fost_sheep1_1.jpg,170.5624
faces\fost_sheep1_2.jpg,171.08159
faces\askh95.jpg,171.41277
faces\fost_sheep1_0.jpg,171.63217
faces\askh16.jpg,172.07115
faces\askh91.jpg,172.63023
faces\bish5.jpg,172.94891
faces\fost39.jpg,172.95714
faces\askh54.jpg,173.97644
faces\fost41.jpg,178.71599
faces\bish4.jpg,179.26347
faces\fost_sheep1_4.jpg,182.34608
faces\askh51.jpg,183.58069
faces\askh66.jpg,185.1189
faces\fost37.jpg,186.6503
faces\fost_sheep1_3.jpg,187.78224
faces\fost24.jpg,187.98772
faces\bish2.jpg,188.511
faces\fost28.jpg,188.86581
faces\fost42.jpg,189.2517
faces\fost34.jpg,189.31094
faces\fost20.jpg,189.39287
faces\fost_sheep1_5.jpg,190.12837
faces\fost23.jpg,196.39824
faces\fost13.jpg,202.49168
faces\bish16.jpg,217.32709
