"image name","distance score"
faces\askh7.jpg,88.13601
faces\askh_sheep3_0.jpg,108.198364
faces\askh_sheep1_0.jpg,109.73547
faces\askh_sheep10_1.jpg,112.78006
faces\askh23.jpg,113.658775
faces\askh_sheep1_1.jpg,115.23929
faces\askh58.jpg,115.76474
faces\askh83.jpg,116.140945
faces\askh_sheep10_0.jpg,116.660065
faces\askh_sheep3_1.jpg,116.80304
faces\askh36.jpg,117.85011
faces\askh_sheep1_2.jpg,118.25289
faces\askh39.jpg,118.54077
faces\askh24.jpg,118.670006
faces\askh13.jpg,119.425224
faces\askh31.jpg,120.125015
faces\askh14.jpg,120.97839
faces\askh_sheep4_0.jpg,121.858345
faces\askh_sheep6_1.jpg,122.49544
faces\askh_sheep7_0.jpg,122.52783
faces\askh68.jpg,123.05319
faces\askh1.jpg,124.53685
faces\askh_sheep2_4.jpg,124.681404
faces\askh_sheep2_0.jpg,125.467285
faces\askh34.jpg,125.95348
faces\askh_sheep6_0.jpg,126.17343
faces\askh29.jpg,126.66477
faces\askh94.jpg,126.66478
faces\askh_sheep9_0.jpg,126.68493
faces\askh88.jpg,126.84799
faces\askh97.jpg,127.07438
faces\askh15.jpg,127.1669
faces\askh25.jpg,127.476875
faces\askh_sheep7_1.jpg,127.64797
faces\askh_sheep9_1.jpg,128.21956
faces\askh9.jpg,129.56609
faces\askh44.jpg,130.18701
faces\fost2.jpg,130.40823
faces\askh_sheep2_3.jpg,130.58736
faces\askh42.jpg,130.6899
faces\askh12.jpg,130.71872
faces\askh_sheep2_1.jpg,130.73788
faces\askh81.jpg,130.97351
faces\askh17.jpg,131.19702
faces\askh35.jpg,131.74393
faces\askh33.jpg,132.42322
faces\askh69.jpg,132.5344
faces\askh_sheep2_2.jpg,132.59416
faces\askh43.jpg,133.0466
faces\askh60.jpg,133.59859
faces\askh_sheep8_1.jpg,133.61882
faces\askh74.jpg,134.18352
faces\askh71.jpg,135.21863
faces\askh41.jpg,135.23059
faces\askh57.jpg,135.60204
faces\askh62.jpg,136.53038
faces\askh75.jpg,137.37097
faces\askh_sheep5_0.jpg,137.9413
faces\askh_sheep5_2.jpg,138.25598
faces\fost29.jpg,138.66174
faces\askh64.jpg,138.93703
faces\askh77.jpg,139.40408
faces\askh47.jpg,139.52283
faces\askh_sheep8_0.jpg,140.68071
faces\askh72.jpg,140.80466
faces\fost22.jpg,140.89763
faces\askh_sheep4_1.jpg,141.20984
faces\bish13.jpg,141.4961
faces\askh10.jpg,142.19513
faces\askh70.jpg,142.3963
faces\fost17.jpg,142.53366
faces\askh92.jpg,142.60788
faces\askh73.jpg,142.75833
faces\askh18.jpg,142.94305
faces\askh76.jpg,143.07722
faces\askh8.jpg,143.8419
faces\askh_sheep4_2.jpg,144.26784
faces\askh_sheep5_1.jpg,144.40915
faces\askh78.jpg,145.18956
faces\askh3.jpg,145.64917
faces\askh37.jpg,146.3192
faces\fost10.jpg,146.51126
faces\askh61.jpg,146.90817
faces\askh2.jpg,146.96144
faces\askh84.jpg,147.3762
faces\askh45.jpg,147.51457
faces\askh53.jpg,147.64598
faces\fost3.jpg,147.79924
faces\askh5.jpg,147.81691
faces\fost12.jpg,148.09369
faces\askh82.jpg,148.35136
faces\fost14.jpg,149.42412
faces\askh93.jpg,149.5076
faces\fost_sheep2_1.jpg,149.78474
faces\fost19.jpg,150.42723
faces\askh48.jpg,150.97026
faces\fost25.jpg,151.0683
faces\askh91.jpg,153.73752
faces\askh19.jpg,154.26207
faces\fost24.jpg,155.38252
faces\fost7.jpg,155.3878
faces\askh95.jpg,155.52977
faces\fost_sheep2_0.jpg,156.2018
faces\askh6.jpg,156.54745
faces\fost16.jpg,157.28764
faces\askh30.jpg,158.86261
faces\fost35.jpg,159.63065
faces\fost20.jpg,161.30946
faces\askh16.jpg,161.44589
faces\fost8.jpg,163.32584
faces\fost30.jpg,163.42787
faces\fost_sheep1_0.jpg,164.05061
faces\fost39.jpg,165.57455
faces\fost_sheep1_1.jpg,167.02573
faces\fost41.jpg,167.07428
faces\bish5.jpg,168.23346
faces\fost_sheep1_2.jpg,168.24265
faces\fost37.jpg,170.01578
faces\askh66.jpg,170.90707
faces\fost28.jpg,171.81863
faces\fost40.jpg,173.1238
faces\fost23.jpg,174.2888
faces\askh51.jpg,174.56801
faces\askh54.jpg,176.28424
faces\fost34.jpg,177.66624
faces\fost_sheep1_3.jpg,179.47115
faces\fost_sheep1_4.jpg,180.04396
faces\bish4.jpg,181.39249
faces\bish2.jpg,181.7479
faces\fost_sheep1_5.jpg,193.76134
faces\fost13.jpg,196.60887
faces\fost42.jpg,197.54016
faces\bish16.jpg,214.88547
