"image name","distance score"
faces\fost7.jpg,114.14906
faces\fost8.jpg,114.84252
faces\fost24.jpg,124.61109
faces\askh18.jpg,127.156746
faces\askh41.jpg,127.30189
faces\fost_sheep1_0.jpg,127.47628
faces\fost_sheep2_1.jpg,127.82545
faces\fost28.jpg,129.37094
faces\fost_sheep2_0.jpg,129.38448
faces\askh53.jpg,129.4664
faces\askh61.jpg,130.38309
faces\fost2.jpg,130.58649
faces\bish5.jpg,132.69337
faces\askh44.jpg,133.1676
faces\askh47.jpg,133.60155
faces\fost_sheep1_1.jpg,134.24234
faces\fost_sheep1_2.jpg,134.93216
faces\askh62.jpg,134.98964
faces\askh95.jpg,135.1533
faces\fost_sheep1_4.jpg,137.26797
faces\askh6.jpg,137.45743
faces\askh16.jpg,138.9118
faces\fost25.jpg,139.65393
faces\fost_sheep1_3.jpg,140.02414
faces\askh92.jpg,140.42387
faces\askh37.jpg,141.7728
faces\askh30.jpg,142.23192
faces\bish4.jpg,142.51917
faces\askh9.jpg,143.20512
faces\askh2.jpg,143.8102
faces\askh8.jpg,144.92358
faces\askh5.jpg,145.16905
faces\askh36.jpg,145.78337
faces\askh23.jpg,145.83655
faces\askh43.jpg,147.11784
faces\askh64.jpg,147.57921
faces\askh34.jpg,148.69301
faces\bish13.jpg,149.17116
faces\askh14.jpg,149.83392
faces\askh91.jpg,150.2974
faces\askh19.jpg,150.6114
faces\fost3.jpg,150.8379
faces\askh51.jpg,151.2665
faces\askh7.jpg,151.5166
faces\askh66.jpg,151.53421
faces\askh33.jpg,151.5527
faces\askh31.jpg,152.37703
faces\fost_sheep1_5.jpg,152.39532
faces\askh_sheep3_0.jpg,153.08247
faces\fost29.jpg,154.00232
faces\askh_sheep7_1.jpg,154.59697
faces\bish2.jpg,155.34782
faces\askh_sheep1_0.jpg,156.66951
faces\askh_sheep7_0.jpg,156.76259
faces\askh_sheep10_1.jpg,157.14677
faces\askh74.jpg,158.45787
faces\askh58.jpg,158.95406
faces\askh_sheep9_1.jpg,158.98506
faces\askh12.jpg,159.17918
faces\askh96.jpg,159.63065
faces\askh29.jpg,159.6725
faces\askh_sheep3_1.jpg,161.33629
faces\askh_sheep1_1.jpg,161.38133
faces\askh_sheep10_0.jpg,161.60823
faces\askh_sheep5_2.jpg,162.30989
faces\askh94.jpg,162.34125
faces\askh54.jpg,162.78572
faces\bish16.jpg,163.2384
faces\askh_sheep9_0.jpg,163.87614
faces\askh25.jpg,164.2789
faces\askh60.jpg,164.8344
faces\askh82.jpg,165.13028
faces\fost17.jpg,165.34413
faces\askh72.jpg,165.36877
faces\askh1.jpg,166.45647
faces\askh24.jpg,166.74251
faces\askh84.jpg,166.79074
faces\askh_sheep2_0.jpg,167.49867
faces\askh88.jpg,167.94553
faces\askh70.jpg,168.51099
faces\askh_sheep5_1.jpg,168.72859
faces\askh_sheep2_4.jpg,169.06361
faces\askh83.jpg,169.26077
faces\askh_sheep8_1.jpg,169.58977
faces\askh_sheep5_0.jpg,170.16524
faces\askh_sheep1_2.jpg,170.68402
faces\fost10.jpg,170.73215
faces\askh_sheep2_2.jpg,171.21211
faces\askh68.jpg,171.68333
faces\askh_sheep2_1.jpg,172.36351
faces\askh_sheep6_1.jpg,173.2493
faces\askh39.jpg,173.41565
faces\askh78.jpg,173.52388
faces\askh75.jpg,173.68326
faces\askh3.jpg,173.84239
faces\askh71.jpg,173.9552
faces\askh77.jpg,173.99768
faces\askh97.jpg,174.19025
faces\askh45.jpg,174.60664
faces\askh15.jpg,175.06786
faces\askh69.jpg,175.21341
faces\fost14.jpg,175.87152
faces\askh10.jpg,175.94885
faces\askh35.jpg,176.03778
faces\askh17.jpg,176.32643
faces\askh_sheep2_3.jpg,176.52193
faces\askh13.jpg,176.78821
faces\fost22.jpg,178.01103
faces\fost13.jpg,178.35974
faces\askh73.jpg,178.37288
faces\fost41.jpg,178.47807
faces\askh_sheep8_0.jpg,178.48558
faces\askh_sheep4_1.jpg,179.09146
faces\askh_sheep4_0.jpg,179.87401
faces\askh76.jpg,180.07591
faces\askh42.jpg,180.07768
faces\fost16.jpg,180.10336
faces\askh_sheep4_2.jpg,180.14021
faces\fost30.jpg,180.32321
faces\askh57.jpg,180.84966
faces\askh_sheep6_0.jpg,180.89749
faces\fost40.jpg,182.0972
faces\askh93.jpg,183.03595
faces\askh81.jpg,186.10936
faces\fost12.jpg,186.72958
faces\fost20.jpg,188.16908
faces\fost19.jpg,189.82658
faces\askh48.jpg,191.29199
faces\fost42.jpg,195.74701
faces\fost37.jpg,197.82007
faces\fost39.jpg,199.4654
faces\fost34.jpg,200.69833
faces\fost23.jpg,204.45929
