"image name","distance score"
faces\askh83.jpg,108.12237
faces\askh_sheep7_0.jpg,112.11019
faces\askh_sheep10_0.jpg,114.12967
faces\askh_sheep4_0.jpg,114.96834
faces\askh_sheep7_1.jpg,115.19415
faces\askh_sheep2_4.jpg,115.98141
faces\askh17.jpg,116.51037
faces\askh71.jpg,118.663506
faces\askh_sheep2_1.jpg,119.064476
faces\askh68.jpg,120.00576
faces\askh39.jpg,120.447495
faces\askh_sheep2_3.jpg,120.64572
faces\askh_sheep1_1.jpg,121.15213
faces\askh_sheep2_0.jpg,121.21131
faces\askh13.jpg,122.29365
faces\askh76.jpg,124.54601
faces\askh_sheep1_0.jpg,124.726906
faces\askh_sheep2_2.jpg,125.81686
faces\askh75.jpg,126.04537
faces\askh88.jpg,126.1073
faces\askh77.jpg,126.932495
faces\askh25.jpg,127.005905
faces\askh_sheep5_1.jpg,127.29377
faces\askh24.jpg,127.34408
faces\askh57.jpg,127.4438
faces\askh35.jpg,127.855446
faces\askh_sheep5_0.jpg,128.04834
faces\askh73.jpg,128.84792
faces\askh_sheep10_1.jpg,129.13489
faces\askh60.jpg,129.63126
faces\askh94.jpg,130.15952
faces\askh12.jpg,130.19508
faces\askh58.jpg,130.30426
faces\askh78.jpg,130.86821
faces\askh96.jpg,130.97351
faces\askh_sheep1_2.jpg,130.98914
faces\askh_sheep6_0.jpg,131.03807
faces\askh1.jpg,131.13211
faces\askh74.jpg,132.32997
faces\askh69.jpg,133.25966
faces\askh10.jpg,133.30997
faces\fost10.jpg,133.81194
faces\askh93.jpg,134.13768
faces\askh_sheep5_2.jpg,134.18517
faces\askh_sheep9_0.jpg,135.34073
faces\askh42.jpg,135.37
faces\askh29.jpg,135.42888
faces\askh_sheep6_1.jpg,135.54504
faces\askh45.jpg,135.80164
faces\askh72.jpg,135.99214
faces\fost17.jpg,136.05005
faces\askh97.jpg,136.37769
faces\askh7.jpg,137.06772
faces\fost14.jpg,137.9311
faces\askh_sheep8_1.jpg,138.09026
faces\askh15.jpg,138.10016
faces\askh_sheep4_2.jpg,138.5963
faces\askh3.jpg,138.80316
faces\askh70.jpg,139.07707
faces\askh_sheep9_1.jpg,139.13033
faces\askh36.jpg,139.18001
faces\askh_sheep3_0.jpg,139.48856
faces\askh_sheep4_1.jpg,139.63025
faces\askh34.jpg,139.88351
faces\askh31.jpg,139.95056
faces\askh9.jpg,140.254
faces\askh14.jpg,140.9119
faces\askh_sheep3_1.jpg,140.97493
faces\fost19.jpg,141.1595
faces\askh84.jpg,142.07983
faces\fost2.jpg,142.71187
faces\fost22.jpg,143.25804
faces\askh82.jpg,143.70592
faces\askh23.jpg,143.96693
faces\askh43.jpg,144.97675
faces\bish13.jpg,144.99042
faces\askh48.jpg,145.03929
faces\askh64.jpg,145.21364
faces\askh33.jpg,147.47934
faces\askh_sheep8_0.jpg,147.60182
faces\fost16.jpg,148.69763
faces\fost12.jpg,151.11005
faces\fost30.jpg,153.40283
faces\askh44.jpg,154.65352
faces\askh5.jpg,154.95216
faces\askh8.jpg,155.68193
faces\askh2.jpg,156.33823
faces\askh62.jpg,157.07693
faces\askh18.jpg,157.50122
faces\askh37.jpg,157.78146
faces\askh19.jpg,158.19684
faces\fost39.jpg,158.67618
faces\askh92.jpg,160.16666
faces\askh53.jpg,161.24657
faces\askh61.jpg,162.61327
faces\askh41.jpg,162.78882
faces\fost29.jpg,163.20657
faces\fost_sheep2_1.jpg,163.83708
faces\fost40.jpg,164.17455
faces\fost_sheep2_0.jpg,167.35678
faces\askh30.jpg,168.5485
faces\fost3.jpg,168.70007
faces\askh47.jpg,169.15857
faces\askh91.jpg,169.20047
faces\fost25.jpg,172.9836
faces\fost37.jpg,174.3146
faces\fost_sheep1_1.jpg,174.6576
faces\fost_sheep1_2.jpg,175.4947
faces\askh95.jpg,175.69559
faces\fost41.jpg,176.94398
faces\askh6.jpg,177.60332
faces\fost34.jpg,179.6909
faces\askh16.jpg,180.28514
faces\fost8.jpg,180.65625
faces\fost23.jpg,181.39561
faces\fost7.jpg,181.70999
faces\fost20.jpg,181.78357
faces\fost_sheep1_0.jpg,183.12871
faces\fost35.jpg,186.10936
faces\askh54.jpg,187.92892
faces\fost24.jpg,189.47731
faces\bish4.jpg,190.00029
faces\askh66.jpg,192.05592
faces\askh51.jpg,192.65945
faces\fost_sheep1_4.jpg,192.89766
faces\bish2.jpg,193.1628
faces\fost_sheep1_3.jpg,195.28162
faces\bish5.jpg,195.81479
faces\fost42.jpg,200.26695
faces\fost28.jpg,201.0439
faces\fost_sheep1_5.jpg,205.09668
faces\fost13.jpg,217.86069
faces\bish16.jpg,238.08842
