"image name","distance score"
faces\askh41.jpg,55.453163
faces\askh43.jpg,80.056885
faces\askh18.jpg,80.62367
faces\askh62.jpg,81.85383
faces\askh37.jpg,83.22991
faces\askh47.jpg,84.30887
faces\askh61.jpg,90.412636
faces\askh6.jpg,92.60903
faces\askh2.jpg,93.663734
faces\askh5.jpg,93.689064
faces\askh64.jpg,94.327545
faces\askh30.jpg,95.58189
faces\askh53.jpg,98.141205
faces\askh95.jpg,99.467735
faces\askh92.jpg,100.305824
faces\askh91.jpg,104.62119
faces\fost2.jpg,105.91457
faces\askh66.jpg,108.65271
faces\askh16.jpg,110.6217
faces\fost_sheep2_0.jpg,114.84665
faces\fost_sheep2_1.jpg,116.76902
faces\askh51.jpg,117.28326
faces\askh54.jpg,119.22146
faces\askh34.jpg,119.49693
faces\askh36.jpg,119.6188
faces\bish2.jpg,121.10461
faces\askh_sheep3_0.jpg,121.881584
faces\fost_sheep1_0.jpg,123.10657
faces\askh_sheep7_0.jpg,123.531265
faces\fost_sheep1_2.jpg,123.53633
faces\askh58.jpg,124.62612
faces\fost_sheep1_1.jpg,125.776825
faces\fost8.jpg,126.25202
faces\askh_sheep7_1.jpg,126.28618
faces\askh7.jpg,126.381714
faces\askh_sheep9_1.jpg,126.64759
faces\askh_sheep9_0.jpg,127.014275
faces\askh23.jpg,127.202515
faces\askh9.jpg,127.70993
faces\fost7.jpg,128.03859
faces\askh_sheep3_1.jpg,128.5995
faces\askh83.jpg,129.69962
faces\askh96.jpg,130.18701
faces\askh_sheep1_0.jpg,130.96303
faces\bish4.jpg,131.22028
faces\fost24.jpg,132.4104
faces\askh_sheep1_1.jpg,132.42235
faces\askh60.jpg,132.59918
faces\fost17.jpg,132.7604
faces\askh8.jpg,132.99615
faces\fost_sheep1_4.jpg,133.11978
faces\fost35.jpg,133.1676
faces\askh_sheep10_1.jpg,133.59514
faces\fost_sheep1_3.jpg,133.86766
faces\askh25.jpg,134.74539
faces\askh_sheep2_4.jpg,134.89108
faces\askh_sheep10_0.jpg,135.12683
faces\askh3.jpg,135.49416
faces\askh75.jpg,137.70317
faces\askh33.jpg,137.89883
faces\askh_sheep2_0.jpg,138.34935
faces\askh29.jpg,138.35687
faces\askh_sheep1_2.jpg,139.18408
faces\fost25.jpg,139.95195
faces\askh1.jpg,141.36293
faces\askh14.jpg,141.78423
faces\askh97.jpg,141.7912
faces\fost_sheep1_5.jpg,142.11722
faces\askh35.jpg,142.16219
faces\askh31.jpg,143.03857
faces\askh_sheep8_1.jpg,143.16342
faces\askh94.jpg,143.65915
faces\askh_sheep2_2.jpg,145.08963
faces\askh_sheep2_3.jpg,145.48634
faces\askh88.jpg,146.23537
faces\askh70.jpg,146.29588
faces\fost29.jpg,146.6439
faces\fost22.jpg,146.92886
faces\fost13.jpg,147.29105
faces\askh84.jpg,147.3977
faces\askh42.jpg,147.5591
faces\bish13.jpg,147.75578
faces\askh74.jpg,147.92313
faces\askh24.jpg,148.05902
faces\askh12.jpg,148.08916
faces\askh13.jpg,148.25085
faces\askh_sheep4_0.jpg,148.34866
faces\askh_sheep2_1.jpg,148.42284
faces\askh77.jpg,148.442
faces\askh82.jpg,148.87659
faces\askh68.jpg,149.25075
faces\fost28.jpg,149.50504
faces\fost10.jpg,149.56647
faces\askh19.jpg,149.80109
faces\fost42.jpg,150.37872
faces\askh17.jpg,150.47298
faces\askh76.jpg,150.6691
faces\askh73.jpg,150.67038
faces\askh_sheep5_2.jpg,150.72647
faces\askh71.jpg,151.05765
faces\bish5.jpg,151.21362
faces\askh_sheep5_1.jpg,151.41077
faces\askh15.jpg,151.56189
faces\askh_sheep5_0.jpg,151.89017
faces\askh72.jpg,151.94147
faces\askh_sheep6_1.jpg,152.61292
faces\askh69.jpg,152.80565
faces\fost14.jpg,153.187
faces\askh45.jpg,154.56711
faces\askh93.jpg,154.5692
faces\askh81.jpg,154.65352
faces\askh10.jpg,154.73868
faces\askh_sheep8_0.jpg,155.18417
faces\fost19.jpg,155.53152
faces\askh39.jpg,156.30695
faces\fost40.jpg,156.8051
faces\askh_sheep6_0.jpg,157.68617
faces\askh_sheep4_1.jpg,157.71326
faces\askh78.jpg,158.35658
faces\fost12.jpg,159.04666
faces\askh57.jpg,159.56569
faces\fost3.jpg,161.23079
faces\fost16.jpg,163.64247
faces\askh_sheep4_2.jpg,165.94537
faces\bish16.jpg,168.31863
faces\askh48.jpg,168.81955
faces\fost39.jpg,171.98492
faces\fost41.jpg,177.29858
faces\fost30.jpg,177.62033
faces\fost20.jpg,178.04358
faces\fost37.jpg,181.7046
faces\fost23.jpg,184.56296
faces\fost34.jpg,185.90933
