"image name","distance score"
faces\askh34.jpg,103.71002
faces\askh60.jpg,104.91938
faces\askh_sheep1_1.jpg,112.186874
faces\askh_sheep4_1.jpg,112.79466
faces\askh_sheep5_0.jpg,113.19895
faces\askh12.jpg,115.45229
faces\askh23.jpg,116.633026
faces\askh_sheep10_0.jpg,118.388374
faces\askh_sheep1_0.jpg,118.43673
faces\askh68.jpg,118.60061
faces\askh_sheep10_1.jpg,119.56987
faces\askh83.jpg,120.2194
faces\askh58.jpg,120.86449
faces\askh39.jpg,121.153244
faces\askh24.jpg,121.21763
faces\askh_sheep1_2.jpg,121.64617
faces\askh57.jpg,121.71412
faces\askh_sheep9_0.jpg,121.7421
faces\askh_sheep5_2.jpg,121.93481
faces\askh13.jpg,122.16099
faces\askh_sheep4_0.jpg,122.50851
faces\askh_sheep7_1.jpg,122.80302
faces\askh_sheep5_1.jpg,123.17183
faces\askh_sheep2_4.jpg,123.288414
faces\askh_sheep9_1.jpg,123.50831
faces\askh_sheep7_0.jpg,124.55734
faces\askh9.jpg,124.64423
faces\askh15.jpg,125.17095
faces\askh31.jpg,125.470055
faces\askh96.jpg,126.66477
faces\askh_sheep3_1.jpg,127.86587
faces\askh74.jpg,127.952675
faces\askh97.jpg,128.1982
faces\askh8.jpg,128.5591
faces\fost2.jpg,129.12193
faces\askh76.jpg,129.15955
faces\askh72.jpg,129.47374
faces\askh_sheep8_1.jpg,129.73964
faces\askh_sheep2_1.jpg,129.97392
faces\askh36.jpg,130.39893
faces\askh73.jpg,131.0548
faces\askh7.jpg,131.90645
faces\askh25.jpg,132.41078
faces\askh33.jpg,132.94672
faces\askh88.jpg,133.1293
faces\askh77.jpg,133.4188
faces\askh35.jpg,133.55287
faces\askh78.jpg,134.00862
faces\askh_sheep3_0.jpg,134.14862
faces\askh_sheep2_0.jpg,134.31805
faces\askh10.jpg,135.18301
faces\askh71.jpg,135.21555
faces\askh43.jpg,135.31026
faces\askh94.jpg,135.42241
faces\askh81.jpg,135.42888
faces\askh_sheep2_2.jpg,135.73845
faces\askh_sheep6_0.jpg,135.78136
faces\askh42.jpg,136.4152
faces\askh17.jpg,136.8769
faces\askh45.jpg,137.10733
faces\askh_sheep6_1.jpg,137.13353
faces\askh19.jpg,137.13979
faces\fost25.jpg,137.73338
faces\askh_sheep2_3.jpg,137.74031
faces\fost17.jpg,137.74046
faces\fost10.jpg,138.15335
faces\askh44.jpg,138.35687
faces\askh93.jpg,138.8125
faces\askh14.jpg,139.07794
faces\askh_sheep4_2.jpg,139.43701
faces\fost14.jpg,139.53064
faces\fost29.jpg,139.73146
faces\askh1.jpg,140.07503
faces\askh69.jpg,141.61636
faces\askh2.jpg,142.50468
faces\askh48.jpg,142.7291
faces\bish13.jpg,143.60843
faces\askh18.jpg,144.13652
faces\fost22.jpg,144.31848
faces\askh37.jpg,144.39923
faces\askh84.jpg,144.47316
faces\askh75.jpg,144.48425
faces\fost30.jpg,145.02457
faces\askh41.jpg,145.48337
faces\askh62.jpg,145.80971
faces\fost12.jpg,145.96077
faces\fost16.jpg,146.37386
faces\askh82.jpg,146.80435
faces\askh_sheep8_0.jpg,148.27568
faces\fost19.jpg,148.82161
faces\fost_sheep2_0.jpg,151.5391
faces\fost3.jpg,151.67459
faces\fost_sheep2_1.jpg,151.97899
faces\askh64.jpg,152.09033
faces\fost40.jpg,152.49454
faces\fost7.jpg,153.00348
faces\askh70.jpg,153.53716
faces\askh53.jpg,153.60191
faces\askh47.jpg,154.63397
faces\fost39.jpg,155.55693
faces\askh3.jpg,155.84134
faces\askh61.jpg,156.14267
faces\askh5.jpg,156.50153
faces\askh92.jpg,156.65913
faces\fost_sheep1_1.jpg,158.30583
faces\askh95.jpg,158.55891
faces\fost41.jpg,159.54787
faces\fost35.jpg,159.6725
faces\fost8.jpg,160.08382
faces\fost_sheep1_0.jpg,160.54555
faces\fost24.jpg,160.91463
faces\fost_sheep1_2.jpg,162.93095
faces\askh30.jpg,164.1168
faces\askh6.jpg,164.4114
faces\fost20.jpg,164.6404
faces\fost37.jpg,166.01364
faces\bish5.jpg,166.52356
faces\fost34.jpg,167.32912
faces\askh91.jpg,169.3054
faces\fost28.jpg,170.86201
faces\fost_sheep1_4.jpg,174.3182
faces\askh16.jpg,175.74182
faces\askh54.jpg,176.33018
faces\fost23.jpg,176.49078
faces\fost_sheep1_3.jpg,176.74149
faces\bish4.jpg,176.86716
faces\bish2.jpg,181.89574
faces\askh66.jpg,182.01877
faces\askh51.jpg,183.36377
faces\fost_sheep1_5.jpg,190.53456
faces\fost42.jpg,198.26697
faces\fost13.jpg,205.27176
faces\bish16.jpg,216.80934
