"image name","distance score"
faces\askh96.jpg,88.13601
faces\askh23.jpg,102.86997
faces\askh_sheep1_0.jpg,112.958405
faces\askh97.jpg,115.78066
faces\askh24.jpg,116.17484
faces\askh_sheep3_0.jpg,116.46388
faces\askh14.jpg,117.131775
faces\askh36.jpg,118.30794
faces\askh_sheep10_1.jpg,119.347404
faces\askh_sheep1_2.jpg,120.86886
faces\askh34.jpg,121.24468
faces\askh9.jpg,121.49624
faces\askh_sheep10_0.jpg,122.40988
faces\askh_sheep1_1.jpg,122.6487
faces\askh31.jpg,123.17492
faces\askh83.jpg,123.849785
faces\askh58.jpg,123.89595
faces\fost2.jpg,124.49452
faces\askh64.jpg,124.75256
faces\askh33.jpg,125.13705
faces\askh_sheep6_0.jpg,125.60674
faces\askh_sheep6_1.jpg,126.20063
faces\askh41.jpg,126.301765
faces\askh44.jpg,126.381714
faces\askh88.jpg,126.64894
faces\askh47.jpg,127.02093
faces\askh92.jpg,127.20338
faces\askh_sheep3_1.jpg,127.340515
faces\askh39.jpg,129.38017
faces\askh71.jpg,130.18587
faces\askh62.jpg,130.87624
faces\askh15.jpg,131.76524
faces\askh_sheep7_1.jpg,131.83855
faces\askh_sheep2_0.jpg,131.87323
faces\askh29.jpg,131.90645
faces\askh43.jpg,132.04977
faces\askh_sheep7_0.jpg,132.16336
faces\askh1.jpg,132.49077
faces\fost3.jpg,133.08006
faces\askh25.jpg,133.2384
faces\askh13.jpg,133.31024
faces\askh68.jpg,133.7144
faces\askh_sheep2_1.jpg,133.73589
faces\fost17.jpg,134.10583
faces\askh_sheep2_4.jpg,134.25989
faces\askh_sheep4_0.jpg,134.32066
faces\askh12.jpg,134.6323
faces\askh53.jpg,134.68875
faces\askh17.jpg,136.34482
faces\fost22.jpg,136.3673
faces\askh94.jpg,136.40607
faces\askh61.jpg,136.51587
faces\askh18.jpg,136.8608
faces\askh60.jpg,137.04732
faces\askh35.jpg,137.05975
faces\askh81.jpg,137.06772
faces\askh74.jpg,137.63452
faces\askh_sheep9_0.jpg,138.16457
faces\askh_sheep2_2.jpg,138.43079
faces\askh_sheep9_1.jpg,138.75333
faces\askh42.jpg,139.05003
faces\askh8.jpg,139.33113
faces\askh_sheep5_2.jpg,139.70369
faces\askh_sheep2_3.jpg,139.856
faces\askh_sheep8_1.jpg,140.03348
faces\fost29.jpg,140.34947
faces\askh_sheep5_0.jpg,142.15648
faces\askh73.jpg,142.29778
faces\bish13.jpg,142.98286
faces\askh91.jpg,143.28723
faces\fost_sheep2_1.jpg,143.52975
faces\askh10.jpg,144.02124
faces\askh76.jpg,144.53398
faces\askh75.jpg,144.57944
faces\askh30.jpg,144.6102
faces\askh77.jpg,145.32909
faces\askh70.jpg,145.74161
faces\askh3.jpg,145.78577
faces\askh16.jpg,146.29701
faces\askh84.jpg,146.30888
faces\fost10.jpg,146.52325
faces\askh72.jpg,146.57137
faces\fost25.jpg,146.61716
faces\askh57.jpg,146.62029
faces\askh69.jpg,146.97324
faces\askh5.jpg,147.06265
faces\askh95.jpg,147.26366
faces\askh6.jpg,147.90987
faces\askh19.jpg,147.91727
faces\askh_sheep5_1.jpg,148.4542
faces\fost19.jpg,148.5219
faces\askh2.jpg,148.93048
faces\askh82.jpg,149.35649
faces\fost_sheep2_0.jpg,149.81493
faces\fost14.jpg,150.10574
faces\askh78.jpg,150.4594
faces\askh93.jpg,150.5794
faces\askh_sheep8_0.jpg,151.4038
faces\fost35.jpg,151.51662
faces\askh37.jpg,151.64381
faces\fost24.jpg,152.45755
faces\fost12.jpg,152.56807
faces\fost7.jpg,152.58815
faces\fost20.jpg,153.08353
faces\askh_sheep4_1.jpg,153.53722
faces\askh_sheep4_2.jpg,153.9486
faces\fost16.jpg,154.43593
faces\askh66.jpg,155.18338
faces\fost_sheep1_0.jpg,158.32335
faces\askh45.jpg,158.83025
faces\askh48.jpg,161.85698
faces\fost_sheep1_2.jpg,162.97496
faces\fost8.jpg,163.54298
faces\fost_sheep1_1.jpg,163.82126
faces\bish5.jpg,164.87407
faces\askh51.jpg,165.6136
faces\fost39.jpg,166.93402
faces\fost40.jpg,167.61285
faces\fost28.jpg,171.17331
faces\bish2.jpg,172.48463
faces\fost37.jpg,172.92369
faces\fost30.jpg,173.21191
faces\fost_sheep1_4.jpg,174.08539
faces\fost23.jpg,174.63876
faces\askh54.jpg,174.81255
faces\fost41.jpg,177.20236
faces\fost_sheep1_3.jpg,177.40091
faces\fost34.jpg,183.3355
faces\fost13.jpg,185.17177
faces\fost_sheep1_5.jpg,186.34792
faces\bish4.jpg,186.72525
faces\fost42.jpg,193.11697
faces\bish16.jpg,210.50926
