"image name","distance score"
faces\fost23.jpg,91.37444
faces\fost12.jpg,94.60445
faces\fost37.jpg,97.232506
faces\fost22.jpg,109.22108
faces\fost39.jpg,110.59258
faces\fost16.jpg,110.785774
faces\fost34.jpg,112.45167
faces\fost29.jpg,112.58103
faces\fost10.jpg,112.98992
faces\fost14.jpg,118.03036
faces\askh_sheep8_0.jpg,118.422966
faces\askh48.jpg,118.457184
faces\fost3.jpg,120.86358
faces\askh_sheep8_1.jpg,121.99952
faces\fost19.jpg,122.3005
faces\fost41.jpg,123.233536
faces\fost17.jpg,125.79342
faces\askh88.jpg,131.71521
faces\askh_sheep6_0.jpg,132.9826
faces\fost25.jpg,133.29929
faces\askh42.jpg,135.22311
faces\askh15.jpg,136.8194
faces\askh_sheep6_1.jpg,137.68468
faces\askh68.jpg,138.63101
faces\askh57.jpg,140.20166
faces\askh33.jpg,140.58737
faces\askh_sheep4_1.jpg,142.41397
faces\askh_sheep3_1.jpg,142.6389
faces\askh_sheep2_3.jpg,143.29317
faces\askh12.jpg,143.89018
faces\askh19.jpg,144.2813
faces\askh_sheep1_2.jpg,144.62811
faces\askh93.jpg,147.83786
faces\askh8.jpg,148.1616
faces\askh45.jpg,148.23343
faces\askh_sheep4_0.jpg,148.86575
faces\askh69.jpg,148.87991
faces\askh72.jpg,149.39207
faces\askh23.jpg,149.6636
faces\askh97.jpg,150.34724
faces\askh35.jpg,151.27948
faces\askh13.jpg,151.90549
faces\askh94.jpg,151.913
faces\askh71.jpg,152.23944
faces\askh7.jpg,153.08353
faces\fost30.jpg,153.48123
faces\askh58.jpg,153.51083
faces\askh1.jpg,153.6044
faces\askh_sheep2_4.jpg,153.69336
faces\askh43.jpg,153.84415
faces\askh_sheep2_0.jpg,154.75854
faces\askh74.jpg,154.8789
faces\askh39.jpg,155.88681
faces\askh_sheep2_1.jpg,156.01588
faces\askh83.jpg,156.36343
faces\askh10.jpg,156.96138
faces\askh14.jpg,157.82533
faces\askh_sheep4_2.jpg,157.89684
faces\askh_sheep7_0.jpg,158.50836
faces\askh_sheep1_0.jpg,158.53397
faces\askh_sheep5_2.jpg,158.9211
faces\askh78.jpg,159.01212
faces\askh9.jpg,159.29974
faces\askh_sheep1_1.jpg,159.62862
faces\askh_sheep7_1.jpg,159.7853
faces\askh_sheep9_0.jpg,159.98276
faces\askh84.jpg,160.25214
faces\askh96.jpg,161.30946
faces\askh3.jpg,161.76932
faces\askh60.jpg,162.86935
faces\askh25.jpg,162.94409
faces\askh_sheep10_0.jpg,163.67378
faces\askh34.jpg,163.94392
faces\fost40.jpg,164.54243
faces\askh29.jpg,164.6404
faces\askh_sheep10_1.jpg,164.78699
faces\fost24.jpg,165.93939
faces\askh17.jpg,166.17654
faces\bish13.jpg,166.98018
faces\askh24.jpg,167.25818
faces\askh77.jpg,167.39467
faces\askh82.jpg,168.44926
faces\askh73.jpg,168.6733
faces\askh62.jpg,169.26991
faces\askh70.jpg,169.36186
faces\askh_sheep2_2.jpg,171.25801
faces\askh_sheep3_0.jpg,171.34843
faces\askh31.jpg,171.83249
faces\askh75.jpg,172.19855
faces\askh76.jpg,172.52562
faces\askh_sheep5_0.jpg,172.97858
faces\fost2.jpg,173.97437
faces\askh2.jpg,174.86177
faces\fost_sheep2_1.jpg,175.38492
faces\fost7.jpg,177.62808
faces\askh44.jpg,178.04358
faces\askh81.jpg,181.78357
faces\fost_sheep2_0.jpg,182.09555
faces\askh47.jpg,182.39958
faces\askh36.jpg,182.51115
faces\askh_sheep9_1.jpg,183.83774
faces\askh64.jpg,184.08919
faces\askh5.jpg,186.1678
faces\fost35.jpg,188.16908
faces\askh_sheep5_1.jpg,189.39287
faces\askh37.jpg,189.97623
faces\askh18.jpg,191.16217
faces\askh95.jpg,191.89134
faces\askh53.jpg,191.89476
faces\askh41.jpg,192.92204
faces\askh92.jpg,193.88826
faces\fost_sheep1_1.jpg,194.91959
faces\fost8.jpg,196.03061
faces\fost_sheep1_2.jpg,198.10643
faces\askh30.jpg,203.95222
faces\fost_sheep1_0.jpg,205.62888
faces\bish5.jpg,206.70464
faces\askh61.jpg,208.40279
faces\bish2.jpg,211.69427
faces\askh6.jpg,212.1039
faces\fost28.jpg,215.6436
faces\askh91.jpg,216.8584
faces\fost_sheep1_3.jpg,219.22888
faces\askh16.jpg,220.8413
faces\askh66.jpg,221.97195
faces\fost_sheep1_4.jpg,225.53696
faces\askh51.jpg,229.05045
faces\bish4.jpg,230.5942
faces\fost42.jpg,243.68704
faces\fost_sheep1_5.jpg,248.86974
faces\askh54.jpg,251.29512
faces\fost13.jpg,267.15305
faces\bish16.jpg,283.0939
