"image name","distance score"
faces\fost12.jpg,81.58602
faces\askh42.jpg,86.09137
faces\askh68.jpg,88.365715
faces\fost39.jpg,91.490295
faces\fost14.jpg,93.524864
faces\fost37.jpg,94.77548
faces\fost10.jpg,96.25897
faces\askh_sheep4_0.jpg,97.361694
faces\askh45.jpg,97.575806
faces\askh57.jpg,98.81595
faces\fost34.jpg,99.33725
faces\fost23.jpg,99.88503
faces\fost16.jpg,99.9045
faces\askh_sheep8_0.jpg,100.3218
faces\fost22.jpg,101.83038
faces\askh_sheep8_1.jpg,102.05736
faces\fost41.jpg,103.71353
faces\askh13.jpg,105.418846
faces\askh15.jpg,106.24503
faces\fost19.jpg,107.226906
faces\askh93.jpg,108.004654
faces\askh69.jpg,109.08458
faces\askh_sheep6_0.jpg,109.560814
faces\askh_sheep4_1.jpg,110.217125
faces\askh_sheep2_3.jpg,111.42399
faces\fost30.jpg,112.66183
faces\askh35.jpg,113.51656
faces\askh88.jpg,113.991425
faces\askh_sheep2_4.jpg,114.08073
faces\askh_sheep1_2.jpg,114.24668
faces\askh_sheep4_2.jpg,114.45799
faces\fost17.jpg,115.020424
faces\askh_sheep6_1.jpg,115.127205
faces\askh_sheep1_1.jpg,118.42062
faces\fost20.jpg,118.457184
faces\askh72.jpg,119.073746
faces\fost29.jpg,120.07889
faces\askh83.jpg,121.73234
faces\askh_sheep9_0.jpg,122.16996
faces\askh_sheep7_0.jpg,123.07257
faces\askh1.jpg,123.14724
faces\askh_sheep1_0.jpg,123.510475
faces\askh_sheep3_1.jpg,124.24219
faces\askh78.jpg,124.62856
faces\askh17.jpg,126.03852
faces\askh94.jpg,126.95177
faces\askh_sheep2_0.jpg,128.23799
faces\askh60.jpg,128.80856
faces\askh71.jpg,129.08598
faces\askh12.jpg,129.26602
faces\askh39.jpg,129.50322
faces\askh_sheep7_1.jpg,129.54918
faces\askh_sheep10_0.jpg,129.56238
faces\askh74.jpg,129.78198
faces\askh_sheep10_1.jpg,130.2068
faces\askh25.jpg,130.62703
faces\askh_sheep2_1.jpg,130.67656
faces\askh10.jpg,132.47597
faces\askh77.jpg,133.60434
faces\askh_sheep5_2.jpg,134.10532
faces\askh58.jpg,134.14984
faces\askh97.jpg,137.45285
faces\askh3.jpg,138.39821
faces\askh75.jpg,139.72363
faces\askh_sheep2_2.jpg,139.83208
faces\askh76.jpg,139.94467
faces\askh84.jpg,140.80661
faces\askh43.jpg,140.87108
faces\askh33.jpg,140.96355
faces\askh_sheep5_0.jpg,141.79927
faces\askh29.jpg,142.7291
faces\askh24.jpg,143.38023
faces\askh73.jpg,144.14453
faces\askh81.jpg,145.03929
faces\askh19.jpg,145.1849
faces\askh34.jpg,145.45827
faces\askh82.jpg,146.32733
faces\askh8.jpg,150.06767
faces\askh70.jpg,150.07698
faces\fost25.jpg,150.09402
faces\askh96.jpg,150.97026
faces\askh_sheep9_1.jpg,151.48482
faces\fost40.jpg,152.17168
faces\askh23.jpg,152.773
faces\askh31.jpg,154.16205
faces\askh_sheep5_1.jpg,154.8023
faces\askh9.jpg,154.93579
faces\askh14.jpg,155.23018
faces\fost3.jpg,155.8144
faces\askh_sheep3_0.jpg,157.10214
faces\bish13.jpg,157.93759
faces\askh2.jpg,158.39717
faces\fost2.jpg,161.78545
faces\askh7.jpg,161.85698
faces\askh5.jpg,162.43855
faces\askh36.jpg,164.53194
faces\askh62.jpg,166.0525
faces\askh44.jpg,168.81955
faces\askh37.jpg,169.13652
faces\fost_sheep2_1.jpg,174.69652
faces\fost7.jpg,181.02711
faces\fost24.jpg,181.31776
faces\fost_sheep2_0.jpg,181.54654
faces\askh64.jpg,182.31615
faces\askh18.jpg,184.23785
faces\fost_sheep1_1.jpg,186.74272
faces\fost8.jpg,187.24797
faces\askh41.jpg,189.32898
faces\askh47.jpg,190.07693
faces\fost_sheep1_2.jpg,190.84784
faces\fost35.jpg,191.29199
faces\askh53.jpg,195.18555
faces\askh92.jpg,196.01695
faces\askh95.jpg,196.03821
faces\askh61.jpg,200.56583
faces\fost_sheep1_0.jpg,203.6118
faces\askh30.jpg,205.80698
faces\askh6.jpg,211.41824
faces\bish5.jpg,212.52997
faces\bish2.jpg,212.75003
faces\fost_sheep1_3.jpg,212.7581
faces\bish4.jpg,214.17126
faces\askh91.jpg,214.34541
faces\fost28.jpg,218.0609
faces\fost_sheep1_4.jpg,219.86562
faces\askh16.jpg,221.50987
faces\askh66.jpg,228.99562
faces\askh51.jpg,232.38377
faces\fost42.jpg,235.74985
faces\askh54.jpg,241.58997
faces\fost_sheep1_5.jpg,242.14696
faces\fost13.jpg,266.99316
faces\bish16.jpg,280.78345
