"image name","distance score"
faces\askh_sheep2_4.jpg,84.937035
faces\askh_sheep2_3.jpg,91.54482
faces\askh_sheep4_0.jpg,94.59117
faces\askh58.jpg,94.72639
faces\askh_sheep2_0.jpg,96.61685
faces\askh_sheep7_0.jpg,97.2345
faces\askh_sheep2_1.jpg,97.589645
faces\askh_sheep10_0.jpg,98.15969
faces\askh13.jpg,99.89302
faces\askh_sheep2_2.jpg,102.12633
faces\askh_sheep1_1.jpg,103.09346
faces\askh68.jpg,103.491165
faces\askh57.jpg,104.61908
faces\askh35.jpg,105.100586
faces\askh_sheep7_1.jpg,106.45915
faces\askh_sheep1_2.jpg,107.4891
faces\askh69.jpg,107.65589
faces\askh42.jpg,107.703186
faces\askh_sheep3_1.jpg,107.91351
faces\askh81.jpg,108.12237
faces\askh_sheep9_0.jpg,109.012375
faces\askh71.jpg,109.59448
faces\askh_sheep1_0.jpg,109.79014
faces\askh_sheep8_1.jpg,110.05946
faces\askh34.jpg,111.74859
faces\askh76.jpg,112.072784
faces\askh_sheep4_1.jpg,112.49384
faces\askh17.jpg,112.84102
faces\askh75.jpg,113.101105
faces\askh12.jpg,113.96572
faces\askh93.jpg,114.13661
faces\askh88.jpg,114.2311
faces\askh60.jpg,114.89428
faces\askh94.jpg,115.27807
faces\askh72.jpg,115.3764
faces\askh3.jpg,115.48425
faces\askh39.jpg,115.99276
faces\askh96.jpg,116.140945
faces\askh_sheep3_0.jpg,116.94038
faces\fost10.jpg,117.57558
faces\fost19.jpg,117.86884
faces\askh_sheep10_1.jpg,117.910965
faces\askh74.jpg,117.92367
faces\fost22.jpg,117.92692
faces\fost14.jpg,118.64372
faces\askh25.jpg,118.856125
faces\askh43.jpg,119.71359
faces\askh77.jpg,119.98486
faces\askh29.jpg,120.2194
faces\fost17.jpg,120.50472
faces\askh_sheep9_1.jpg,120.561455
faces\askh_sheep6_0.jpg,120.84911
faces\askh73.jpg,120.85543
faces\askh_sheep8_0.jpg,121.05349
faces\askh_sheep4_2.jpg,121.49962
faces\askh48.jpg,121.73234
faces\askh15.jpg,122.3664
faces\askh_sheep6_1.jpg,122.52592
faces\askh97.jpg,122.59878
faces\askh45.jpg,122.794174
faces\askh1.jpg,123.71699
faces\askh7.jpg,123.849785
faces\askh24.jpg,124.468575
faces\fost12.jpg,124.71484
faces\askh78.jpg,125.31718
faces\askh36.jpg,125.64145
faces\askh9.jpg,125.81746
faces\askh70.jpg,126.29758
faces\askh_sheep5_0.jpg,126.70882
faces\askh10.jpg,128.49225
faces\askh44.jpg,129.69962
faces\askh_sheep5_2.jpg,131.28574
faces\askh84.jpg,131.87837
faces\fost39.jpg,132.03249
faces\askh23.jpg,132.2878
faces\askh33.jpg,132.347
faces\askh37.jpg,132.45602
faces\fost2.jpg,132.73552
faces\bish13.jpg,133.09718
faces\askh64.jpg,133.17393
faces\askh5.jpg,133.5036
faces\askh14.jpg,135.19041
faces\askh2.jpg,135.19714
faces\askh82.jpg,135.29176
faces\askh8.jpg,135.62108
faces\askh19.jpg,135.67561
faces\askh31.jpg,137.1077
faces\fost16.jpg,137.11003
faces\askh_sheep5_1.jpg,137.66843
faces\askh62.jpg,139.73877
faces\fost30.jpg,139.87369
faces\askh18.jpg,141.13705
faces\fost29.jpg,143.09236
faces\fost_sheep2_1.jpg,144.5687
faces\askh41.jpg,145.76096
faces\askh47.jpg,146.69188
faces\fost37.jpg,147.20483
faces\fost_sheep2_0.jpg,147.61732
faces\askh92.jpg,148.47417
faces\fost34.jpg,150.6304
faces\fost23.jpg,150.65929
faces\fost41.jpg,151.98422
faces\fost25.jpg,152.6251
faces\askh30.jpg,155.92822
faces\askh61.jpg,156.00264
faces\fost20.jpg,156.36343
faces\askh53.jpg,156.94377
faces\fost40.jpg,158.44138
faces\fost3.jpg,160.4586
faces\askh95.jpg,161.7878
faces\askh91.jpg,162.04788
faces\fost_sheep1_1.jpg,162.40172
faces\fost_sheep1_2.jpg,164.5453
faces\fost24.jpg,164.72719
faces\fost7.jpg,165.53537
faces\askh6.jpg,166.22743
faces\fost8.jpg,166.52267
faces\fost35.jpg,169.26077
faces\fost_sheep1_0.jpg,172.39594
faces\bish4.jpg,173.8152
faces\askh16.jpg,174.14308
faces\askh54.jpg,179.94188
faces\askh66.jpg,181.55637
faces\fost42.jpg,181.55661
faces\fost_sheep1_3.jpg,182.75668
faces\fost_sheep1_4.jpg,182.93922
faces\bish2.jpg,185.0113
faces\fost28.jpg,186.56647
faces\askh51.jpg,188.44504
faces\bish5.jpg,190.88474
faces\fost_sheep1_5.jpg,198.2585
faces\fost13.jpg,210.17102
faces\bish16.jpg,233.28636
