"image name","distance score"
faces\askh41.jpg,70.93481
faces\askh92.jpg,78.07341
faces\askh66.jpg,81.90092
faces\askh64.jpg,82.70622
faces\askh53.jpg,83.224945
faces\askh44.jpg,84.30887
faces\askh30.jpg,84.89395
faces\askh18.jpg,89.205635
faces\askh61.jpg,89.52118
faces\askh62.jpg,90.48501
faces\askh16.jpg,92.22787
faces\askh91.jpg,92.856606
faces\askh43.jpg,93.204315
faces\askh37.jpg,93.74018
faces\askh5.jpg,100.09539
faces\askh2.jpg,101.895805
faces\askh6.jpg,101.975716
faces\askh51.jpg,107.01288
faces\fost_sheep2_1.jpg,114.5412
faces\askh95.jpg,114.9599
faces\bish2.jpg,115.04448
faces\fost_sheep2_0.jpg,119.28025
faces\fost2.jpg,119.61422
faces\askh54.jpg,120.3061
faces\fost_sheep1_0.jpg,124.73884
faces\askh7.jpg,127.02093
faces\askh9.jpg,127.488815
faces\fost_sheep1_2.jpg,132.76646
faces\askh33.jpg,133.10664
faces\fost35.jpg,133.60155
faces\askh23.jpg,133.66887
faces\fost13.jpg,134.09311
faces\fost17.jpg,135.17194
faces\askh_sheep3_0.jpg,135.63562
faces\fost8.jpg,135.98996
faces\fost_sheep1_1.jpg,136.67406
faces\askh14.jpg,137.2531
faces\fost7.jpg,137.46942
faces\askh34.jpg,137.60939
faces\askh36.jpg,139.4997
faces\askh96.jpg,139.52283
faces\fost_sheep1_5.jpg,140.18292
faces\askh8.jpg,141.5648
faces\fost_sheep1_4.jpg,142.23419
faces\askh58.jpg,142.83817
faces\fost24.jpg,143.08199
faces\askh_sheep7_0.jpg,143.43152
faces\fost25.jpg,143.86855
faces\askh19.jpg,145.5103
faces\fost_sheep1_3.jpg,145.62465
faces\askh_sheep3_1.jpg,145.7537
faces\fost42.jpg,146.26549
faces\askh83.jpg,146.69188
faces\askh_sheep10_1.jpg,146.75693
faces\askh_sheep7_1.jpg,146.96608
faces\askh97.jpg,147.78476
faces\fost22.jpg,148.80676
faces\askh_sheep9_1.jpg,148.82523
faces\askh_sheep1_0.jpg,148.84526
faces\askh3.jpg,149.53246
faces\askh60.jpg,150.25021
faces\bish4.jpg,150.54431
faces\askh84.jpg,151.62996
faces\askh_sheep1_2.jpg,151.68091
faces\askh_sheep2_0.jpg,151.69025
faces\askh_sheep10_0.jpg,152.33026
faces\askh75.jpg,152.42708
faces\askh_sheep9_0.jpg,152.5627
faces\askh88.jpg,152.7262
faces\askh82.jpg,153.03574
faces\askh_sheep2_4.jpg,153.40816
faces\askh94.jpg,153.86581
faces\askh_sheep1_1.jpg,153.94182
faces\askh31.jpg,154.26541
faces\askh29.jpg,154.63397
faces\askh_sheep2_2.jpg,155.15
faces\askh70.jpg,155.61952
faces\askh25.jpg,155.90599
faces\askh12.jpg,155.95895
faces\askh_sheep2_1.jpg,156.4901
faces\askh35.jpg,158.00975
faces\fost10.jpg,158.16533
faces\fost28.jpg,158.89911
faces\bish13.jpg,159.15846
faces\askh_sheep8_1.jpg,159.64111
faces\askh71.jpg,160.36932
faces\fost19.jpg,160.67178
faces\fost3.jpg,160.7361
faces\askh17.jpg,161.5598
faces\fost29.jpg,161.64397
faces\askh_sheep2_3.jpg,161.67549
faces\bish5.jpg,161.73087
faces\askh24.jpg,161.85008
faces\askh10.jpg,161.97115
faces\askh1.jpg,162.29948
faces\askh68.jpg,162.87451
faces\askh74.jpg,163.12465
faces\fost14.jpg,163.46877
faces\askh_sheep5_1.jpg,163.97716
faces\askh_sheep5_0.jpg,165.08913
faces\askh73.jpg,165.1902
faces\askh_sheep6_1.jpg,165.20361
faces\askh42.jpg,166.57777
faces\askh_sheep4_0.jpg,167.59087
faces\askh76.jpg,167.68585
faces\askh_sheep6_0.jpg,168.09187
faces\askh_sheep8_0.jpg,168.38477
faces\askh77.jpg,168.81215
faces\askh81.jpg,169.15857
faces\askh_sheep5_2.jpg,169.4307
faces\bish16.jpg,169.57208
faces\askh69.jpg,169.72878
faces\askh15.jpg,170.95811
faces\askh72.jpg,170.99225
faces\fost12.jpg,171.44836
faces\askh13.jpg,171.53642
faces\askh93.jpg,171.81209
faces\askh39.jpg,171.93842
faces\askh_sheep4_1.jpg,172.70378
faces\fost16.jpg,173.024
faces\askh57.jpg,175.07275
faces\askh_sheep4_2.jpg,176.51962
faces\fost40.jpg,177.27057
faces\askh78.jpg,177.79808
faces\askh45.jpg,178.13756
faces\fost20.jpg,182.39958
faces\fost39.jpg,182.65971
faces\askh48.jpg,190.07693
faces\fost23.jpg,191.97546
faces\fost37.jpg,193.4948
faces\fost34.jpg,200.2538
faces\fost30.jpg,201.36671
faces\fost41.jpg,201.61838
