"image name","distance score"
faces\fost8.jpg,110.34918
faces\fost7.jpg,125.93522
faces\askh37.jpg,126.753204
faces\fost_sheep1_4.jpg,128.29135
faces\askh41.jpg,130.03268
faces\askh44.jpg,131.22028
faces\askh18.jpg,131.26715
faces\fost_sheep1_0.jpg,135.29701
faces\fost_sheep1_3.jpg,135.34296
faces\fost_sheep1_1.jpg,135.63179
faces\bish16.jpg,136.8522
faces\fost28.jpg,137.26581
faces\askh95.jpg,137.47226
faces\askh61.jpg,139.2271
faces\fost_sheep1_2.jpg,139.26788
faces\fost_sheep2_0.jpg,140.54256
faces\askh6.jpg,140.9526
faces\askh54.jpg,140.97581
faces\fost_sheep1_5.jpg,141.25545
faces\bish5.jpg,142.41154
faces\fost35.jpg,142.51917
faces\fost2.jpg,145.12154
faces\askh2.jpg,146.16733
faces\askh62.jpg,146.8795
faces\fost_sheep2_1.jpg,147.74579
faces\askh51.jpg,147.78346
faces\askh5.jpg,148.47649
faces\fost24.jpg,149.93877
faces\askh30.jpg,150.25304
faces\askh47.jpg,150.54431
faces\askh91.jpg,150.9857
faces\askh53.jpg,151.42603
faces\askh16.jpg,153.78462
faces\askh43.jpg,155.07239
faces\askh36.jpg,157.33336
faces\askh66.jpg,158.03107
faces\askh92.jpg,158.31561
faces\askh64.jpg,159.00223
faces\askh58.jpg,159.82765
faces\askh_sheep7_0.jpg,160.09082
faces\askh_sheep9_1.jpg,162.91582
faces\askh_sheep7_1.jpg,163.02405
faces\bish2.jpg,164.18185
faces\askh34.jpg,164.76443
faces\bish13.jpg,165.01436
faces\askh_sheep3_0.jpg,165.76253
faces\fost13.jpg,167.17412
faces\askh_sheep9_0.jpg,171.29187
faces\askh23.jpg,173.49126
faces\askh83.jpg,173.8152
faces\askh77.jpg,174.27252
faces\askh8.jpg,174.64417
faces\askh75.jpg,175.26416
faces\askh94.jpg,175.6026
faces\askh25.jpg,175.84543
faces\askh3.jpg,176.00174
faces\askh_sheep3_1.jpg,176.52962
faces\askh29.jpg,176.86716
faces\askh_sheep2_4.jpg,177.09439
faces\askh9.jpg,177.34468
faces\askh74.jpg,177.59108
faces\askh_sheep10_1.jpg,177.60727
faces\fost25.jpg,178.05632
faces\askh_sheep10_0.jpg,178.09868
faces\askh_sheep5_1.jpg,179.26347
faces\askh_sheep2_0.jpg,179.49289
faces\askh_sheep1_1.jpg,179.61917
faces\askh82.jpg,179.90082
faces\askh60.jpg,180.16888
faces\askh70.jpg,180.72076
faces\askh_sheep1_0.jpg,181.06152
faces\askh96.jpg,181.39249
faces\askh14.jpg,182.02974
faces\askh12.jpg,182.6249
faces\askh69.jpg,182.8177
faces\askh31.jpg,182.83475
faces\fost29.jpg,182.90298
faces\askh45.jpg,183.82628
faces\askh84.jpg,184.00363
faces\askh_sheep8_1.jpg,185.24017
faces\askh72.jpg,185.46071
faces\fost42.jpg,185.9633
faces\askh_sheep5_2.jpg,186.25212
faces\askh33.jpg,186.70624
faces\askh7.jpg,186.72525
faces\askh_sheep2_3.jpg,186.8936
faces\askh_sheep2_2.jpg,187.40929
faces\askh76.jpg,187.74414
faces\askh35.jpg,187.97762
faces\askh1.jpg,188.05269
faces\askh_sheep5_0.jpg,189.60359
faces\fost17.jpg,189.64876
faces\askh17.jpg,189.79425
faces\askh81.jpg,190.00029
faces\askh39.jpg,190.34961
faces\askh24.jpg,190.3794
faces\askh78.jpg,191.38629
faces\askh19.jpg,191.39421
faces\askh_sheep2_1.jpg,191.5293
faces\fost10.jpg,191.9476
faces\askh_sheep8_0.jpg,192.51656
faces\askh73.jpg,192.80092
faces\askh13.jpg,192.83412
faces\askh10.jpg,193.78235
faces\askh_sheep4_0.jpg,194.3853
faces\fost14.jpg,195.31557
faces\fost41.jpg,195.36742
faces\askh88.jpg,196.10739
faces\fost30.jpg,196.1966
faces\askh_sheep1_2.jpg,196.46486
faces\askh_sheep4_2.jpg,196.91187
faces\askh_sheep4_1.jpg,198.25699
faces\askh68.jpg,198.42557
faces\fost40.jpg,199.52794
faces\askh71.jpg,200.05338
faces\askh97.jpg,200.57457
faces\askh42.jpg,200.62584
faces\askh57.jpg,200.80403
faces\askh15.jpg,201.66692
faces\askh93.jpg,202.46559
faces\fost3.jpg,203.14163
faces\askh_sheep6_1.jpg,203.95885
faces\fost22.jpg,206.94847
faces\fost19.jpg,209.91391
faces\fost12.jpg,210.21675
faces\fost16.jpg,210.46532
faces\askh_sheep6_0.jpg,212.3136
faces\askh48.jpg,214.17126
faces\fost39.jpg,219.67532
faces\fost34.jpg,222.75188
faces\fost37.jpg,225.6917
faces\fost20.jpg,230.5942
faces\fost23.jpg,232.37431
