"image name","distance score"
faces\askh45.jpg,99.34248
faces\askh57.jpg,111.55539
faces\askh48.jpg,112.66183
faces\askh_sheep5_2.jpg,114.562645
faces\askh72.jpg,118.957344
faces\askh68.jpg,119.904175
faces\askh13.jpg,120.25638
faces\fost41.jpg,120.82056
faces\askh74.jpg,121.7487
faces\askh93.jpg,123.4487
faces\askh_sheep8_1.jpg,125.281746
faces\askh_sheep1_1.jpg,126.146904
faces\askh15.jpg,126.384735
faces\fost10.jpg,126.599785
faces\fost12.jpg,127.13453
faces\fost14.jpg,127.35495
faces\askh35.jpg,127.66411
faces\askh_sheep4_0.jpg,127.77083
faces\askh78.jpg,128.11781
faces\askh_sheep4_1.jpg,128.44307
faces\askh42.jpg,130.44708
faces\askh_sheep8_0.jpg,130.47974
faces\askh25.jpg,130.73003
faces\askh_sheep10_0.jpg,131.64609
faces\fost29.jpg,131.70175
faces\askh_sheep1_0.jpg,131.7174
faces\askh_sheep5_0.jpg,132.3839
faces\askh_sheep6_1.jpg,132.51837
faces\askh_sheep10_1.jpg,132.73752
faces\askh_sheep4_2.jpg,132.8609
faces\askh_sheep7_0.jpg,132.91916
faces\askh12.jpg,133.72365
faces\askh_sheep6_0.jpg,134.31137
faces\fost37.jpg,134.64844
faces\fost16.jpg,134.7305
faces\askh_sheep7_1.jpg,134.91855
faces\askh69.jpg,135.27586
faces\askh77.jpg,135.31151
faces\askh71.jpg,135.80226
faces\askh88.jpg,135.81253
faces\fost34.jpg,135.95251
faces\askh76.jpg,136.1194
faces\askh58.jpg,137.60628
faces\askh1.jpg,138.13745
faces\askh_sheep9_0.jpg,138.1455
faces\askh60.jpg,138.21658
faces\askh39.jpg,139.81953
faces\askh83.jpg,139.87369
faces\fost39.jpg,139.88669
faces\askh_sheep5_1.jpg,139.93494
faces\fost17.jpg,140.26018
faces\askh24.jpg,142.13298
faces\fost22.jpg,142.5836
faces\askh73.jpg,142.60715
faces\askh_sheep1_2.jpg,142.67917
faces\fost23.jpg,142.72453
faces\askh_sheep2_3.jpg,142.77469
faces\askh_sheep3_1.jpg,142.82086
faces\askh_sheep2_4.jpg,142.92963
faces\askh10.jpg,143.8777
faces\fost19.jpg,144.9362
faces\askh75.jpg,144.96277
faces\askh29.jpg,145.02457
faces\askh17.jpg,145.54648
faces\askh34.jpg,145.66953
faces\askh84.jpg,145.67033
faces\askh94.jpg,146.12431
faces\askh82.jpg,147.47177
faces\bish13.jpg,147.80894
faces\askh19.jpg,148.53888
faces\askh31.jpg,150.41792
faces\askh_sheep2_1.jpg,150.69711
faces\askh_sheep2_0.jpg,151.25143
faces\askh70.jpg,152.46295
faces\askh33.jpg,152.70686
faces\askh_sheep9_1.jpg,153.26186
faces\askh81.jpg,153.40282
faces\fost20.jpg,153.48123
faces\fost25.jpg,153.58379
faces\askh97.jpg,153.7036
faces\askh9.jpg,155.1287
faces\fost40.jpg,155.46014
faces\fost2.jpg,155.64441
faces\askh8.jpg,156.46977
faces\fost3.jpg,157.68106
faces\askh_sheep3_0.jpg,158.1679
faces\askh_sheep2_2.jpg,158.59245
faces\askh3.jpg,158.64832
faces\askh23.jpg,158.91124
faces\askh14.jpg,159.79587
faces\askh36.jpg,160.14418
faces\askh43.jpg,162.85684
faces\askh96.jpg,163.42787
faces\fost7.jpg,166.69711
faces\askh2.jpg,171.32793
faces\askh7.jpg,173.21191
faces\askh37.jpg,175.31342
faces\fost8.jpg,176.0274
faces\askh5.jpg,176.97127
faces\askh44.jpg,177.62033
faces\askh62.jpg,178.33209
faces\fost_sheep1_1.jpg,179.26862
faces\askh18.jpg,179.39388
faces\fost24.jpg,179.75911
faces\fost35.jpg,180.32321
faces\fost_sheep2_0.jpg,180.61389
faces\fost_sheep2_1.jpg,180.61514
faces\fost_sheep1_2.jpg,185.8638
faces\bish5.jpg,188.63333
faces\askh64.jpg,189.47722
faces\askh41.jpg,191.7545
faces\fost_sheep1_0.jpg,192.63469
faces\askh95.jpg,195.50919
faces\bish4.jpg,196.1966
faces\askh53.jpg,197.10747
faces\askh61.jpg,197.31319
faces\askh47.jpg,201.36671
faces\askh30.jpg,201.78113
faces\fost_sheep1_4.jpg,202.41513
faces\fost_sheep1_3.jpg,202.7117
faces\fost28.jpg,203.73103
faces\askh6.jpg,204.16495
faces\askh92.jpg,206.295
faces\bish2.jpg,211.68289
faces\askh91.jpg,218.4327
faces\askh16.jpg,219.12099
faces\fost_sheep1_5.jpg,226.63898
faces\askh54.jpg,228.75769
faces\askh51.jpg,233.25508
faces\askh66.jpg,234.04906
faces\fost42.jpg,235.80626
faces\bish16.jpg,253.56178
faces\fost13.jpg,257.14706
