"image name","distance score"
muzzles\fos_m32.jpg,62.760357
muzzles\fos_m29.jpg,66.5617
muzzles\fos_m14.jpg,67.93946
muzzles\fos_m41.jpg,90.96494
muzzles\fos_m16.jpg,94.87008
muzzles\fos_m4.jpg,96.1193
muzzles\fos_m26.jpg,103.330124
muzzles\fos_m19.jpg,110.9814
muzzles\fos_m2.jpg,110.98201
muzzles\ask_m47.jpg,111.65104
muzzles\fos_m30.jpg,112.214134
muzzles\fos_m8.jpg,114.84035
muzzles\fos_m22.jpg,115.97553
muzzles\fos_m9.jpg,115.994026
muzzles\ask_m4.jpg,117.903885
muzzles\ask_m56.jpg,121.95587
muzzles\ask_m31.jpg,124.09841
muzzles\fos_m21.jpg,124.95896
muzzles\fos_m17.jpg,125.1505
muzzles\fos_m37.jpg,126.63178
muzzles\ask_m37.jpg,129.43376
muzzles\fos_m12.jpg,129.65358
muzzles\ask_m54.jpg,130.03978
muzzles\ask_m59.jpg,130.44568
muzzles\fos_m35.jpg,132.07335
muzzles\ask_m92.jpg,132.40358
muzzles\fos_m6.jpg,132.57066
muzzles\ask_m94.jpg,133.02457
muzzles\ask_m12.jpg,133.61356
muzzles\ask_m46.jpg,135.22595
muzzles\ask_m86.jpg,135.60039
muzzles\fos_m34.jpg,136.17215
muzzles\fos_m24.jpg,137.48009
muzzles\ask_m2.jpg,137.66016
muzzles\ask_m50.jpg,140.14813
muzzles\ask_m19.jpg,140.38641
muzzles\ask_m80.jpg,141.4894
muzzles\fos_m11.jpg,141.7526
muzzles\fos_m5.jpg,141.98854
muzzles\ask_m25.jpg,142.25087
muzzles\bis_m3.jpg,143.16718
muzzles\bis_m12.jpg,143.18562
muzzles\ask_m1.jpg,143.35283
muzzles\ask_m17.jpg,143.82603
muzzles\ask_m45.jpg,144.48918
muzzles\ask_m6.jpg,145.54736
muzzles\ask_m93.jpg,145.69157
muzzles\ask_m95.jpg,146.9116
muzzles\ask_m51.jpg,147.21526
muzzles\ask_m64.jpg,147.302
muzzles\fos_m15.jpg,147.49855
muzzles\ask_m13.jpg,148.14331
muzzles\ask_m85.jpg,148.17767
muzzles\ask_m65.jpg,148.44664
muzzles\ask_m61.jpg,148.81885
muzzles\ask_m75.jpg,149.27
muzzles\ask_m10.jpg,149.37741
muzzles\ask_m76.jpg,149.79424
muzzles\ask_m40.jpg,150.08386
muzzles\fos_m23.jpg,150.16245
muzzles\ask_m3.jpg,150.18939
muzzles\ask_m82.jpg,150.57191
muzzles\ask_m87.jpg,150.94218
muzzles\ask_m27.jpg,150.96164
muzzles\ask_m88.jpg,150.99426
muzzles\ask_m60.jpg,151.55205
muzzles\ask_m41.jpg,152.1027
muzzles\ask_m44.jpg,152.66626
muzzles\fos_m3.jpg,152.78584
muzzles\ask_m11.jpg,153.03548
muzzles\ask_m32.jpg,153.29791
muzzles\fos_m7.jpg,154.23915
muzzles\ask_m78.jpg,154.98299
muzzles\ask_m35.jpg,155.06282
muzzles\ask_m18.jpg,155.26608
muzzles\ask_m26.jpg,155.2948
muzzles\ask_m29.jpg,156.40201
muzzles\ask_m57.jpg,156.41591
muzzles\ask_m63.jpg,156.77692
muzzles\fos_m10.jpg,157.53462
muzzles\ask_m81.jpg,157.86023
muzzles\ask_m55.jpg,160.45538
muzzles\ask_m42.jpg,160.51808
muzzles\ask_m69.jpg,160.95645
muzzles\fos_m20.jpg,161.74
muzzles\ask_m53.jpg,161.97491
muzzles\ask_m15.jpg,162.296
muzzles\ask_m90.jpg,162.8392
muzzles\ask_m39.jpg,163.25897
muzzles\ask_m73.jpg,165.55698
muzzles\fos_m36.jpg,165.78235
muzzles\fos_m18.jpg,165.87941
muzzles\fos_m1.jpg,166.07422
muzzles\ask_m48.jpg,166.95789
muzzles\fos_m27.jpg,167.41812
muzzles\fos_m38.jpg,167.5577
muzzles\ask_m36.jpg,167.82683
muzzles\bis_m5.jpg,168.48834
muzzles\ask_m49.jpg,168.77797
muzzles\ask_m16.jpg,169.54309
muzzles\ask_m30.jpg,169.54457
muzzles\ask_m91.jpg,169.65854
muzzles\ask_m8.jpg,170.05174
muzzles\ask_m23.jpg,170.48357
muzzles\ask_m72.jpg,170.68814
muzzles\ask_m34.jpg,171.74608
muzzles\ask_m68.jpg,172.67882
muzzles\ask_m67.jpg,172.6921
muzzles\ask_m71.jpg,172.77594
muzzles\ask_m14.jpg,172.81602
muzzles\ask_m89.jpg,173.25945
muzzles\ask_m33.jpg,173.29369
muzzles\ask_m43.jpg,174.24289
muzzles\fos_m44.jpg,174.3378
muzzles\bis_m10.jpg,175.30554
muzzles\ask_m38.jpg,175.70328
muzzles\ask_m24.jpg,176.51503
muzzles\ask_m22.jpg,177.05707
muzzles\fos_m43.jpg,180.3473
muzzles\ask_m20.jpg,181.01668
muzzles\ask_m66.jpg,182.7798
muzzles\ask_m58.jpg,184.38254
muzzles\bis_m1.jpg,184.69908
muzzles\ask_m7.jpg,185.15977
muzzles\ask_m28.jpg,187.01366
muzzles\bis_m18.jpg,189.44052
muzzles\ask_m9.jpg,190.04546
muzzles\ask_m79.jpg,193.58832
muzzles\ask_m77.jpg,194.37671
muzzles\ask_m62.jpg,194.65
muzzles\ask_m83.jpg,196.39713
muzzles\fos_m28.jpg,197.11308
muzzles\bis_m6.jpg,200.24904
muzzles\ask_m5.jpg,200.31003
muzzles\ask_m52.jpg,201.58545
muzzles\bis_m4.jpg,210.78418
muzzles\bis_m17.jpg,211.81575
muzzles\ask_m74.jpg,212.32193
muzzles\fos_m31.jpg,212.45042
muzzles\ask_m84.jpg,216.3725
muzzles\fos_m40.jpg,218.38431
muzzles\fos_m33.jpg,224.88942
muzzles\bis_m16.jpg,225.08084
muzzles\bis_m11.jpg,225.19293
muzzles\ask_m70.jpg,229.11568
muzzles\bis_m8.jpg,233.2002
muzzles\bis_m19.jpg,234.25003
muzzles\bis_m14.jpg,236.99689
muzzles\fos_m13.jpg,240.69066
