"image name","distance score"
muzzles\fos_m24.jpg,40.06293
muzzles\fos_m6.jpg,48.021038
muzzles\fos_m12.jpg,54.09722
muzzles\fos_m37.jpg,59.01641
muzzles\ask_m4.jpg,60.326904
muzzles\fos_m16.jpg,77.96548
muzzles\fos_m34.jpg,82.2454
muzzles\ask_m46.jpg,83.98694
muzzles\ask_m47.jpg,87.81289
muzzles\fos_m22.jpg,87.8939
muzzles\fos_m19.jpg,88.71523
muzzles\fos_m41.jpg,90.13242
muzzles\fos_m17.jpg,90.986916
muzzles\fos_m23.jpg,92.31237
muzzles\ask_m31.jpg,99.75726
muzzles\fos_m15.jpg,110.20526
muzzles\fos_m11.jpg,110.86899
muzzles\fos_m4.jpg,112.38783
muzzles\fos_m20.jpg,113.24199
muzzles\ask_m63.jpg,113.84961
muzzles\fos_m30.jpg,114.434105
muzzles\ask_m41.jpg,114.59509
muzzles\ask_m19.jpg,114.70362
muzzles\ask_m40.jpg,116.0914
muzzles\fos_m26.jpg,117.09474
muzzles\fos_m32.jpg,119.69648
muzzles\ask_m86.jpg,120.70352
muzzles\ask_m13.jpg,121.71492
muzzles\ask_m17.jpg,123.120735
muzzles\ask_m25.jpg,124.5822
muzzles\fos_m25.jpg,124.95896
muzzles\ask_m50.jpg,126.03032
muzzles\ask_m64.jpg,126.03081
muzzles\ask_m26.jpg,126.197365
muzzles\ask_m65.jpg,127.41407
muzzles\ask_m54.jpg,127.698746
muzzles\ask_m45.jpg,131.35051
muzzles\ask_m56.jpg,132.388
muzzles\ask_m92.jpg,134.30693
muzzles\ask_m2.jpg,134.35175
muzzles\ask_m3.jpg,134.9196
muzzles\ask_m55.jpg,135.35364
muzzles\ask_m61.jpg,135.40843
muzzles\ask_m1.jpg,136.7381
muzzles\ask_m44.jpg,137.42447
muzzles\ask_m12.jpg,138.0423
muzzles\fos_m18.jpg,138.57066
muzzles\ask_m37.jpg,138.64442
muzzles\ask_m10.jpg,140.82443
muzzles\ask_m59.jpg,141.43962
muzzles\fos_m14.jpg,141.6506
muzzles\ask_m87.jpg,141.8216
muzzles\ask_m81.jpg,142.55124
muzzles\ask_m95.jpg,143.27693
muzzles\ask_m18.jpg,146.69978
muzzles\ask_m51.jpg,147.24023
muzzles\fos_m29.jpg,149.10582
muzzles\ask_m48.jpg,150.20128
muzzles\ask_m35.jpg,150.9019
muzzles\ask_m91.jpg,151.19193
muzzles\ask_m60.jpg,152.99428
muzzles\ask_m57.jpg,153.707
muzzles\fos_m2.jpg,154.78937
muzzles\ask_m88.jpg,154.86739
muzzles\ask_m27.jpg,155.32709
muzzles\ask_m78.jpg,155.4917
muzzles\fos_m36.jpg,155.55824
muzzles\bis_m12.jpg,156.61154
muzzles\ask_m82.jpg,156.68842
muzzles\ask_m76.jpg,158.0461
muzzles\ask_m42.jpg,158.47087
muzzles\fos_m38.jpg,158.92145
muzzles\bis_m3.jpg,159.23978
muzzles\fos_m44.jpg,159.38881
muzzles\ask_m15.jpg,160.06915
muzzles\ask_m75.jpg,160.84749
muzzles\ask_m11.jpg,160.91528
muzzles\fos_m7.jpg,161.5511
muzzles\ask_m68.jpg,162.37936
muzzles\ask_m94.jpg,162.71683
muzzles\ask_m90.jpg,162.85812
muzzles\ask_m8.jpg,165.02858
muzzles\fos_m5.jpg,167.15067
muzzles\ask_m73.jpg,168.14961
muzzles\ask_m85.jpg,168.29994
muzzles\ask_m28.jpg,168.65488
muzzles\ask_m67.jpg,168.77113
muzzles\ask_m80.jpg,168.89505
muzzles\fos_m8.jpg,169.70934
muzzles\ask_m6.jpg,169.89722
muzzles\ask_m33.jpg,171.41174
muzzles\fos_m10.jpg,171.54707
muzzles\ask_m93.jpg,171.75334
muzzles\ask_m43.jpg,172.41063
muzzles\ask_m32.jpg,173.06006
muzzles\fos_m35.jpg,173.07321
muzzles\ask_m39.jpg,174.39879
muzzles\ask_m72.jpg,175.18895
muzzles\ask_m29.jpg,176.24684
muzzles\ask_m7.jpg,177.13081
muzzles\fos_m9.jpg,177.60057
muzzles\fos_m43.jpg,178.4111
muzzles\fos_m1.jpg,178.91655
muzzles\ask_m36.jpg,181.22513
muzzles\ask_m38.jpg,181.24709
muzzles\ask_m30.jpg,182.1226
muzzles\ask_m24.jpg,184.42212
muzzles\ask_m69.jpg,184.50531
muzzles\fos_m40.jpg,184.53946
muzzles\fos_m27.jpg,185.51855
muzzles\ask_m23.jpg,185.55254
muzzles\ask_m20.jpg,186.8656
muzzles\ask_m53.jpg,187.0046
muzzles\ask_m71.jpg,187.26358
muzzles\ask_m49.jpg,188.49925
muzzles\ask_m89.jpg,189.39014
muzzles\ask_m66.jpg,189.4154
muzzles\ask_m14.jpg,189.51447
muzzles\ask_m16.jpg,191.3633
muzzles\ask_m34.jpg,191.93759
muzzles\fos_m3.jpg,192.13081
muzzles\ask_m62.jpg,197.61214
muzzles\ask_m83.jpg,198.27467
muzzles\ask_m77.jpg,198.45964
muzzles\ask_m79.jpg,198.75056
muzzles\ask_m22.jpg,198.86996
muzzles\bis_m17.jpg,198.92934
muzzles\ask_m58.jpg,203.41411
muzzles\bis_m10.jpg,206.82312
muzzles\ask_m9.jpg,209.14726
muzzles\bis_m1.jpg,210.01187
muzzles\ask_m74.jpg,214.16022
muzzles\bis_m5.jpg,216.50339
muzzles\ask_m5.jpg,223.53114
muzzles\fos_m28.jpg,223.54689
muzzles\bis_m18.jpg,225.02184
muzzles\ask_m70.jpg,225.32304
muzzles\fos_m31.jpg,226.1453
muzzles\ask_m52.jpg,227.481
muzzles\ask_m84.jpg,230.9567
muzzles\fos_m33.jpg,242.71898
muzzles\bis_m4.jpg,249.43964
muzzles\bis_m6.jpg,250.45319
muzzles\bis_m8.jpg,262.19226
muzzles\fos_m13.jpg,272.25787
muzzles\bis_m11.jpg,273.31848
muzzles\bis_m16.jpg,275.57748
muzzles\bis_m14.jpg,288.88547
muzzles\bis_m19.jpg,289.73428
