"image name","distance score"
muzzles\ask_m57.jpg,89.73252
muzzles\ask_m39.jpg,90.03846
muzzles\ask_m30.jpg,90.182236
muzzles\ask_m88.jpg,91.1075
muzzles\ask_m32.jpg,91.41604
muzzles\ask_m45.jpg,94.66333
muzzles\ask_m56.jpg,95.30249
muzzles\ask_m16.jpg,95.509895
muzzles\ask_m59.jpg,95.71843
muzzles\fos_m3.jpg,95.72411
muzzles\ask_m48.jpg,95.79628
muzzles\fos_m5.jpg,95.8331
muzzles\ask_m86.jpg,95.893814
muzzles\ask_m12.jpg,96.31015
muzzles\ask_m27.jpg,97.65914
muzzles\ask_m89.jpg,97.84246
muzzles\ask_m93.jpg,98.21027
muzzles\ask_m94.jpg,99.1871
muzzles\ask_m95.jpg,99.46912
muzzles\ask_m58.jpg,99.86808
muzzles\ask_m11.jpg,99.98648
muzzles\ask_m2.jpg,100.491486
muzzles\ask_m6.jpg,101.51445
muzzles\ask_m61.jpg,101.626816
muzzles\ask_m38.jpg,102.17682
muzzles\ask_m20.jpg,102.65067
muzzles\ask_m90.jpg,103.20283
muzzles\ask_m25.jpg,103.31371
muzzles\ask_m35.jpg,103.38916
muzzles\ask_m42.jpg,103.622955
muzzles\ask_m15.jpg,104.05812
muzzles\ask_m37.jpg,104.5324
muzzles\ask_m54.jpg,105.5637
muzzles\ask_m87.jpg,105.60933
muzzles\ask_m64.jpg,106.18355
muzzles\ask_m36.jpg,106.46736
muzzles\ask_m92.jpg,106.47407
muzzles\ask_m14.jpg,106.79432
muzzles\ask_m81.jpg,106.81806
muzzles\ask_m50.jpg,106.84368
muzzles\ask_m85.jpg,107.22217
muzzles\ask_m65.jpg,107.81731
muzzles\ask_m52.jpg,108.58121
muzzles\ask_m73.jpg,108.833206
muzzles\ask_m33.jpg,109.155334
muzzles\ask_m44.jpg,109.88558
muzzles\ask_m75.jpg,110.23332
muzzles\ask_m51.jpg,111.02298
muzzles\ask_m26.jpg,111.38587
muzzles\ask_m91.jpg,111.41101
muzzles\ask_m53.jpg,111.58862
muzzles\ask_m23.jpg,111.87572
muzzles\ask_m78.jpg,113.36727
muzzles\ask_m24.jpg,113.422424
muzzles\ask_m55.jpg,113.89616
muzzles\ask_m40.jpg,114.66873
muzzles\ask_m22.jpg,115.14198
muzzles\ask_m67.jpg,115.30306
muzzles\ask_m1.jpg,115.59868
muzzles\ask_m18.jpg,115.63839
muzzles\ask_m17.jpg,116.36303
muzzles\ask_m34.jpg,117.8748
muzzles\ask_m31.jpg,118.289314
muzzles\ask_m72.jpg,118.73604
muzzles\ask_m41.jpg,119.8303
muzzles\ask_m60.jpg,119.854866
muzzles\fos_m44.jpg,119.87505
muzzles\ask_m62.jpg,120.08021
muzzles\ask_m19.jpg,120.21275
muzzles\fos_m43.jpg,120.35488
muzzles\ask_m71.jpg,120.52832
muzzles\ask_m49.jpg,120.56824
muzzles\ask_m28.jpg,121.1745
muzzles\ask_m43.jpg,121.49439
muzzles\ask_m76.jpg,122.31886
muzzles\ask_m69.jpg,122.38241
muzzles\fos_m35.jpg,122.724464
muzzles\ask_m7.jpg,123.36501
muzzles\ask_m77.jpg,123.99541
muzzles\ask_m68.jpg,124.83033
muzzles\ask_m3.jpg,124.86232
muzzles\ask_m10.jpg,125.133255
muzzles\ask_m13.jpg,125.72685
muzzles\ask_m79.jpg,126.44588
muzzles\ask_m5.jpg,126.74133
muzzles\ask_m47.jpg,126.77912
muzzles\ask_m80.jpg,128.56726
muzzles\fos_m26.jpg,128.6281
muzzles\fos_m4.jpg,130.00203
muzzles\ask_m82.jpg,130.0693
muzzles\ask_m66.jpg,131.00928
muzzles\ask_m84.jpg,132.03166
muzzles\ask_m63.jpg,132.86713
muzzles\ask_m74.jpg,133.31381
muzzles\ask_m46.jpg,133.98352
muzzles\ask_m8.jpg,134.55121
muzzles\ask_m83.jpg,134.69162
muzzles\fos_m9.jpg,134.70525
muzzles\ask_m9.jpg,134.7757
muzzles\fos_m36.jpg,135.459
muzzles\fos_m30.jpg,135.92203
muzzles\fos_m8.jpg,135.96437
muzzles\fos_m1.jpg,137.01952
muzzles\fos_m38.jpg,137.13626
muzzles\bis_m10.jpg,139.38275
muzzles\fos_m18.jpg,139.89708
muzzles\fos_m32.jpg,140.37964
muzzles\ask_m70.jpg,140.97202
muzzles\fos_m15.jpg,141.0306
muzzles\fos_m11.jpg,141.76189
muzzles\fos_m31.jpg,142.17697
muzzles\fos_m29.jpg,142.55167
muzzles\bis_m3.jpg,144.45683
muzzles\fos_m23.jpg,145.1045
muzzles\fos_m17.jpg,145.49858
muzzles\bis_m17.jpg,145.92587
muzzles\fos_m12.jpg,148.76524
muzzles\fos_m22.jpg,148.78117
muzzles\fos_m7.jpg,148.9271
muzzles\fos_m20.jpg,149.5513
muzzles\fos_m40.jpg,150.48547
muzzles\fos_m2.jpg,150.51369
muzzles\fos_m28.jpg,150.89427
muzzles\ask_m4.jpg,151.71944
muzzles\fos_m27.jpg,152.87408
muzzles\bis_m8.jpg,153.47234
muzzles\fos_m13.jpg,154.18636
muzzles\fos_m16.jpg,154.26181
muzzles\fos_m10.jpg,154.5448
muzzles\bis_m4.jpg,156.1573
muzzles\fos_m19.jpg,156.37975
muzzles\fos_m25.jpg,156.40201
muzzles\fos_m41.jpg,158.28459
muzzles\bis_m12.jpg,159.37418
muzzles\bis_m5.jpg,161.10802
muzzles\fos_m14.jpg,162.33197
muzzles\bis_m18.jpg,163.39485
muzzles\bis_m6.jpg,164.32735
muzzles\bis_m11.jpg,164.51097
muzzles\fos_m6.jpg,166.5655
muzzles\bis_m16.jpg,167.9383
muzzles\bis_m1.jpg,168.20038
muzzles\fos_m37.jpg,169.56326
muzzles\fos_m34.jpg,170.80444
muzzles\fos_m33.jpg,172.87895
muzzles\fos_m21.jpg,176.24684
muzzles\bis_m14.jpg,177.28706
muzzles\fos_m24.jpg,182.17891
muzzles\bis_m19.jpg,182.94637
