"image name","distance score"
muzzles\ask_m52.jpg,94.34003
muzzles\ask_m5.jpg,103.801186
muzzles\bis_m8.jpg,110.09599
muzzles\ask_m84.jpg,110.127174
muzzles\ask_m58.jpg,112.17696
muzzles\ask_m62.jpg,112.72778
muzzles\ask_m14.jpg,121.01815
muzzles\ask_m16.jpg,121.80036
muzzles\fos_m31.jpg,126.12843
muzzles\bis_m11.jpg,126.317055
muzzles\bis_m14.jpg,127.56337
muzzles\ask_m39.jpg,127.86985
muzzles\ask_m9.jpg,129.11832
muzzles\ask_m74.jpg,130.09088
muzzles\ask_m30.jpg,131.18587
muzzles\bis_m16.jpg,132.03143
muzzles\ask_m93.jpg,133.25456
muzzles\ask_m22.jpg,133.42572
muzzles\ask_m23.jpg,134.31277
muzzles\bis_m4.jpg,135.76614
muzzles\ask_m20.jpg,136.64333
muzzles\ask_m38.jpg,137.2291
muzzles\ask_m83.jpg,139.2332
muzzles\bis_m6.jpg,140.3532
muzzles\ask_m24.jpg,140.55469
muzzles\fos_m28.jpg,142.34177
muzzles\ask_m49.jpg,142.57845
muzzles\ask_m32.jpg,142.74564
muzzles\ask_m89.jpg,143.62846
muzzles\ask_m34.jpg,144.17816
muzzles\bis_m19.jpg,144.62459
muzzles\ask_m36.jpg,145.67099
muzzles\ask_m53.jpg,146.6351
muzzles\fos_m33.jpg,148.30862
muzzles\ask_m70.jpg,148.71567
muzzles\ask_m42.jpg,149.77478
muzzles\ask_m90.jpg,150.50854
muzzles\ask_m85.jpg,151.74449
muzzles\ask_m6.jpg,151.99841
muzzles\ask_m27.jpg,152.14752
muzzles\ask_m69.jpg,152.27177
muzzles\bis_m10.jpg,152.46127
muzzles\ask_m71.jpg,153.28053
muzzles\fos_m3.jpg,153.85027
muzzles\ask_m29.jpg,154.18636
muzzles\ask_m66.jpg,154.28119
muzzles\ask_m28.jpg,154.76018
muzzles\ask_m11.jpg,155.69153
muzzles\fos_m1.jpg,155.72061
muzzles\ask_m57.jpg,155.7318
muzzles\ask_m35.jpg,157.75299
muzzles\ask_m73.jpg,157.80005
muzzles\ask_m15.jpg,159.24522
muzzles\ask_m33.jpg,159.55406
muzzles\ask_m78.jpg,160.32002
muzzles\ask_m75.jpg,161.60114
muzzles\bis_m18.jpg,162.32529
muzzles\ask_m43.jpg,162.55574
muzzles\ask_m94.jpg,163.07826
muzzles\ask_m2.jpg,163.228
muzzles\ask_m45.jpg,163.6522
muzzles\fos_m43.jpg,163.97357
muzzles\ask_m72.jpg,163.9901
muzzles\ask_m67.jpg,164.37482
muzzles\ask_m60.jpg,164.57361
muzzles\ask_m51.jpg,164.91562
muzzles\ask_m68.jpg,165.73584
muzzles\fos_m35.jpg,166.59763
muzzles\fos_m5.jpg,166.81487
muzzles\ask_m88.jpg,166.91356
muzzles\ask_m12.jpg,167.54626
muzzles\ask_m56.jpg,167.97011
muzzles\ask_m95.jpg,169.51486
muzzles\ask_m59.jpg,170.51761
muzzles\ask_m7.jpg,170.5392
muzzles\ask_m18.jpg,170.95314
muzzles\ask_m37.jpg,171.69519
muzzles\fos_m27.jpg,172.00873
muzzles\ask_m8.jpg,172.01584
muzzles\ask_m77.jpg,172.99933
muzzles\ask_m61.jpg,173.21646
muzzles\ask_m91.jpg,173.51616
muzzles\bis_m1.jpg,173.61519
muzzles\bis_m5.jpg,173.62337
muzzles\ask_m76.jpg,173.77682
muzzles\ask_m82.jpg,174.21031
muzzles\fos_m40.jpg,174.73361
muzzles\ask_m44.jpg,174.97418
muzzles\ask_m87.jpg,175.11526
muzzles\ask_m80.jpg,175.12848
muzzles\fos_m38.jpg,175.14566
muzzles\fos_m36.jpg,175.86482
muzzles\ask_m79.jpg,176.84375
muzzles\fos_m9.jpg,178.25017
muzzles\ask_m81.jpg,178.48395
muzzles\fos_m18.jpg,178.98409
muzzles\ask_m55.jpg,179.7588
muzzles\fos_m44.jpg,180.01862
muzzles\ask_m3.jpg,180.33733
muzzles\bis_m17.jpg,181.13725
muzzles\ask_m86.jpg,181.48819
muzzles\ask_m50.jpg,181.62709
muzzles\ask_m48.jpg,182.74936
muzzles\fos_m8.jpg,183.04738
muzzles\fos_m7.jpg,183.57513
muzzles\ask_m1.jpg,183.82018
muzzles\ask_m25.jpg,184.01672
muzzles\ask_m64.jpg,184.72484
muzzles\ask_m92.jpg,184.85843
muzzles\fos_m10.jpg,185.39081
muzzles\ask_m10.jpg,185.4439
muzzles\ask_m54.jpg,187.63216
muzzles\bis_m3.jpg,188.752
muzzles\ask_m65.jpg,188.8354
muzzles\ask_m17.jpg,190.06453
muzzles\ask_m41.jpg,193.99135
muzzles\ask_m26.jpg,194.05544
muzzles\ask_m19.jpg,196.02353
muzzles\ask_m40.jpg,196.60443
muzzles\fos_m26.jpg,198.0024
muzzles\fos_m15.jpg,199.02779
muzzles\ask_m13.jpg,200.66057
muzzles\fos_m11.jpg,204.43625
muzzles\ask_m31.jpg,206.56201
muzzles\fos_m30.jpg,207.89478
muzzles\ask_m63.jpg,210.0289
muzzles\fos_m17.jpg,214.27477
muzzles\fos_m29.jpg,215.63582
muzzles\ask_m47.jpg,216.0555
muzzles\fos_m2.jpg,216.76782
muzzles\fos_m4.jpg,217.75726
muzzles\fos_m32.jpg,223.43842
muzzles\fos_m20.jpg,225.02705
muzzles\ask_m46.jpg,225.6
muzzles\bis_m12.jpg,228.07353
muzzles\fos_m23.jpg,230.55531
muzzles\fos_m19.jpg,233.9756
muzzles\fos_m25.jpg,240.69066
muzzles\fos_m12.jpg,240.79164
muzzles\fos_m16.jpg,241.46683
muzzles\ask_m4.jpg,246.20929
muzzles\fos_m22.jpg,248.64186
muzzles\fos_m14.jpg,250.56433
muzzles\fos_m41.jpg,252.35883
muzzles\fos_m37.jpg,257.78024
muzzles\fos_m6.jpg,260.49228
muzzles\fos_m34.jpg,260.63385
muzzles\fos_m21.jpg,272.25787
muzzles\fos_m24.jpg,279.73367
