"image name","distance score"
muzzles\fos_m24.jpg,45.2539
muzzles\fos_m21.jpg,48.021038
muzzles\fos_m12.jpg,53.215137
muzzles\ask_m4.jpg,66.90763
muzzles\fos_m37.jpg,70.97567
muzzles\ask_m46.jpg,82.82961
muzzles\fos_m23.jpg,83.67684
muzzles\fos_m22.jpg,86.23579
muzzles\fos_m16.jpg,87.7991
muzzles\fos_m19.jpg,88.05907
muzzles\ask_m47.jpg,88.24985
muzzles\fos_m17.jpg,90.652306
muzzles\fos_m34.jpg,94.66784
muzzles\ask_m31.jpg,97.7656
muzzles\fos_m20.jpg,98.02965
muzzles\fos_m41.jpg,102.09295
muzzles\fos_m15.jpg,104.21906
muzzles\ask_m63.jpg,105.0849
muzzles\ask_m40.jpg,106.08519
muzzles\ask_m41.jpg,106.3134
muzzles\fos_m11.jpg,107.96145
muzzles\ask_m19.jpg,108.729454
muzzles\fos_m4.jpg,110.954315
muzzles\ask_m86.jpg,112.71119
muzzles\ask_m13.jpg,114.04565
muzzles\ask_m65.jpg,114.62335
muzzles\ask_m25.jpg,116.909706
muzzles\ask_m50.jpg,117.277855
muzzles\fos_m30.jpg,117.488075
muzzles\ask_m26.jpg,117.539566
muzzles\ask_m64.jpg,118.31642
muzzles\ask_m17.jpg,119.30863
muzzles\fos_m26.jpg,119.883575
muzzles\ask_m54.jpg,122.57076
muzzles\fos_m32.jpg,123.561
muzzles\ask_m45.jpg,124.42828
muzzles\ask_m92.jpg,125.17979
muzzles\ask_m61.jpg,126.03944
muzzles\ask_m56.jpg,126.303604
muzzles\ask_m55.jpg,127.5317
muzzles\ask_m3.jpg,128.17642
muzzles\ask_m44.jpg,128.34593
muzzles\ask_m2.jpg,128.61899
muzzles\fos_m18.jpg,128.96246
muzzles\ask_m12.jpg,129.04819
muzzles\ask_m1.jpg,130.89734
muzzles\ask_m81.jpg,130.89746
muzzles\ask_m10.jpg,131.6387
muzzles\ask_m37.jpg,131.91212
muzzles\fos_m25.jpg,132.57066
muzzles\ask_m95.jpg,133.20538
muzzles\ask_m87.jpg,134.20837
muzzles\ask_m18.jpg,136.75035
muzzles\ask_m59.jpg,137.2402
muzzles\ask_m48.jpg,138.52882
muzzles\ask_m91.jpg,139.64151
muzzles\ask_m51.jpg,140.51353
muzzles\ask_m35.jpg,142.67377
muzzles\ask_m57.jpg,142.94254
muzzles\ask_m60.jpg,144.75067
muzzles\ask_m88.jpg,145.62697
muzzles\fos_m44.jpg,147.39215
muzzles\ask_m27.jpg,147.52686
muzzles\ask_m78.jpg,147.68785
muzzles\ask_m15.jpg,148.0845
muzzles\fos_m14.jpg,148.33858
muzzles\ask_m82.jpg,148.89024
muzzles\ask_m42.jpg,149.13197
muzzles\ask_m76.jpg,150.37552
muzzles\fos_m36.jpg,150.38593
muzzles\ask_m11.jpg,152.38698
muzzles\fos_m38.jpg,152.47058
muzzles\ask_m68.jpg,152.54462
muzzles\ask_m75.jpg,153.0886
muzzles\fos_m29.jpg,153.40808
muzzles\ask_m90.jpg,153.59918
muzzles\bis_m3.jpg,154.08203
muzzles\fos_m2.jpg,154.38176
muzzles\ask_m8.jpg,154.62376
muzzles\fos_m5.jpg,154.6675
muzzles\bis_m12.jpg,155.34615
muzzles\ask_m94.jpg,155.78064
muzzles\ask_m73.jpg,157.04025
muzzles\ask_m28.jpg,158.89261
muzzles\fos_m7.jpg,158.93335
muzzles\ask_m33.jpg,160.17722
muzzles\ask_m67.jpg,160.20131
muzzles\ask_m85.jpg,161.07372
muzzles\ask_m6.jpg,161.15625
muzzles\ask_m80.jpg,162.26828
muzzles\ask_m43.jpg,162.32764
muzzles\ask_m7.jpg,162.9399
muzzles\ask_m32.jpg,163.02206
muzzles\ask_m39.jpg,164.27454
muzzles\ask_m72.jpg,165.73999
muzzles\fos_m43.jpg,165.79207
muzzles\ask_m93.jpg,166.04387
muzzles\ask_m29.jpg,166.5655
muzzles\ask_m38.jpg,168.8489
muzzles\ask_m36.jpg,169.9335
muzzles\fos_m10.jpg,170.17474
muzzles\fos_m8.jpg,170.54834
muzzles\fos_m35.jpg,171.08101
muzzles\ask_m30.jpg,171.44391
muzzles\ask_m24.jpg,173.15659
muzzles\fos_m40.jpg,173.97018
muzzles\ask_m20.jpg,174.2054
muzzles\fos_m1.jpg,174.67589
muzzles\ask_m69.jpg,175.68642
muzzles\ask_m23.jpg,175.81468
muzzles\ask_m53.jpg,176.31096
muzzles\fos_m9.jpg,176.86348
muzzles\ask_m71.jpg,178.13782
muzzles\fos_m3.jpg,178.7377
muzzles\ask_m89.jpg,180.81631
muzzles\ask_m34.jpg,181.10707
muzzles\ask_m49.jpg,181.21156
muzzles\ask_m66.jpg,181.54892
muzzles\ask_m16.jpg,181.67955
muzzles\ask_m14.jpg,181.93437
muzzles\fos_m27.jpg,183.92398
muzzles\bis_m17.jpg,184.00972
muzzles\ask_m62.jpg,186.52686
muzzles\ask_m79.jpg,186.90619
muzzles\ask_m83.jpg,187.16246
muzzles\ask_m77.jpg,187.55801
muzzles\ask_m22.jpg,188.24832
muzzles\ask_m58.jpg,191.65207
muzzles\bis_m10.jpg,199.77896
muzzles\ask_m74.jpg,201.5021
muzzles\ask_m9.jpg,201.54297
muzzles\bis_m1.jpg,205.45166
muzzles\ask_m70.jpg,209.92584
muzzles\bis_m5.jpg,211.04083
muzzles\ask_m5.jpg,212.73386
muzzles\fos_m31.jpg,214.2319
muzzles\ask_m52.jpg,215.14073
muzzles\fos_m28.jpg,215.70457
muzzles\ask_m84.jpg,218.30676
muzzles\bis_m18.jpg,218.77449
muzzles\fos_m33.jpg,232.87926
muzzles\bis_m4.jpg,240.19878
muzzles\bis_m6.jpg,243.72606
muzzles\bis_m8.jpg,248.6289
muzzles\fos_m13.jpg,260.49228
muzzles\bis_m11.jpg,265.30298
muzzles\bis_m16.jpg,266.99554
muzzles\bis_m14.jpg,279.199
muzzles\bis_m19.jpg,280.39752
