"image name","distance score"
muzzles\ask_m6.jpg,56.84489
muzzles\ask_m56.jpg,72.03699
muzzles\ask_m12.jpg,72.88416
muzzles\ask_m11.jpg,73.896034
muzzles\ask_m32.jpg,75.69034
muzzles\ask_m88.jpg,77.3187
muzzles\ask_m95.jpg,83.261116
muzzles\ask_m37.jpg,83.87307
muzzles\ask_m39.jpg,84.3268
muzzles\ask_m87.jpg,85.72184
muzzles\ask_m15.jpg,86.63119
muzzles\ask_m42.jpg,87.495255
muzzles\ask_m22.jpg,89.03037
muzzles\ask_m61.jpg,89.14366
muzzles\ask_m16.jpg,89.87193
muzzles\ask_m81.jpg,90.26309
muzzles\ask_m1.jpg,90.42459
muzzles\ask_m59.jpg,91.217834
muzzles\ask_m27.jpg,91.28745
muzzles\ask_m30.jpg,92.534004
muzzles\ask_m93.jpg,92.587685
muzzles\ask_m20.jpg,94.72824
muzzles\ask_m2.jpg,94.797295
muzzles\ask_m50.jpg,95.20011
muzzles\ask_m38.jpg,95.41318
muzzles\ask_m75.jpg,95.6454
muzzles\ask_m60.jpg,95.96816
muzzles\ask_m48.jpg,96.04487
muzzles\ask_m36.jpg,96.822975
muzzles\ask_m17.jpg,96.84376
muzzles\ask_m78.jpg,97.30101
muzzles\ask_m45.jpg,97.31346
muzzles\ask_m64.jpg,97.55442
muzzles\ask_m90.jpg,98.163376
muzzles\ask_m86.jpg,98.49119
muzzles\ask_m76.jpg,98.63388
muzzles\ask_m57.jpg,98.69794
muzzles\ask_m29.jpg,99.1871
muzzles\ask_m33.jpg,99.786095
muzzles\ask_m23.jpg,99.81399
muzzles\ask_m44.jpg,100.008804
muzzles\ask_m65.jpg,100.14267
muzzles\ask_m67.jpg,100.72766
muzzles\ask_m69.jpg,102.137474
muzzles\ask_m92.jpg,102.25459
muzzles\ask_m89.jpg,102.47136
muzzles\ask_m25.jpg,102.530975
muzzles\ask_m3.jpg,103.20279
muzzles\ask_m34.jpg,103.23971
muzzles\fos_m5.jpg,103.53386
muzzles\ask_m31.jpg,103.92849
muzzles\ask_m85.jpg,104.0211
muzzles\ask_m53.jpg,104.02945
muzzles\ask_m40.jpg,104.28495
muzzles\ask_m10.jpg,104.42482
muzzles\ask_m14.jpg,104.54392
muzzles\ask_m54.jpg,104.59908
muzzles\ask_m72.jpg,105.15798
muzzles\fos_m3.jpg,105.816345
muzzles\ask_m73.jpg,105.83777
muzzles\ask_m26.jpg,106.471634
muzzles\ask_m58.jpg,106.97608
muzzles\ask_m47.jpg,107.00159
muzzles\ask_m80.jpg,107.205444
muzzles\ask_m82.jpg,107.27398
muzzles\ask_m18.jpg,107.50391
muzzles\fos_m26.jpg,107.910484
muzzles\ask_m68.jpg,108.14648
muzzles\fos_m35.jpg,108.64705
muzzles\ask_m19.jpg,108.87971
muzzles\ask_m51.jpg,109.26749
muzzles\ask_m91.jpg,109.885506
muzzles\ask_m28.jpg,110.50236
muzzles\ask_m24.jpg,111.526634
muzzles\ask_m35.jpg,111.698395
muzzles\ask_m49.jpg,111.71769
muzzles\ask_m55.jpg,111.97242
muzzles\ask_m13.jpg,112.61128
muzzles\fos_m43.jpg,112.980606
muzzles\ask_m52.jpg,113.589294
muzzles\fos_m44.jpg,114.72036
muzzles\ask_m8.jpg,116.326775
muzzles\ask_m71.jpg,116.83344
muzzles\fos_m8.jpg,117.2056
muzzles\ask_m7.jpg,117.78136
muzzles\fos_m9.jpg,118.56136
muzzles\ask_m79.jpg,119.05258
muzzles\ask_m41.jpg,119.0604
muzzles\fos_m36.jpg,119.3514
muzzles\ask_m62.jpg,119.95586
muzzles\ask_m83.jpg,120.210915
muzzles\fos_m29.jpg,120.25608
muzzles\fos_m32.jpg,120.8393
muzzles\ask_m9.jpg,121.81387
muzzles\ask_m43.jpg,122.04899
muzzles\fos_m38.jpg,122.947556
muzzles\fos_m4.jpg,123.49419
muzzles\fos_m1.jpg,123.51128
muzzles\ask_m5.jpg,123.707985
muzzles\ask_m63.jpg,123.74771
muzzles\fos_m7.jpg,124.19879
muzzles\fos_m30.jpg,124.59125
muzzles\bis_m3.jpg,124.898865
muzzles\fos_m17.jpg,126.05884
muzzles\ask_m46.jpg,126.06908
muzzles\fos_m18.jpg,129.02547
muzzles\fos_m11.jpg,129.14694
muzzles\ask_m66.jpg,129.62025
muzzles\ask_m74.jpg,130.10028
muzzles\ask_m84.jpg,130.90758
muzzles\fos_m10.jpg,131.45305
muzzles\fos_m15.jpg,131.91556
muzzles\fos_m25.jpg,133.02457
muzzles\ask_m4.jpg,134.2751
muzzles\bis_m10.jpg,135.72295
muzzles\fos_m27.jpg,137.26187
muzzles\fos_m12.jpg,138.63463
muzzles\fos_m31.jpg,138.97168
muzzles\fos_m23.jpg,139.34003
muzzles\fos_m16.jpg,140.57932
muzzles\fos_m2.jpg,140.87254
muzzles\fos_m19.jpg,143.30598
muzzles\fos_m22.jpg,143.88123
muzzles\fos_m28.jpg,143.88684
muzzles\ask_m77.jpg,144.74806
muzzles\fos_m20.jpg,145.1794
muzzles\ask_m70.jpg,145.60533
muzzles\fos_m41.jpg,147.67328
muzzles\bis_m5.jpg,150.72661
muzzles\fos_m14.jpg,152.18114
muzzles\bis_m18.jpg,152.43146
muzzles\fos_m40.jpg,155.05719
muzzles\fos_m37.jpg,155.54404
muzzles\fos_m6.jpg,155.78064
muzzles\bis_m1.jpg,157.0665
muzzles\bis_m4.jpg,158.12242
muzzles\bis_m12.jpg,159.00185
muzzles\bis_m6.jpg,161.95058
muzzles\fos_m21.jpg,162.71683
muzzles\fos_m34.jpg,162.7809
muzzles\fos_m13.jpg,163.07826
muzzles\bis_m17.jpg,163.62273
muzzles\bis_m8.jpg,164.86688
muzzles\fos_m33.jpg,169.93816
muzzles\fos_m24.jpg,173.12495
muzzles\bis_m11.jpg,176.17355
muzzles\bis_m16.jpg,179.50275
muzzles\bis_m14.jpg,185.64177
muzzles\bis_m19.jpg,187.39183
