"image name","distance score"
muzzles\ask_m22.jpg,70.90079
muzzles\ask_m23.jpg,71.58622
muzzles\ask_m24.jpg,72.45165
muzzles\ask_m20.jpg,77.99692
muzzles\ask_m11.jpg,78.7535
muzzles\ask_m49.jpg,80.69132
muzzles\ask_m38.jpg,81.19257
muzzles\ask_m30.jpg,82.86277
muzzles\ask_m32.jpg,82.91783
muzzles\ask_m16.jpg,83.59379
muzzles\ask_m18.jpg,85.14614
muzzles\ask_m39.jpg,85.589836
muzzles\ask_m58.jpg,86.07729
muzzles\fos_m31.jpg,86.56725
muzzles\ask_m75.jpg,86.7814
muzzles\ask_m15.jpg,88.11904
muzzles\ask_m66.jpg,88.82533
muzzles\ask_m53.jpg,89.08566
muzzles\ask_m84.jpg,89.425
muzzles\ask_m42.jpg,89.54148
muzzles\ask_m91.jpg,89.86549
muzzles\ask_m5.jpg,89.88237
muzzles\ask_m93.jpg,90.64952
muzzles\ask_m72.jpg,93.018456
muzzles\ask_m95.jpg,93.04568
muzzles\ask_m67.jpg,93.11944
muzzles\ask_m60.jpg,93.3654
muzzles\ask_m71.jpg,93.46531
muzzles\ask_m1.jpg,93.60607
muzzles\ask_m43.jpg,93.79888
muzzles\fos_m35.jpg,94.07751
muzzles\ask_m33.jpg,94.39692
muzzles\ask_m78.jpg,94.772
muzzles\ask_m74.jpg,95.59816
muzzles\ask_m76.jpg,95.83827
muzzles\ask_m14.jpg,96.1194
muzzles\ask_m69.jpg,96.674446
muzzles\ask_m36.jpg,96.77688
muzzles\fos_m1.jpg,97.31454
muzzles\ask_m56.jpg,97.53146
muzzles\ask_m52.jpg,97.89752
muzzles\ask_m83.jpg,98.40297
muzzles\ask_m6.jpg,98.647484
muzzles\ask_m12.jpg,99.79698
muzzles\ask_m90.jpg,99.807755
muzzles\ask_m57.jpg,100.41346
muzzles\ask_m3.jpg,100.480286
muzzles\ask_m51.jpg,100.79218
muzzles\ask_m50.jpg,101.07841
muzzles\ask_m68.jpg,101.94207
muzzles\ask_m88.jpg,102.08502
muzzles\fos_m28.jpg,102.144
muzzles\ask_m27.jpg,102.337166
muzzles\fos_m38.jpg,102.352715
muzzles\ask_m28.jpg,102.60695
muzzles\ask_m7.jpg,102.6666
muzzles\ask_m94.jpg,103.23971
muzzles\ask_m9.jpg,103.540405
muzzles\fos_m36.jpg,103.56573
muzzles\ask_m85.jpg,103.84181
muzzles\ask_m54.jpg,104.38472
muzzles\ask_m13.jpg,105.272934
muzzles\ask_m61.jpg,105.48519
muzzles\fos_m10.jpg,107.72136
muzzles\ask_m87.jpg,107.897705
muzzles\ask_m25.jpg,107.96332
muzzles\ask_m89.jpg,108.236244
muzzles\ask_m65.jpg,108.87946
muzzles\ask_m35.jpg,109.22872
muzzles\ask_m10.jpg,109.719315
muzzles\bis_m10.jpg,110.44645
muzzles\fos_m27.jpg,110.87436
muzzles\ask_m81.jpg,110.94332
muzzles\ask_m55.jpg,110.973
muzzles\fos_m7.jpg,111.541626
muzzles\ask_m62.jpg,111.83821
muzzles\ask_m2.jpg,111.94942
muzzles\ask_m44.jpg,111.98762
muzzles\ask_m82.jpg,112.60968
muzzles\ask_m64.jpg,113.37293
muzzles\ask_m40.jpg,113.655594
muzzles\ask_m8.jpg,114.172005
muzzles\ask_m26.jpg,115.133514
muzzles\ask_m17.jpg,115.40285
muzzles\ask_m70.jpg,115.59829
muzzles\ask_m59.jpg,115.74461
muzzles\ask_m19.jpg,115.813156
muzzles\ask_m37.jpg,116.06308
muzzles\bis_m3.jpg,116.160065
muzzles\ask_m73.jpg,116.70123
muzzles\bis_m18.jpg,117.104
muzzles\fos_m8.jpg,117.73028
muzzles\ask_m29.jpg,117.8748
muzzles\bis_m4.jpg,118.01316
muzzles\ask_m80.jpg,118.17305
muzzles\ask_m45.jpg,119.37603
muzzles\ask_m79.jpg,119.51169
muzzles\fos_m33.jpg,119.68818
muzzles\fos_m9.jpg,120.441895
muzzles\ask_m86.jpg,121.294
muzzles\fos_m40.jpg,123.57334
muzzles\fos_m5.jpg,123.848045
muzzles\bis_m6.jpg,123.863
muzzles\fos_m30.jpg,125.53677
muzzles\bis_m1.jpg,125.991844
muzzles\ask_m63.jpg,126.67613
muzzles\ask_m41.jpg,126.91029
muzzles\fos_m18.jpg,127.8665
muzzles\ask_m92.jpg,128.19061
muzzles\ask_m48.jpg,128.47054
muzzles\ask_m31.jpg,129.42009
muzzles\bis_m5.jpg,129.46428
muzzles\fos_m11.jpg,132.69943
muzzles\fos_m3.jpg,133.06538
muzzles\bis_m8.jpg,135.55956
muzzles\fos_m15.jpg,137.02928
muzzles\ask_m77.jpg,137.80447
muzzles\ask_m47.jpg,139.32138
muzzles\fos_m17.jpg,139.8664
muzzles\ask_m46.jpg,140.44388
muzzles\fos_m4.jpg,143.01982
muzzles\fos_m13.jpg,144.17816
muzzles\fos_m26.jpg,145.49449
muzzles\fos_m43.jpg,149.5932
muzzles\bis_m16.jpg,150.71144
muzzles\bis_m11.jpg,150.7734
muzzles\fos_m2.jpg,150.79404
muzzles\bis_m19.jpg,152.10617
muzzles\fos_m29.jpg,152.27896
muzzles\fos_m19.jpg,153.12743
muzzles\fos_m44.jpg,153.48535
muzzles\bis_m17.jpg,154.69226
muzzles\bis_m12.jpg,156.15637
muzzles\fos_m32.jpg,156.25992
muzzles\bis_m14.jpg,158.31386
muzzles\fos_m16.jpg,158.89822
muzzles\fos_m23.jpg,160.79793
muzzles\ask_m4.jpg,160.92157
muzzles\fos_m41.jpg,167.35149
muzzles\fos_m12.jpg,168.33914
muzzles\fos_m20.jpg,171.52623
muzzles\fos_m25.jpg,171.74608
muzzles\fos_m37.jpg,174.52602
muzzles\fos_m34.jpg,176.28856
muzzles\fos_m14.jpg,180.82285
muzzles\fos_m6.jpg,181.10707
muzzles\fos_m22.jpg,181.34076
muzzles\fos_m21.jpg,191.93759
muzzles\fos_m24.jpg,198.92126
