"image name","distance score"
muzzles\ask_m56.jpg,87.88432
muzzles\ask_m10.jpg,88.30619
muzzles\ask_m78.jpg,88.91255
muzzles\ask_m80.jpg,91.33543
muzzles\ask_m50.jpg,91.912575
muzzles\ask_m69.jpg,91.93298
muzzles\ask_m60.jpg,92.06171
muzzles\fos_m7.jpg,93.296486
muzzles\ask_m75.jpg,93.660774
muzzles\fos_m38.jpg,94.295845
muzzles\ask_m3.jpg,94.541824
muzzles\ask_m8.jpg,95.21027
muzzles\fos_m36.jpg,96.077644
muzzles\ask_m15.jpg,97.77279
muzzles\ask_m12.jpg,98.783966
muzzles\ask_m71.jpg,98.84355
muzzles\ask_m42.jpg,98.98797
muzzles\bis_m3.jpg,99.87065
muzzles\ask_m23.jpg,100.39176
muzzles\fos_m1.jpg,100.41637
muzzles\ask_m33.jpg,100.41761
muzzles\ask_m68.jpg,100.72243
muzzles\ask_m28.jpg,101.706474
muzzles\ask_m2.jpg,102.00105
muzzles\ask_m17.jpg,102.4551
muzzles\ask_m11.jpg,102.4613
muzzles\ask_m47.jpg,102.461586
muzzles\ask_m51.jpg,102.8345
muzzles\ask_m91.jpg,102.90739
muzzles\ask_m81.jpg,102.95911
muzzles\ask_m19.jpg,103.32564
muzzles\ask_m1.jpg,103.41996
muzzles\ask_m39.jpg,103.98655
muzzles\ask_m32.jpg,104.040695
muzzles\ask_m35.jpg,104.04295
muzzles\ask_m6.jpg,104.28816
muzzles\ask_m87.jpg,104.38289
muzzles\ask_m85.jpg,104.75763
muzzles\ask_m95.jpg,105.12416
muzzles\ask_m31.jpg,105.24287
muzzles\fos_m10.jpg,105.30496
muzzles\ask_m90.jpg,105.41532
muzzles\ask_m61.jpg,105.4516
muzzles\ask_m37.jpg,105.52597
muzzles\fos_m35.jpg,106.582535
muzzles\ask_m94.jpg,107.27398
muzzles\ask_m20.jpg,107.42655
muzzles\ask_m45.jpg,107.73019
muzzles\ask_m93.jpg,108.234886
muzzles\ask_m14.jpg,108.76795
muzzles\ask_m18.jpg,108.86844
muzzles\ask_m76.jpg,108.89755
muzzles\ask_m27.jpg,109.71628
muzzles\ask_m16.jpg,109.899765
muzzles\ask_m72.jpg,110.350815
muzzles\fos_m18.jpg,110.38184
muzzles\ask_m25.jpg,110.907715
muzzles\ask_m64.jpg,110.99588
muzzles\ask_m67.jpg,111.00845
muzzles\ask_m54.jpg,111.19987
muzzles\ask_m38.jpg,111.27531
muzzles\fos_m30.jpg,111.78081
muzzles\fos_m17.jpg,112.59908
muzzles\ask_m34.jpg,112.60968
muzzles\ask_m59.jpg,112.62251
muzzles\fos_m11.jpg,112.74052
muzzles\fos_m15.jpg,113.16565
muzzles\ask_m44.jpg,113.304726
muzzles\ask_m26.jpg,113.36988
muzzles\ask_m65.jpg,113.66154
muzzles\ask_m13.jpg,113.93877
muzzles\ask_m41.jpg,114.0091
muzzles\ask_m43.jpg,114.05849
muzzles\ask_m49.jpg,114.37392
muzzles\ask_m88.jpg,114.48653
muzzles\ask_m57.jpg,114.704926
muzzles\ask_m40.jpg,114.81016
muzzles\ask_m86.jpg,115.199036
muzzles\fos_m27.jpg,115.55607
muzzles\ask_m30.jpg,115.55853
muzzles\ask_m7.jpg,115.56535
muzzles\fos_m8.jpg,116.43173
muzzles\ask_m58.jpg,116.841934
muzzles\ask_m89.jpg,117.8082
muzzles\ask_m55.jpg,118.28671
muzzles\ask_m92.jpg,118.360664
muzzles\ask_m24.jpg,118.45607
muzzles\ask_m22.jpg,119.361305
muzzles\fos_m26.jpg,119.40669
muzzles\ask_m66.jpg,119.42941
muzzles\ask_m83.jpg,119.76609
muzzles\ask_m36.jpg,119.88977
muzzles\ask_m9.jpg,120.14556
muzzles\ask_m53.jpg,121.0909
muzzles\fos_m9.jpg,121.21943
muzzles\fos_m5.jpg,121.73091
muzzles\ask_m62.jpg,121.83988
muzzles\ask_m63.jpg,124.04864
muzzles\ask_m46.jpg,124.30101
muzzles\fos_m28.jpg,125.38792
muzzles\ask_m74.jpg,126.838806
muzzles\fos_m19.jpg,127.06634
muzzles\ask_m79.jpg,129.19157
muzzles\ask_m29.jpg,130.0693
muzzles\fos_m4.jpg,130.62737
muzzles\ask_m48.jpg,130.69385
muzzles\fos_m31.jpg,130.9781
muzzles\ask_m4.jpg,131.32155
muzzles\ask_m5.jpg,131.48886
muzzles\ask_m52.jpg,131.89096
muzzles\fos_m16.jpg,132.21033
muzzles\ask_m73.jpg,132.67563
muzzles\fos_m32.jpg,132.68333
muzzles\ask_m84.jpg,133.21767
muzzles\fos_m43.jpg,134.13681
muzzles\bis_m10.jpg,135.16798
muzzles\fos_m44.jpg,135.48354
muzzles\fos_m29.jpg,136.39742
muzzles\fos_m12.jpg,137.51347
muzzles\fos_m23.jpg,137.55437
muzzles\bis_m5.jpg,138.92271
muzzles\fos_m3.jpg,139.75552
muzzles\bis_m1.jpg,141.41432
muzzles\ask_m70.jpg,142.07724
muzzles\fos_m33.jpg,142.13898
muzzles\bis_m18.jpg,142.71521
muzzles\fos_m37.jpg,142.95222
muzzles\fos_m2.jpg,143.64957
muzzles\fos_m40.jpg,144.155
muzzles\fos_m41.jpg,146.86157
muzzles\fos_m20.jpg,147.703
muzzles\bis_m12.jpg,148.68977
muzzles\fos_m6.jpg,148.89024
muzzles\fos_m25.jpg,150.57191
muzzles\fos_m34.jpg,151.1648
muzzles\fos_m22.jpg,154.63002
muzzles\bis_m4.jpg,156.651
muzzles\fos_m21.jpg,156.68842
muzzles\ask_m77.jpg,157.21387
muzzles\bis_m6.jpg,158.18637
muzzles\bis_m17.jpg,160.69484
muzzles\fos_m24.jpg,165.02731
muzzles\fos_m14.jpg,167.8302
muzzles\bis_m8.jpg,168.24802
muzzles\fos_m13.jpg,174.21031
muzzles\bis_m11.jpg,182.46019
muzzles\bis_m16.jpg,183.02945
muzzles\bis_m14.jpg,188.81482
muzzles\bis_m19.jpg,192.83955
