"image name","distance score"
muzzles\ask_m74.jpg,69.75415
muzzles\fos_m31.jpg,76.72292
muzzles\ask_m23.jpg,79.58184
muzzles\ask_m5.jpg,80.47603
muzzles\ask_m52.jpg,83.961105
muzzles\ask_m20.jpg,84.0622
muzzles\ask_m70.jpg,84.73006
muzzles\ask_m16.jpg,88.04883
muzzles\ask_m34.jpg,89.425
muzzles\ask_m58.jpg,90.103745
muzzles\ask_m30.jpg,93.9756
muzzles\ask_m22.jpg,96.79756
muzzles\ask_m38.jpg,97.45851
muzzles\ask_m14.jpg,98.43275
muzzles\ask_m33.jpg,98.514114
muzzles\ask_m83.jpg,100.17752
muzzles\ask_m71.jpg,100.25242
muzzles\ask_m66.jpg,100.738396
muzzles\ask_m39.jpg,100.81936
muzzles\ask_m24.jpg,101.56437
muzzles\ask_m9.jpg,101.95223
muzzles\fos_m28.jpg,102.00031
muzzles\ask_m15.jpg,102.70159
muzzles\ask_m28.jpg,102.945984
muzzles\ask_m62.jpg,103.581085
muzzles\ask_m68.jpg,106.25331
muzzles\ask_m67.jpg,106.3889
muzzles\ask_m72.jpg,106.644646
muzzles\ask_m78.jpg,106.807205
muzzles\ask_m49.jpg,106.87335
muzzles\ask_m93.jpg,106.96699
muzzles\ask_m32.jpg,107.881485
muzzles\ask_m75.jpg,108.113815
muzzles\ask_m69.jpg,108.63054
muzzles\ask_m43.jpg,109.431046
muzzles\ask_m11.jpg,110.04188
muzzles\fos_m13.jpg,110.127174
muzzles\ask_m91.jpg,112.0755
muzzles\ask_m60.jpg,112.51566
muzzles\ask_m7.jpg,112.526886
muzzles\ask_m89.jpg,113.21815
muzzles\ask_m42.jpg,113.39102
muzzles\fos_m33.jpg,114.09964
muzzles\fos_m1.jpg,115.4104
muzzles\ask_m36.jpg,115.58192
muzzles\ask_m79.jpg,119.16554
muzzles\ask_m6.jpg,119.34715
muzzles\bis_m4.jpg,120.73851
muzzles\ask_m90.jpg,121.75788
muzzles\bis_m8.jpg,122.2814
muzzles\ask_m95.jpg,122.72667
muzzles\ask_m88.jpg,122.83918
muzzles\ask_m27.jpg,124.24238
muzzles\ask_m3.jpg,124.40506
muzzles\ask_m12.jpg,124.57424
muzzles\ask_m8.jpg,124.710785
muzzles\ask_m53.jpg,125.15693
muzzles\ask_m56.jpg,125.28964
muzzles\ask_m57.jpg,125.44592
muzzles\ask_m1.jpg,125.80704
muzzles\ask_m76.jpg,126.41473
muzzles\fos_m38.jpg,126.76118
muzzles\ask_m81.jpg,127.18668
muzzles\fos_m36.jpg,127.25195
muzzles\ask_m18.jpg,127.26134
muzzles\fos_m40.jpg,127.55245
muzzles\ask_m87.jpg,127.59538
muzzles\ask_m85.jpg,130.21904
muzzles\ask_m94.jpg,130.90758
muzzles\ask_m61.jpg,131.36787
muzzles\ask_m51.jpg,131.43558
muzzles\ask_m50.jpg,131.4964
muzzles\ask_m35.jpg,131.7791
muzzles\bis_m10.jpg,131.82875
muzzles\ask_m29.jpg,132.03166
muzzles\ask_m10.jpg,132.65997
muzzles\fos_m35.jpg,133.10121
muzzles\ask_m82.jpg,133.21767
muzzles\fos_m27.jpg,134.77045
muzzles\ask_m2.jpg,136.53864
muzzles\ask_m65.jpg,137.71217
muzzles\fos_m7.jpg,137.92522
muzzles\ask_m73.jpg,138.52327
muzzles\ask_m45.jpg,138.7905
muzzles\ask_m55.jpg,139.18752
muzzles\ask_m26.jpg,139.36526
muzzles\ask_m64.jpg,139.47058
muzzles\fos_m5.jpg,139.52611
muzzles\ask_m37.jpg,140.08548
muzzles\bis_m6.jpg,140.32954
muzzles\bis_m18.jpg,140.43114
muzzles\ask_m25.jpg,140.61955
muzzles\fos_m10.jpg,140.6329
muzzles\ask_m44.jpg,140.72466
muzzles\ask_m17.jpg,141.1559
muzzles\ask_m80.jpg,141.38788
muzzles\ask_m48.jpg,142.2444
muzzles\fos_m3.jpg,142.83363
muzzles\ask_m59.jpg,143.12714
muzzles\fos_m18.jpg,143.67996
muzzles\fos_m43.jpg,144.72798
muzzles\ask_m19.jpg,145.88118
muzzles\bis_m11.jpg,146.85486
muzzles\ask_m77.jpg,147.59064
muzzles\ask_m54.jpg,148.0611
muzzles\ask_m40.jpg,149.32376
muzzles\bis_m3.jpg,149.6156
muzzles\ask_m86.jpg,149.9452
muzzles\ask_m13.jpg,149.97708
muzzles\bis_m16.jpg,150.31976
muzzles\bis_m5.jpg,151.26933
muzzles\bis_m1.jpg,151.63498
muzzles\bis_m19.jpg,153.48541
muzzles\bis_m14.jpg,154.00252
muzzles\ask_m41.jpg,155.67427
muzzles\fos_m44.jpg,155.90195
muzzles\ask_m92.jpg,157.86916
muzzles\ask_m63.jpg,157.99309
muzzles\fos_m8.jpg,159.46362
muzzles\fos_m9.jpg,159.79675
muzzles\ask_m31.jpg,161.62747
muzzles\fos_m15.jpg,162.0463
muzzles\bis_m17.jpg,163.28423
muzzles\fos_m11.jpg,165.36649
muzzles\fos_m30.jpg,170.53172
muzzles\ask_m47.jpg,172.1129
muzzles\fos_m26.jpg,172.24498
muzzles\fos_m17.jpg,175.91068
muzzles\ask_m46.jpg,176.9141
muzzles\fos_m4.jpg,181.36002
muzzles\fos_m2.jpg,187.00673
muzzles\fos_m23.jpg,189.409
muzzles\fos_m20.jpg,189.98122
muzzles\fos_m19.jpg,194.47705
muzzles\fos_m29.jpg,194.72884
muzzles\bis_m12.jpg,196.6494
muzzles\fos_m32.jpg,197.05775
muzzles\ask_m4.jpg,199.30336
muzzles\fos_m12.jpg,200.50288
muzzles\fos_m16.jpg,202.54037
muzzles\fos_m41.jpg,213.6491
muzzles\fos_m22.jpg,214.18556
muzzles\fos_m37.jpg,214.84782
muzzles\fos_m25.jpg,216.3725
muzzles\fos_m6.jpg,218.30676
muzzles\fos_m34.jpg,218.99826
muzzles\fos_m14.jpg,226.87442
muzzles\fos_m21.jpg,230.9567
muzzles\fos_m24.jpg,236.86208
