"image name","distance score"
muzzles\fos_m28.jpg,75.78732
muzzles\fos_m1.jpg,89.84418
muzzles\fos_m31.jpg,96.32798
muzzles\fos_m27.jpg,97.93069
muzzles\bis_m4.jpg,105.93382
muzzles\bis_m18.jpg,107.49801
muzzles\fos_m10.jpg,110.15143
muzzles\bis_m10.jpg,111.4148
muzzles\bis_m6.jpg,112.87673
muzzles\fos_m38.jpg,113.62657
muzzles\ask_m49.jpg,113.76571
muzzles\bis_m1.jpg,114.09504
muzzles\ask_m84.jpg,114.09964
muzzles\fos_m7.jpg,115.34507
muzzles\ask_m58.jpg,115.68767
muzzles\fos_m36.jpg,116.342606
muzzles\ask_m23.jpg,116.37872
muzzles\ask_m34.jpg,119.68818
muzzles\ask_m66.jpg,120.21231
muzzles\ask_m14.jpg,120.72791
muzzles\bis_m8.jpg,120.758675
muzzles\bis_m5.jpg,120.79041
muzzles\ask_m71.jpg,122.25229
muzzles\bis_m3.jpg,123.194534
muzzles\ask_m74.jpg,124.14714
muzzles\fos_m35.jpg,125.27023
muzzles\ask_m20.jpg,127.86954
muzzles\ask_m5.jpg,128.42773
muzzles\ask_m30.jpg,131.04596
muzzles\bis_m19.jpg,131.88919
muzzles\ask_m52.jpg,132.83124
muzzles\ask_m85.jpg,133.19746
muzzles\ask_m93.jpg,133.97209
muzzles\bis_m16.jpg,134.25014
muzzles\ask_m28.jpg,134.73079
muzzles\ask_m75.jpg,136.35147
muzzles\bis_m14.jpg,136.73975
muzzles\ask_m62.jpg,136.88512
muzzles\bis_m11.jpg,136.9317
muzzles\ask_m69.jpg,137.69008
muzzles\ask_m43.jpg,137.7384
muzzles\ask_m91.jpg,138.4487
muzzles\ask_m24.jpg,138.78406
muzzles\ask_m38.jpg,139.09581
muzzles\ask_m39.jpg,139.12305
muzzles\ask_m16.jpg,139.25598
muzzles\ask_m9.jpg,139.46947
muzzles\ask_m78.jpg,141.8747
muzzles\ask_m32.jpg,141.96188
muzzles\ask_m82.jpg,142.13898
muzzles\ask_m89.jpg,142.25739
muzzles\ask_m22.jpg,142.6973
muzzles\ask_m51.jpg,142.84312
muzzles\ask_m35.jpg,143.28944
muzzles\ask_m83.jpg,144.60449
muzzles\ask_m36.jpg,145.00836
muzzles\ask_m15.jpg,145.45436
muzzles\ask_m33.jpg,145.51514
muzzles\ask_m70.jpg,145.55826
muzzles\ask_m60.jpg,145.6969
muzzles\fos_m8.jpg,145.79857
muzzles\ask_m68.jpg,146.44748
muzzles\fos_m13.jpg,148.30862
muzzles\fos_m9.jpg,148.50931
muzzles\ask_m90.jpg,148.60518
muzzles\ask_m76.jpg,149.35577
muzzles\ask_m11.jpg,149.75551
muzzles\ask_m42.jpg,150.00575
muzzles\ask_m3.jpg,150.5824
muzzles\ask_m72.jpg,150.85414
muzzles\ask_m53.jpg,150.91939
muzzles\ask_m67.jpg,152.07437
muzzles\ask_m80.jpg,152.80392
muzzles\ask_m2.jpg,153.3174
muzzles\ask_m7.jpg,154.7958
muzzles\ask_m18.jpg,155.69427
muzzles\ask_m57.jpg,156.06183
muzzles\ask_m56.jpg,156.33163
muzzles\ask_m50.jpg,156.77745
muzzles\ask_m8.jpg,157.50656
muzzles\ask_m10.jpg,158.80644
muzzles\fos_m40.jpg,159.26378
muzzles\ask_m27.jpg,159.55786
muzzles\ask_m55.jpg,161.9627
muzzles\ask_m1.jpg,163.4162
muzzles\ask_m6.jpg,163.52605
muzzles\ask_m95.jpg,163.88712
muzzles\ask_m12.jpg,164.13287
muzzles\ask_m54.jpg,164.23834
muzzles\ask_m61.jpg,164.3339
muzzles\fos_m18.jpg,165.11487
muzzles\ask_m45.jpg,165.69157
muzzles\ask_m37.jpg,167.31902
muzzles\fos_m30.jpg,167.48613
muzzles\ask_m13.jpg,167.947
muzzles\ask_m25.jpg,168.20126
muzzles\ask_m44.jpg,168.27449
muzzles\ask_m64.jpg,168.41936
muzzles\ask_m79.jpg,168.75957
muzzles\ask_m17.jpg,168.85464
muzzles\ask_m19.jpg,169.02365
muzzles\ask_m81.jpg,169.70757
muzzles\ask_m94.jpg,169.93816
muzzles\fos_m11.jpg,170.06781
muzzles\ask_m87.jpg,170.80544
muzzles\ask_m65.jpg,170.84805
muzzles\ask_m59.jpg,170.93834
muzzles\bis_m17.jpg,171.45508
muzzles\ask_m41.jpg,172.17876
muzzles\ask_m88.jpg,172.54779
muzzles\ask_m29.jpg,172.87895
muzzles\fos_m15.jpg,173.5637
muzzles\fos_m5.jpg,173.69193
muzzles\ask_m40.jpg,175.37036
muzzles\fos_m17.jpg,178.54466
muzzles\ask_m26.jpg,179.18364
muzzles\bis_m12.jpg,179.55481
muzzles\ask_m73.jpg,180.47862
muzzles\ask_m86.jpg,180.5429
muzzles\ask_m63.jpg,184.0565
muzzles\ask_m92.jpg,184.85971
muzzles\fos_m19.jpg,185.40088
muzzles\ask_m31.jpg,186.28665
muzzles\ask_m77.jpg,189.95848
muzzles\ask_m48.jpg,190.52003
muzzles\fos_m3.jpg,190.65088
muzzles\ask_m47.jpg,192.58723
muzzles\ask_m46.jpg,193.88179
muzzles\fos_m26.jpg,194.03055
muzzles\fos_m2.jpg,195.13362
muzzles\fos_m29.jpg,197.27922
muzzles\fos_m4.jpg,199.26328
muzzles\fos_m16.jpg,200.9361
muzzles\fos_m32.jpg,203.51607
muzzles\fos_m43.jpg,207.14824
muzzles\fos_m34.jpg,213.1123
muzzles\fos_m41.jpg,213.69324
muzzles\ask_m4.jpg,214.1352
muzzles\fos_m44.jpg,214.70877
muzzles\fos_m37.jpg,215.44482
muzzles\fos_m23.jpg,216.52428
muzzles\fos_m12.jpg,224.02512
muzzles\fos_m25.jpg,224.88942
muzzles\fos_m20.jpg,232.1089
muzzles\fos_m6.jpg,232.87926
muzzles\fos_m14.jpg,233.95343
muzzles\fos_m21.jpg,242.71898
muzzles\fos_m22.jpg,243.03816
muzzles\fos_m24.jpg,247.80698
