"image name","distance score"
muzzles\ask_m13.jpg,70.12483
muzzles\ask_m18.jpg,73.40223
muzzles\ask_m50.jpg,74.417854
muzzles\ask_m25.jpg,77.53032
muzzles\ask_m55.jpg,77.55256
muzzles\ask_m57.jpg,77.99185
muzzles\ask_m40.jpg,78.32991
muzzles\ask_m56.jpg,78.818825
muzzles\ask_m41.jpg,79.43895
muzzles\ask_m59.jpg,79.8964
muzzles\ask_m61.jpg,80.115295
muzzles\ask_m2.jpg,80.58622
muzzles\ask_m51.jpg,81.237305
muzzles\ask_m19.jpg,81.55727
muzzles\ask_m42.jpg,81.66331
muzzles\ask_m95.jpg,82.42724
muzzles\ask_m65.jpg,82.66485
muzzles\ask_m44.jpg,82.89244
muzzles\ask_m86.jpg,83.50629
muzzles\ask_m31.jpg,84.13757
muzzles\ask_m32.jpg,85.21211
muzzles\ask_m46.jpg,86.17373
muzzles\ask_m45.jpg,86.190956
muzzles\ask_m64.jpg,86.8904
muzzles\ask_m91.jpg,87.449814
muzzles\ask_m12.jpg,87.62313
muzzles\ask_m39.jpg,87.78341
muzzles\ask_m35.jpg,87.90235
muzzles\ask_m27.jpg,88.10203
muzzles\fos_m30.jpg,88.445885
muzzles\ask_m47.jpg,88.76813
muzzles\ask_m1.jpg,89.16389
muzzles\ask_m63.jpg,89.51653
muzzles\ask_m37.jpg,90.02684
muzzles\ask_m11.jpg,90.465034
muzzles\ask_m17.jpg,91.46941
muzzles\ask_m60.jpg,91.49024
muzzles\ask_m76.jpg,93.6088
muzzles\ask_m26.jpg,93.73692
muzzles\ask_m90.jpg,94.892586
muzzles\ask_m24.jpg,95.12536
muzzles\ask_m3.jpg,95.22219
muzzles\ask_m53.jpg,96.13093
muzzles\ask_m81.jpg,96.702415
muzzles\ask_m75.jpg,97.00557
muzzles\ask_m78.jpg,97.21649
muzzles\ask_m38.jpg,97.692406
muzzles\ask_m93.jpg,97.796364
muzzles\fos_m11.jpg,98.99321
muzzles\ask_m4.jpg,99.06338
muzzles\ask_m30.jpg,100.446655
muzzles\ask_m88.jpg,100.61506
muzzles\ask_m16.jpg,100.76843
muzzles\ask_m36.jpg,100.964615
muzzles\fos_m17.jpg,101.07876
muzzles\ask_m92.jpg,101.53336
muzzles\ask_m85.jpg,101.788246
muzzles\ask_m87.jpg,102.04745
muzzles\fos_m35.jpg,103.17137
muzzles\ask_m15.jpg,103.666374
muzzles\ask_m49.jpg,103.752144
muzzles\ask_m34.jpg,104.38472
muzzles\ask_m94.jpg,104.59908
muzzles\fos_m36.jpg,105.12355
muzzles\fos_m4.jpg,105.131714
muzzles\ask_m10.jpg,105.1993
muzzles\fos_m15.jpg,105.237015
muzzles\ask_m29.jpg,105.5637
muzzles\fos_m19.jpg,106.12059
muzzles\fos_m26.jpg,106.49842
muzzles\ask_m67.jpg,106.69969
muzzles\fos_m16.jpg,107.26914
muzzles\ask_m68.jpg,107.69059
muzzles\ask_m73.jpg,107.74805
muzzles\fos_m38.jpg,107.975975
muzzles\ask_m23.jpg,108.53625
muzzles\ask_m6.jpg,108.57051
muzzles\fos_m8.jpg,108.68563
muzzles\ask_m33.jpg,109.02021
muzzles\ask_m43.jpg,109.965385
muzzles\ask_m28.jpg,110.19906
muzzles\ask_m20.jpg,110.74868
muzzles\ask_m82.jpg,111.19987
muzzles\ask_m58.jpg,111.96172
muzzles\fos_m1.jpg,112.51873
muzzles\bis_m3.jpg,112.98062
muzzles\ask_m48.jpg,113.14961
muzzles\fos_m12.jpg,113.25953
muzzles\fos_m5.jpg,114.12106
muzzles\fos_m23.jpg,114.20028
muzzles\fos_m41.jpg,114.28869
muzzles\fos_m32.jpg,114.31549
muzzles\fos_m18.jpg,114.56243
muzzles\fos_m7.jpg,114.72713
muzzles\fos_m9.jpg,114.8018
muzzles\ask_m80.jpg,115.37637
muzzles\ask_m66.jpg,116.18784
muzzles\ask_m22.jpg,116.31842
muzzles\fos_m37.jpg,116.50648
muzzles\fos_m10.jpg,117.52763
muzzles\ask_m72.jpg,119.037
muzzles\ask_m69.jpg,119.735794
muzzles\ask_m14.jpg,120.20372
muzzles\ask_m89.jpg,120.29077
muzzles\ask_m7.jpg,120.91534
muzzles\ask_m71.jpg,121.322975
muzzles\fos_m27.jpg,122.08731
muzzles\fos_m2.jpg,122.3614
muzzles\fos_m6.jpg,122.57076
muzzles\ask_m8.jpg,122.77558
muzzles\fos_m34.jpg,123.46255
muzzles\fos_m29.jpg,124.61062
muzzles\bis_m12.jpg,125.133415
muzzles\ask_m83.jpg,125.14022
muzzles\bis_m10.jpg,125.18677
muzzles\fos_m22.jpg,125.55676
muzzles\ask_m62.jpg,127.28013
muzzles\fos_m21.jpg,127.698746
muzzles\ask_m9.jpg,128.56802
muzzles\fos_m25.jpg,130.03978
muzzles\ask_m5.jpg,132.02777
muzzles\fos_m31.jpg,132.9898
muzzles\fos_m24.jpg,133.35355
muzzles\fos_m20.jpg,133.39148
muzzles\fos_m40.jpg,133.84908
muzzles\ask_m52.jpg,134.0211
muzzles\fos_m3.jpg,136.71248
muzzles\ask_m74.jpg,137.58002
muzzles\fos_m44.jpg,138.65457
muzzles\ask_m77.jpg,139.19101
muzzles\fos_m14.jpg,140.59995
muzzles\bis_m1.jpg,140.75414
muzzles\fos_m28.jpg,144.58658
muzzles\ask_m79.jpg,144.72166
muzzles\fos_m43.jpg,144.94136
muzzles\bis_m17.jpg,147.37949
muzzles\ask_m84.jpg,148.0611
muzzles\bis_m18.jpg,150.18742
muzzles\bis_m5.jpg,152.6326
muzzles\ask_m70.jpg,157.74051
muzzles\bis_m4.jpg,160.42639
muzzles\bis_m6.jpg,161.05501
muzzles\fos_m33.jpg,164.23834
muzzles\bis_m8.jpg,176.25002
muzzles\bis_m11.jpg,182.63312
muzzles\bis_m16.jpg,185.4448
muzzles\fos_m13.jpg,187.63216
muzzles\bis_m19.jpg,196.89464
muzzles\bis_m14.jpg,198.82402
