"image name","distance score"
muzzles\fos_m16.jpg,53.966602
muzzles\fos_m19.jpg,75.409454
muzzles\fos_m37.jpg,82.72017
muzzles\fos_m34.jpg,84.40933
muzzles\ask_m4.jpg,85.20781
muzzles\fos_m32.jpg,85.494576
muzzles\fos_m4.jpg,86.1276
muzzles\fos_m30.jpg,87.59028
muzzles\fos_m21.jpg,90.13242
muzzles\fos_m25.jpg,90.96494
muzzles\ask_m47.jpg,93.27217
muzzles\fos_m17.jpg,96.43823
muzzles\fos_m14.jpg,96.803566
muzzles\fos_m29.jpg,97.884415
muzzles\ask_m46.jpg,99.09758
muzzles\fos_m12.jpg,99.18861
muzzles\fos_m24.jpg,99.67501
muzzles\fos_m6.jpg,102.09295
muzzles\ask_m31.jpg,109.27627
muzzles\fos_m26.jpg,110.20814
muzzles\fos_m22.jpg,111.23853
muzzles\bis_m12.jpg,112.884026
muzzles\ask_m54.jpg,114.28869
muzzles\fos_m11.jpg,115.12561
muzzles\fos_m2.jpg,115.16693
muzzles\fos_m8.jpg,117.38741
muzzles\ask_m19.jpg,120.34771
muzzles\ask_m56.jpg,120.60421
muzzles\ask_m86.jpg,122.260506
muzzles\fos_m15.jpg,123.35858
muzzles\ask_m13.jpg,124.75349
muzzles\ask_m17.jpg,124.91693
muzzles\fos_m9.jpg,124.95823
muzzles\ask_m25.jpg,125.74043
muzzles\ask_m2.jpg,125.76757
muzzles\ask_m50.jpg,126.521255
muzzles\ask_m59.jpg,126.6381
muzzles\fos_m35.jpg,127.03879
muzzles\ask_m41.jpg,127.27162
muzzles\ask_m40.jpg,127.28915
muzzles\ask_m1.jpg,128.27058
muzzles\ask_m64.jpg,129.88013
muzzles\ask_m63.jpg,130.2174
muzzles\fos_m23.jpg,130.69739
muzzles\ask_m3.jpg,131.40894
muzzles\bis_m3.jpg,131.50557
muzzles\ask_m45.jpg,132.55305
muzzles\ask_m37.jpg,133.08899
muzzles\ask_m26.jpg,133.95032
muzzles\ask_m92.jpg,134.32048
muzzles\ask_m65.jpg,135.6083
muzzles\ask_m12.jpg,135.63342
muzzles\ask_m61.jpg,136.13802
muzzles\ask_m55.jpg,136.33583
muzzles\ask_m10.jpg,136.45154
muzzles\ask_m51.jpg,138.2491
muzzles\ask_m18.jpg,139.94502
muzzles\ask_m95.jpg,140.42502
muzzles\ask_m87.jpg,140.46642
muzzles\ask_m60.jpg,140.95898
muzzles\ask_m35.jpg,141.66628
muzzles\fos_m7.jpg,142.07176
muzzles\fos_m36.jpg,142.82645
muzzles\ask_m44.jpg,143.3061
muzzles\ask_m75.jpg,144.42296
muzzles\ask_m76.jpg,144.45337
muzzles\fos_m10.jpg,145.31436
muzzles\fos_m38.jpg,145.51868
muzzles\ask_m78.jpg,145.58711
muzzles\ask_m85.jpg,145.79184
muzzles\ask_m88.jpg,146.46095
muzzles\ask_m93.jpg,146.73465
muzzles\ask_m82.jpg,146.86157
muzzles\ask_m57.jpg,147.33551
muzzles\ask_m94.jpg,147.67328
muzzles\ask_m91.jpg,147.9637
muzzles\ask_m80.jpg,149.01665
muzzles\fos_m18.jpg,149.28445
muzzles\ask_m11.jpg,149.60928
muzzles\ask_m27.jpg,150.20181
muzzles\ask_m81.jpg,150.47491
muzzles\fos_m5.jpg,150.87387
muzzles\ask_m42.jpg,151.81369
muzzles\fos_m20.jpg,153.30919
muzzles\fos_m1.jpg,154.2149
muzzles\ask_m15.jpg,155.06505
muzzles\fos_m27.jpg,155.29489
muzzles\ask_m32.jpg,155.9433
muzzles\ask_m43.jpg,158.17545
muzzles\ask_m29.jpg,158.28459
muzzles\ask_m6.jpg,158.55719
muzzles\ask_m48.jpg,160.1243
muzzles\ask_m68.jpg,160.79922
muzzles\ask_m90.jpg,160.86754
muzzles\ask_m69.jpg,161.44003
muzzles\ask_m39.jpg,161.58084
muzzles\ask_m67.jpg,162.08347
muzzles\ask_m8.jpg,163.23622
muzzles\ask_m72.jpg,163.30351
muzzles\ask_m30.jpg,164.00877
muzzles\ask_m23.jpg,165.42734
muzzles\ask_m49.jpg,165.57765
muzzles\ask_m73.jpg,165.72954
muzzles\ask_m53.jpg,166.9354
muzzles\ask_m33.jpg,167.27046
muzzles\ask_m34.jpg,167.35149
muzzles\ask_m36.jpg,167.60225
muzzles\ask_m24.jpg,168.45293
muzzles\ask_m71.jpg,168.89226
muzzles\ask_m38.jpg,168.98099
muzzles\ask_m28.jpg,169.48769
muzzles\bis_m5.jpg,170.25948
muzzles\ask_m16.jpg,171.11633
muzzles\ask_m66.jpg,171.28131
muzzles\bis_m10.jpg,172.66748
muzzles\ask_m14.jpg,173.18968
muzzles\fos_m3.jpg,173.4489
muzzles\ask_m7.jpg,174.21944
muzzles\ask_m20.jpg,175.21138
muzzles\ask_m89.jpg,175.94763
muzzles\bis_m1.jpg,177.38274
muzzles\fos_m44.jpg,178.81396
muzzles\ask_m22.jpg,180.96959
muzzles\ask_m58.jpg,184.51534
muzzles\bis_m18.jpg,187.37479
muzzles\fos_m40.jpg,187.50565
muzzles\ask_m9.jpg,188.70782
muzzles\fos_m28.jpg,189.17041
muzzles\ask_m77.jpg,189.35414
muzzles\ask_m83.jpg,190.30792
muzzles\ask_m79.jpg,192.0322
muzzles\ask_m62.jpg,192.62508
muzzles\fos_m43.jpg,193.39195
muzzles\bis_m17.jpg,194.61092
muzzles\ask_m5.jpg,200.15387
muzzles\fos_m31.jpg,205.13217
muzzles\bis_m6.jpg,205.64003
muzzles\ask_m74.jpg,207.16075
muzzles\ask_m52.jpg,208.60826
muzzles\bis_m4.jpg,212.52338
muzzles\ask_m84.jpg,213.6491
muzzles\fos_m33.jpg,213.69324
muzzles\ask_m70.jpg,219.96552
muzzles\bis_m16.jpg,232.99316
muzzles\bis_m11.jpg,233.56143
muzzles\bis_m8.jpg,237.5143
muzzles\bis_m19.jpg,244.68268
muzzles\bis_m14.jpg,247.87918
muzzles\fos_m13.jpg,252.35883
