"image name","distance score"
muzzles\ask_m47.jpg,54.9018
muzzles\ask_m46.jpg,64.50454
muzzles\ask_m56.jpg,66.48231
muzzles\ask_m50.jpg,68.559715
muzzles\ask_m4.jpg,69.14976
muzzles\ask_m17.jpg,69.69626
muzzles\ask_m64.jpg,73.8609
muzzles\ask_m19.jpg,75.896835
muzzles\ask_m41.jpg,75.96149
muzzles\ask_m81.jpg,76.156525
muzzles\ask_m40.jpg,76.17968
muzzles\ask_m61.jpg,78.25856
muzzles\ask_m95.jpg,78.55475
muzzles\ask_m12.jpg,79.411026
muzzles\ask_m26.jpg,80.50255
muzzles\ask_m1.jpg,80.711945
muzzles\ask_m65.jpg,81.949005
muzzles\ask_m45.jpg,82.55749
muzzles\ask_m87.jpg,83.01686
muzzles\ask_m3.jpg,83.31444
muzzles\fos_m12.jpg,83.482796
muzzles\ask_m25.jpg,83.606026
muzzles\ask_m54.jpg,84.13757
muzzles\ask_m2.jpg,84.73306
muzzles\ask_m86.jpg,85.591965
muzzles\ask_m55.jpg,85.73662
muzzles\ask_m91.jpg,86.707794
muzzles\fos_m17.jpg,87.305885
muzzles\ask_m13.jpg,87.983894
muzzles\ask_m63.jpg,88.19251
muzzles\ask_m37.jpg,90.09784
muzzles\fos_m11.jpg,90.99657
muzzles\ask_m51.jpg,91.49522
muzzles\ask_m59.jpg,91.62515
muzzles\ask_m11.jpg,91.796715
muzzles\fos_m23.jpg,91.823135
muzzles\ask_m44.jpg,92.350235
muzzles\ask_m88.jpg,92.39505
muzzles\ask_m42.jpg,92.430176
muzzles\fos_m15.jpg,92.86331
muzzles\ask_m10.jpg,92.864044
muzzles\ask_m27.jpg,93.16209
muzzles\ask_m60.jpg,93.793205
muzzles\fos_m26.jpg,94.25085
muzzles\ask_m57.jpg,94.87844
muzzles\ask_m78.jpg,95.98142
muzzles\ask_m18.jpg,97.59363
muzzles\fos_m6.jpg,97.7656
muzzles\ask_m92.jpg,98.01865
muzzles\fos_m30.jpg,98.17896
muzzles\ask_m35.jpg,98.65061
muzzles\fos_m37.jpg,99.174385
muzzles\fos_m16.jpg,99.35722
muzzles\fos_m18.jpg,99.57088
muzzles\ask_m15.jpg,99.5739
muzzles\fos_m21.jpg,99.75726
muzzles\ask_m48.jpg,100.53302
muzzles\ask_m67.jpg,100.861305
muzzles\ask_m68.jpg,101.14391
muzzles\ask_m90.jpg,101.54975
muzzles\ask_m75.jpg,101.56061
muzzles\fos_m22.jpg,102.88064
muzzles\ask_m94.jpg,103.92849
muzzles\ask_m32.jpg,104.25363
muzzles\ask_m39.jpg,104.76564
muzzles\fos_m19.jpg,105.07853
muzzles\fos_m4.jpg,105.22087
muzzles\ask_m82.jpg,105.24287
muzzles\ask_m76.jpg,105.44215
muzzles\ask_m33.jpg,105.618195
muzzles\ask_m28.jpg,106.44797
muzzles\fos_m36.jpg,106.74531
muzzles\fos_m32.jpg,108.18175
muzzles\fos_m20.jpg,108.47026
muzzles\fos_m41.jpg,109.27627
muzzles\fos_m24.jpg,109.77684
muzzles\ask_m6.jpg,110.76162
muzzles\fos_m38.jpg,111.31396
muzzles\ask_m8.jpg,114.494644
muzzles\ask_m38.jpg,114.53185
muzzles\ask_m30.jpg,114.96662
muzzles\ask_m93.jpg,115.74951
muzzles\ask_m72.jpg,116.228676
muzzles\fos_m44.jpg,116.24464
muzzles\fos_m34.jpg,116.28181
muzzles\ask_m20.jpg,117.77735
muzzles\fos_m5.jpg,118.11462
muzzles\ask_m29.jpg,118.289314
muzzles\ask_m85.jpg,118.30035
muzzles\fos_m7.jpg,118.52608
muzzles\bis_m3.jpg,118.93997
muzzles\ask_m89.jpg,119.70797
muzzles\ask_m80.jpg,120.26694
muzzles\ask_m43.jpg,120.33674
muzzles\ask_m16.jpg,120.96671
muzzles\ask_m73.jpg,121.62148
muzzles\ask_m23.jpg,122.29993
muzzles\ask_m49.jpg,123.62214
muzzles\ask_m36.jpg,123.689125
muzzles\ask_m7.jpg,124.0355
muzzles\fos_m25.jpg,124.09841
muzzles\ask_m71.jpg,124.49685
muzzles\ask_m69.jpg,124.5489
muzzles\fos_m10.jpg,125.45498
muzzles\ask_m24.jpg,125.732704
muzzles\fos_m35.jpg,125.74884
muzzles\fos_m1.jpg,126.38824
muzzles\ask_m14.jpg,126.83142
muzzles\fos_m43.jpg,127.50194
muzzles\ask_m66.jpg,128.53485
muzzles\ask_m34.jpg,129.42009
muzzles\fos_m8.jpg,129.53078
muzzles\ask_m53.jpg,130.58046
muzzles\ask_m58.jpg,130.83894
muzzles\fos_m29.jpg,130.97473
muzzles\ask_m22.jpg,132.34692
muzzles\ask_m83.jpg,134.97275
muzzles\fos_m9.jpg,135.81781
muzzles\ask_m79.jpg,135.93811
muzzles\ask_m62.jpg,136.22452
muzzles\fos_m2.jpg,137.90228
muzzles\fos_m3.jpg,139.43134
muzzles\fos_m27.jpg,140.09587
muzzles\fos_m14.jpg,142.44618
muzzles\ask_m9.jpg,145.00114
muzzles\bis_m12.jpg,145.29413
muzzles\fos_m40.jpg,145.93108
muzzles\ask_m74.jpg,146.89532
muzzles\ask_m52.jpg,152.8249
muzzles\ask_m77.jpg,153.8291
muzzles\bis_m10.jpg,155.04019
muzzles\ask_m5.jpg,157.18639
muzzles\fos_m31.jpg,160.73978
muzzles\ask_m84.jpg,161.62747
muzzles\ask_m70.jpg,162.5714
muzzles\bis_m1.jpg,164.65431
muzzles\bis_m17.jpg,166.49399
muzzles\fos_m28.jpg,166.91385
muzzles\bis_m5.jpg,170.86551
muzzles\bis_m18.jpg,174.13837
muzzles\fos_m33.jpg,186.28665
muzzles\bis_m4.jpg,191.44933
muzzles\bis_m6.jpg,193.62177
muzzles\bis_m8.jpg,203.36206
muzzles\fos_m13.jpg,206.56201
muzzles\bis_m11.jpg,214.3809
muzzles\bis_m16.jpg,217.30838
muzzles\bis_m14.jpg,228.45299
muzzles\bis_m19.jpg,229.34244
