"image name","distance score"
muzzles\ask_m38.jpg,80.54914
muzzles\ask_m9.jpg,81.12628
muzzles\ask_m22.jpg,82.144035
muzzles\ask_m16.jpg,84.18126
muzzles\ask_m42.jpg,86.85977
muzzles\ask_m39.jpg,87.79438
muzzles\ask_m74.jpg,90.68632
muzzles\ask_m5.jpg,91.28329
muzzles\ask_m60.jpg,91.601776
muzzles\ask_m24.jpg,92.02772
muzzles\ask_m52.jpg,92.62879
muzzles\ask_m68.jpg,92.76877
muzzles\ask_m27.jpg,92.80127
muzzles\ask_m11.jpg,92.9511
muzzles\ask_m28.jpg,93.65374
muzzles\fos_m31.jpg,94.82079
muzzles\ask_m23.jpg,94.918465
muzzles\ask_m58.jpg,95.42139
muzzles\ask_m67.jpg,97.40018
muzzles\ask_m20.jpg,98.05828
muzzles\ask_m62.jpg,98.188156
muzzles\ask_m34.jpg,98.40297
muzzles\ask_m32.jpg,99.523766
muzzles\ask_m84.jpg,100.17752
muzzles\ask_m78.jpg,101.36907
muzzles\ask_m18.jpg,101.48609
muzzles\ask_m95.jpg,102.0655
muzzles\ask_m61.jpg,102.29055
muzzles\ask_m30.jpg,103.09045
muzzles\ask_m36.jpg,103.89257
muzzles\ask_m76.jpg,104.6222
muzzles\ask_m14.jpg,104.97654
muzzles\ask_m81.jpg,105.14021
muzzles\ask_m90.jpg,105.48472
muzzles\ask_m57.jpg,106.10876
muzzles\ask_m91.jpg,106.236595
muzzles\ask_m33.jpg,107.06216
muzzles\ask_m53.jpg,107.54407
muzzles\ask_m6.jpg,107.866745
muzzles\ask_m93.jpg,108.51538
muzzles\ask_m75.jpg,108.564064
muzzles\ask_m49.jpg,108.70137
muzzles\ask_m15.jpg,109.05073
muzzles\ask_m50.jpg,109.62519
muzzles\ask_m51.jpg,110.07991
muzzles\ask_m12.jpg,110.126564
muzzles\ask_m55.jpg,110.31942
muzzles\ask_m89.jpg,110.938324
muzzles\ask_m8.jpg,111.30566
muzzles\ask_m56.jpg,111.93764
muzzles\ask_m1.jpg,112.19619
muzzles\ask_m35.jpg,112.28837
muzzles\ask_m69.jpg,113.17581
muzzles\ask_m71.jpg,113.46631
muzzles\ask_m3.jpg,113.70329
muzzles\ask_m72.jpg,113.96611
muzzles\ask_m10.jpg,113.98829
muzzles\ask_m44.jpg,115.28577
muzzles\ask_m88.jpg,115.43515
muzzles\fos_m18.jpg,116.0271
muzzles\fos_m36.jpg,116.04786
muzzles\ask_m73.jpg,116.2314
muzzles\ask_m87.jpg,116.329384
muzzles\ask_m70.jpg,117.36995
muzzles\ask_m66.jpg,117.45108
muzzles\ask_m65.jpg,117.854454
muzzles\ask_m25.jpg,118.04322
muzzles\ask_m82.jpg,119.76609
muzzles\ask_m45.jpg,119.800835
muzzles\ask_m85.jpg,119.90096
muzzles\ask_m37.jpg,120.024925
muzzles\ask_m94.jpg,120.210915
muzzles\fos_m38.jpg,120.50104
muzzles\ask_m7.jpg,120.74923
muzzles\ask_m26.jpg,121.25609
muzzles\ask_m19.jpg,121.59061
muzzles\fos_m40.jpg,121.61374
muzzles\fos_m1.jpg,121.74913
muzzles\ask_m13.jpg,122.68804
muzzles\ask_m2.jpg,123.12242
muzzles\ask_m17.jpg,125.12302
muzzles\ask_m54.jpg,125.14022
muzzles\fos_m28.jpg,125.15582
muzzles\ask_m79.jpg,125.30523
muzzles\ask_m64.jpg,125.306366
muzzles\ask_m43.jpg,125.345795
muzzles\ask_m86.jpg,125.46011
muzzles\ask_m40.jpg,127.24288
muzzles\ask_m41.jpg,127.405914
muzzles\ask_m59.jpg,128.9282
muzzles\bis_m10.jpg,130.2896
muzzles\ask_m48.jpg,131.88138
muzzles\fos_m35.jpg,132.45251
muzzles\ask_m92.jpg,133.03812
muzzles\fos_m5.jpg,133.40102
muzzles\fos_m7.jpg,133.45174
muzzles\ask_m29.jpg,134.69162
muzzles\fos_m15.jpg,134.89572
muzzles\ask_m31.jpg,134.97275
muzzles\ask_m63.jpg,135.05434
muzzles\fos_m10.jpg,135.20421
muzzles\ask_m77.jpg,135.98517
muzzles\fos_m43.jpg,136.55646
muzzles\ask_m80.jpg,136.85307
muzzles\fos_m3.jpg,137.77487
muzzles\fos_m27.jpg,138.97778
muzzles\fos_m13.jpg,139.2332
muzzles\fos_m11.jpg,139.70279
muzzles\bis_m8.jpg,142.5458
muzzles\fos_m44.jpg,143.97255
muzzles\bis_m4.jpg,144.01804
muzzles\fos_m33.jpg,144.60449
muzzles\bis_m3.jpg,145.24005
muzzles\ask_m47.jpg,146.4285
muzzles\fos_m8.jpg,148.75131
muzzles\fos_m9.jpg,150.04819
muzzles\fos_m17.jpg,151.20454
muzzles\fos_m30.jpg,151.47801
muzzles\fos_m26.jpg,151.68498
muzzles\ask_m46.jpg,152.65646
muzzles\bis_m17.jpg,153.15404
muzzles\bis_m6.jpg,154.854
muzzles\fos_m23.jpg,155.13564
muzzles\bis_m18.jpg,157.45184
muzzles\bis_m1.jpg,158.08922
muzzles\fos_m20.jpg,159.56665
muzzles\fos_m4.jpg,162.75117
muzzles\bis_m11.jpg,162.77802
muzzles\bis_m16.jpg,165.69685
muzzles\bis_m5.jpg,165.70387
muzzles\ask_m4.jpg,167.15765
muzzles\fos_m12.jpg,169.09666
muzzles\fos_m19.jpg,169.59763
muzzles\bis_m14.jpg,175.18517
muzzles\fos_m2.jpg,176.56743
muzzles\fos_m32.jpg,177.4396
muzzles\fos_m16.jpg,177.58421
muzzles\bis_m19.jpg,178.8961
muzzles\fos_m22.jpg,182.00093
muzzles\fos_m29.jpg,182.13048
muzzles\bis_m12.jpg,185.31606
muzzles\fos_m37.jpg,185.33284
muzzles\fos_m6.jpg,187.16246
muzzles\fos_m41.jpg,190.30792
muzzles\fos_m34.jpg,192.42001
muzzles\fos_m25.jpg,196.39713
muzzles\fos_m21.jpg,198.27467
muzzles\fos_m24.jpg,204.00713
muzzles\fos_m14.jpg,211.03758
