"image name","distance score"
muzzles\fos_m43.jpg,53.133865
muzzles\ask_m48.jpg,95.622444
muzzles\ask_m81.jpg,99.36678
muzzles\ask_m12.jpg,99.81072
muzzles\ask_m88.jpg,104.493225
muzzles\ask_m45.jpg,104.724815
muzzles\fos_m20.jpg,104.786156
muzzles\ask_m56.jpg,106.24626
muzzles\ask_m87.jpg,106.66769
muzzles\ask_m26.jpg,107.31396
muzzles\ask_m86.jpg,108.74494
muzzles\ask_m61.jpg,110.548416
muzzles\ask_m15.jpg,112.351074
muzzles\ask_m6.jpg,112.77131
muzzles\ask_m42.jpg,112.80502
muzzles\ask_m95.jpg,113.04673
muzzles\ask_m65.jpg,113.424255
muzzles\ask_m50.jpg,113.765724
muzzles\ask_m27.jpg,114.17221
muzzles\ask_m94.jpg,114.72036
muzzles\ask_m33.jpg,115.14565
muzzles\ask_m64.jpg,115.31494
muzzles\ask_m37.jpg,115.39706
muzzles\ask_m39.jpg,116.20922
muzzles\ask_m31.jpg,116.24464
muzzles\ask_m2.jpg,116.52397
muzzles\ask_m57.jpg,117.383026
muzzles\ask_m78.jpg,117.77924
muzzles\ask_m10.jpg,117.78135
muzzles\ask_m17.jpg,117.85827
muzzles\ask_m92.jpg,118.07309
muzzles\ask_m73.jpg,118.243324
muzzles\ask_m1.jpg,118.469864
muzzles\ask_m47.jpg,118.678734
muzzles\ask_m8.jpg,119.16211
muzzles\ask_m59.jpg,119.25271
muzzles\ask_m40.jpg,119.44595
muzzles\ask_m44.jpg,119.65185
muzzles\ask_m25.jpg,119.847374
muzzles\ask_m29.jpg,119.87505
muzzles\ask_m11.jpg,120.46685
muzzles\ask_m41.jpg,120.47188
muzzles\fos_m3.jpg,120.49252
muzzles\ask_m19.jpg,121.988625
muzzles\ask_m28.jpg,123.18087
muzzles\ask_m90.jpg,123.42662
muzzles\ask_m68.jpg,123.44929
muzzles\ask_m3.jpg,123.54358
muzzles\fos_m12.jpg,123.903336
muzzles\fos_m26.jpg,124.18211
muzzles\ask_m60.jpg,124.31987
muzzles\ask_m16.jpg,124.403244
muzzles\fos_m5.jpg,124.707565
muzzles\fos_m23.jpg,125.895294
muzzles\ask_m32.jpg,126.00438
muzzles\ask_m7.jpg,126.3729
muzzles\fos_m18.jpg,126.6866
muzzles\ask_m62.jpg,127.128265
muzzles\ask_m20.jpg,127.304474
muzzles\ask_m67.jpg,127.4308
muzzles\ask_m35.jpg,127.56384
muzzles\ask_m38.jpg,127.67418
muzzles\ask_m91.jpg,127.710144
muzzles\ask_m63.jpg,127.87531
muzzles\ask_m30.jpg,128.18016
muzzles\ask_m93.jpg,129.78644
muzzles\ask_m55.jpg,130.26242
muzzles\ask_m72.jpg,130.37369
muzzles\ask_m18.jpg,130.85674
muzzles\ask_m75.jpg,132.16882
muzzles\fos_m15.jpg,132.31567
muzzles\ask_m46.jpg,133.2617
muzzles\ask_m89.jpg,133.81662
muzzles\ask_m69.jpg,134.59332
muzzles\ask_m23.jpg,134.59993
muzzles\ask_m82.jpg,135.48354
muzzles\ask_m51.jpg,135.99455
muzzles\fos_m22.jpg,136.3768
muzzles\ask_m14.jpg,136.83713
muzzles\ask_m36.jpg,136.99657
muzzles\ask_m54.jpg,138.65457
muzzles\ask_m43.jpg,139.18237
muzzles\ask_m13.jpg,139.35321
muzzles\ask_m24.jpg,140.59248
muzzles\ask_m4.jpg,141.27922
muzzles\ask_m79.jpg,141.48994
muzzles\ask_m76.jpg,141.82263
muzzles\ask_m58.jpg,142.09703
muzzles\ask_m22.jpg,142.16098
muzzles\ask_m83.jpg,143.97255
muzzles\fos_m17.jpg,144.49307
muzzles\fos_m11.jpg,144.62816
muzzles\fos_m4.jpg,144.91183
muzzles\ask_m80.jpg,145.85463
muzzles\ask_m52.jpg,145.99149
muzzles\ask_m77.jpg,146.3314
muzzles\ask_m70.jpg,146.84422
muzzles\ask_m53.jpg,146.97267
muzzles\ask_m74.jpg,147.23018
muzzles\fos_m6.jpg,147.39215
muzzles\ask_m71.jpg,147.54233
muzzles\ask_m85.jpg,149.06787
muzzles\fos_m40.jpg,152.56874
muzzles\ask_m9.jpg,153.44994
muzzles\ask_m5.jpg,153.48088
muzzles\ask_m34.jpg,153.48535
muzzles\fos_m36.jpg,154.18355
muzzles\ask_m84.jpg,155.90195
muzzles\fos_m38.jpg,157.68526
muzzles\fos_m21.jpg,159.38881
muzzles\fos_m32.jpg,159.4482
muzzles\fos_m30.jpg,160.41168
muzzles\ask_m49.jpg,161.11115
muzzles\ask_m66.jpg,161.74756
muzzles\bis_m17.jpg,165.90067
muzzles\fos_m16.jpg,166.22972
muzzles\fos_m24.jpg,166.30014
muzzles\fos_m37.jpg,168.05048
muzzles\fos_m35.jpg,168.8668
muzzles\fos_m19.jpg,169.62077
muzzles\fos_m7.jpg,169.69798
muzzles\fos_m1.jpg,171.3375
muzzles\fos_m25.jpg,174.3378
muzzles\bis_m3.jpg,175.08398
muzzles\fos_m2.jpg,176.24768
muzzles\fos_m29.jpg,176.83028
muzzles\fos_m31.jpg,177.65402
muzzles\fos_m41.jpg,178.81396
muzzles\fos_m13.jpg,180.01862
muzzles\fos_m8.jpg,181.80801
muzzles\fos_m34.jpg,182.97694
muzzles\fos_m9.jpg,183.14232
muzzles\fos_m10.jpg,184.25662
muzzles\fos_m27.jpg,191.14934
muzzles\bis_m10.jpg,192.53519
muzzles\fos_m14.jpg,192.92735
muzzles\fos_m28.jpg,193.36465
muzzles\bis_m8.jpg,200.70586
muzzles\bis_m12.jpg,201.82886
muzzles\bis_m5.jpg,204.4301
muzzles\bis_m18.jpg,208.93083
muzzles\bis_m1.jpg,211.26176
muzzles\bis_m4.jpg,212.66408
muzzles\fos_m33.jpg,214.70877
muzzles\bis_m6.jpg,219.01743
muzzles\bis_m11.jpg,224.66776
muzzles\bis_m16.jpg,230.16988
muzzles\bis_m14.jpg,234.92506
muzzles\bis_m19.jpg,244.8902
