"image name","distance score"
muzzles\ask_m56.jpg,54.745544
muzzles\ask_m61.jpg,65.7074
muzzles\ask_m37.jpg,65.929016
muzzles\ask_m50.jpg,68.9676
muzzles\ask_m6.jpg,68.99941
muzzles\ask_m95.jpg,69.74412
muzzles\ask_m15.jpg,70.202255
muzzles\ask_m81.jpg,70.71002
muzzles\ask_m11.jpg,72.327515
muzzles\ask_m94.jpg,72.88416
muzzles\ask_m42.jpg,73.25702
muzzles\ask_m1.jpg,73.94202
muzzles\ask_m88.jpg,74.29474
muzzles\ask_m48.jpg,74.47438
muzzles\ask_m65.jpg,74.72856
muzzles\ask_m87.jpg,75.22363
muzzles\ask_m39.jpg,76.73063
muzzles\ask_m27.jpg,77.14966
muzzles\ask_m44.jpg,77.173775
muzzles\ask_m32.jpg,77.33947
muzzles\ask_m90.jpg,77.665344
muzzles\ask_m19.jpg,77.81632
muzzles\ask_m26.jpg,78.23291
muzzles\ask_m2.jpg,78.38028
muzzles\ask_m17.jpg,78.86878
muzzles\ask_m64.jpg,78.89302
muzzles\ask_m45.jpg,79.08662
muzzles\ask_m31.jpg,79.411026
muzzles\ask_m40.jpg,80.80078
muzzles\ask_m60.jpg,82.130066
muzzles\ask_m86.jpg,82.6052
muzzles\ask_m25.jpg,83.569016
muzzles\ask_m33.jpg,83.62443
muzzles\ask_m75.jpg,83.69322
muzzles\ask_m57.jpg,83.743805
muzzles\ask_m78.jpg,84.06276
muzzles\ask_m59.jpg,85.04887
muzzles\ask_m91.jpg,85.28958
muzzles\ask_m3.jpg,85.31915
muzzles\ask_m30.jpg,86.78545
muzzles\ask_m93.jpg,87.0418
muzzles\ask_m38.jpg,87.158875
muzzles\ask_m51.jpg,87.50104
muzzles\ask_m54.jpg,87.62313
muzzles\ask_m18.jpg,88.29302
muzzles\ask_m28.jpg,88.29861
muzzles\ask_m47.jpg,88.80263
muzzles\ask_m20.jpg,89.215294
muzzles\ask_m76.jpg,89.502205
muzzles\ask_m10.jpg,89.54634
muzzles\ask_m13.jpg,89.88983
muzzles\ask_m92.jpg,89.994026
muzzles\ask_m67.jpg,90.100395
muzzles\ask_m23.jpg,90.38753
muzzles\ask_m16.jpg,90.868065
muzzles\ask_m68.jpg,91.193756
muzzles\ask_m55.jpg,92.739815
muzzles\ask_m36.jpg,92.98484
muzzles\ask_m7.jpg,93.02178
muzzles\ask_m14.jpg,93.565445
muzzles\ask_m89.jpg,93.84505
muzzles\ask_m41.jpg,94.657265
muzzles\ask_m22.jpg,95.72944
muzzles\ask_m35.jpg,95.998314
muzzles\ask_m29.jpg,96.31015
muzzles\fos_m26.jpg,96.87155
muzzles\ask_m63.jpg,97.77957
muzzles\ask_m85.jpg,98.65954
muzzles\ask_m72.jpg,98.74088
muzzles\ask_m82.jpg,98.783966
muzzles\ask_m24.jpg,99.01315
muzzles\ask_m69.jpg,99.06558
muzzles\ask_m34.jpg,99.79698
muzzles\fos_m44.jpg,99.81072
muzzles\ask_m8.jpg,100.85775
muzzles\ask_m46.jpg,101.37791
muzzles\fos_m5.jpg,101.68746
muzzles\ask_m58.jpg,101.839836
muzzles\fos_m18.jpg,102.02156
muzzles\fos_m11.jpg,102.74541
muzzles\fos_m36.jpg,102.84035
muzzles\fos_m15.jpg,103.30932
muzzles\fos_m43.jpg,103.75138
muzzles\ask_m73.jpg,104.96258
muzzles\ask_m71.jpg,105.21293
muzzles\ask_m62.jpg,105.22393
muzzles\ask_m49.jpg,105.39221
muzzles\fos_m17.jpg,105.55123
muzzles\fos_m38.jpg,105.96551
muzzles\ask_m53.jpg,106.371445
muzzles\fos_m30.jpg,106.724884
muzzles\ask_m80.jpg,107.33046
muzzles\ask_m43.jpg,107.38018
muzzles\fos_m35.jpg,107.699776
muzzles\ask_m79.jpg,107.88307
muzzles\ask_m4.jpg,108.50947
muzzles\fos_m23.jpg,108.59584
muzzles\ask_m83.jpg,110.126564
muzzles\fos_m3.jpg,110.379005
muzzles\fos_m12.jpg,111.68007
muzzles\fos_m1.jpg,111.82619
muzzles\fos_m4.jpg,112.33927
muzzles\fos_m7.jpg,112.65239
muzzles\fos_m32.jpg,114.981094
muzzles\bis_m3.jpg,116.01071
muzzles\ask_m66.jpg,116.50286
muzzles\fos_m20.jpg,117.94011
muzzles\ask_m52.jpg,118.25654
muzzles\ask_m74.jpg,118.50989
muzzles\ask_m9.jpg,120.84411
muzzles\fos_m8.jpg,122.976395
muzzles\fos_m10.jpg,123.48935
muzzles\ask_m5.jpg,123.55884
muzzles\fos_m16.jpg,124.0484
muzzles\ask_m84.jpg,124.57424
muzzles\fos_m22.jpg,125.340126
muzzles\fos_m19.jpg,126.13024
muzzles\fos_m9.jpg,126.89983
muzzles\fos_m29.jpg,127.03998
muzzles\fos_m6.jpg,129.04819
muzzles\fos_m27.jpg,130.2279
muzzles\ask_m70.jpg,130.9808
muzzles\fos_m31.jpg,132.29701
muzzles\fos_m40.jpg,132.8103
muzzles\fos_m37.jpg,133.15494
muzzles\fos_m25.jpg,133.61356
muzzles\ask_m77.jpg,134.71596
muzzles\fos_m41.jpg,135.63342
muzzles\bis_m10.jpg,137.47655
muzzles\fos_m21.jpg,138.0423
muzzles\fos_m2.jpg,139.87494
muzzles\fos_m28.jpg,142.89444
muzzles\fos_m34.jpg,142.90807
muzzles\fos_m24.jpg,147.49586
muzzles\fos_m14.jpg,153.1051
muzzles\bis_m17.jpg,153.22931
muzzles\bis_m12.jpg,153.8412
muzzles\bis_m5.jpg,154.49617
muzzles\bis_m18.jpg,156.8012
muzzles\bis_m1.jpg,158.18456
muzzles\fos_m33.jpg,164.13287
muzzles\fos_m13.jpg,167.54626
muzzles\bis_m4.jpg,167.68529
muzzles\bis_m8.jpg,169.5455
muzzles\bis_m6.jpg,170.28427
muzzles\bis_m11.jpg,187.35127
muzzles\bis_m16.jpg,190.87138
muzzles\bis_m14.jpg,196.96924
muzzles\bis_m19.jpg,201.13673
