"image name","distance score"
muzzles\ask_m15.jpg,94.04083
muzzles\ask_m33.jpg,101.47962
muzzles\ask_m20.jpg,101.554535
muzzles\ask_m67.jpg,105.20796
muzzles\ask_m75.jpg,105.8989
muzzles\ask_m89.jpg,106.05693
muzzles\ask_m7.jpg,106.44837
muzzles\ask_m81.jpg,106.99554
muzzles\ask_m72.jpg,107.29075
muzzles\ask_m12.jpg,107.88307
muzzles\ask_m11.jpg,109.13816
muzzles\ask_m91.jpg,109.50312
muzzles\ask_m87.jpg,110.284744
muzzles\ask_m95.jpg,110.82272
muzzles\ask_m88.jpg,110.92143
muzzles\ask_m71.jpg,111.322685
muzzles\ask_m6.jpg,111.62158
muzzles\ask_m48.jpg,111.66004
muzzles\ask_m56.jpg,112.89002
muzzles\ask_m74.jpg,114.157814
muzzles\ask_m23.jpg,114.6802
muzzles\ask_m70.jpg,115.62511
muzzles\ask_m68.jpg,115.63918
muzzles\ask_m26.jpg,115.899216
muzzles\ask_m78.jpg,116.54823
muzzles\ask_m28.jpg,116.68534
muzzles\ask_m50.jpg,116.83284
muzzles\ask_m38.jpg,117.00355
muzzles\ask_m22.jpg,117.430984
muzzles\ask_m32.jpg,117.97286
muzzles\ask_m16.jpg,118.303986
muzzles\ask_m1.jpg,118.59415
muzzles\ask_m10.jpg,118.88211
muzzles\ask_m69.jpg,118.93605
muzzles\ask_m94.jpg,119.05258
muzzles\ask_m84.jpg,119.16554
muzzles\ask_m65.jpg,119.30223
muzzles\ask_m39.jpg,119.43167
muzzles\ask_m34.jpg,119.51169
muzzles\ask_m30.jpg,119.6516
muzzles\ask_m61.jpg,120.33275
muzzles\ask_m90.jpg,120.708725
muzzles\ask_m27.jpg,121.59249
muzzles\ask_m14.jpg,122.01917
muzzles\ask_m3.jpg,122.30759
muzzles\ask_m17.jpg,122.45798
muzzles\ask_m60.jpg,123.3997
muzzles\ask_m42.jpg,124.11709
muzzles\ask_m58.jpg,124.93478
muzzles\ask_m8.jpg,125.27007
muzzles\ask_m83.jpg,125.30523
muzzles\ask_m52.jpg,125.62352
muzzles\ask_m25.jpg,126.44222
muzzles\ask_m29.jpg,126.44588
muzzles\ask_m64.jpg,126.844765
muzzles\ask_m76.jpg,127.43257
muzzles\ask_m57.jpg,127.88061
muzzles\fos_m5.jpg,128.13982
muzzles\ask_m43.jpg,128.41621
muzzles\ask_m19.jpg,128.8452
muzzles\ask_m93.jpg,128.88109
muzzles\ask_m66.jpg,129.05623
muzzles\ask_m37.jpg,129.15222
muzzles\ask_m82.jpg,129.19157
muzzles\ask_m24.jpg,129.36087
muzzles\ask_m36.jpg,129.95964
muzzles\ask_m44.jpg,130.28142
muzzles\ask_m51.jpg,133.21523
muzzles\ask_m18.jpg,133.80609
muzzles\ask_m86.jpg,134.96321
muzzles\ask_m55.jpg,135.24126
muzzles\fos_m38.jpg,135.75932
muzzles\ask_m31.jpg,135.93811
muzzles\ask_m40.jpg,136.20395
muzzles\fos_m36.jpg,136.6515
muzzles\fos_m31.jpg,137.22151
muzzles\ask_m85.jpg,137.63203
muzzles\ask_m13.jpg,137.66731
muzzles\ask_m45.jpg,138.14418
muzzles\fos_m3.jpg,138.18436
muzzles\ask_m49.jpg,138.39653
muzzles\ask_m53.jpg,138.79036
muzzles\ask_m62.jpg,139.01132
muzzles\ask_m80.jpg,139.27896
muzzles\ask_m9.jpg,139.56192
muzzles\fos_m43.jpg,139.64186
muzzles\ask_m73.jpg,141.13823
muzzles\ask_m2.jpg,141.20564
muzzles\ask_m5.jpg,141.36601
muzzles\fos_m44.jpg,141.48994
muzzles\fos_m1.jpg,141.83908
muzzles\ask_m35.jpg,142.94049
muzzles\ask_m59.jpg,143.09671
muzzles\ask_m92.jpg,144.10742
muzzles\ask_m54.jpg,144.72166
muzzles\fos_m7.jpg,144.99907
muzzles\ask_m77.jpg,145.14787
muzzles\ask_m63.jpg,145.62209
muzzles\ask_m47.jpg,146.34286
muzzles\fos_m35.jpg,146.5241
muzzles\ask_m41.jpg,147.41666
muzzles\fos_m18.jpg,147.56624
muzzles\fos_m28.jpg,149.7971
muzzles\fos_m10.jpg,153.19054
muzzles\bis_m3.jpg,153.56755
muzzles\fos_m40.jpg,154.63412
muzzles\ask_m46.jpg,155.53409
muzzles\fos_m15.jpg,156.58055
muzzles\fos_m23.jpg,158.52988
muzzles\bis_m10.jpg,159.27863
muzzles\fos_m11.jpg,159.83818
muzzles\fos_m27.jpg,160.51822
muzzles\fos_m30.jpg,163.39424
muzzles\fos_m4.jpg,163.92006
muzzles\fos_m17.jpg,164.59541
muzzles\fos_m26.jpg,165.164
muzzles\fos_m20.jpg,165.74957
muzzles\fos_m8.jpg,167.84293
muzzles\fos_m33.jpg,168.75957
muzzles\fos_m9.jpg,170.14917
muzzles\ask_m4.jpg,170.23627
muzzles\bis_m4.jpg,170.46109
muzzles\fos_m12.jpg,171.21872
muzzles\bis_m17.jpg,172.35062
muzzles\bis_m8.jpg,173.72427
muzzles\fos_m13.jpg,176.84375
muzzles\fos_m22.jpg,177.77895
muzzles\fos_m32.jpg,178.07352
muzzles\bis_m5.jpg,179.73047
muzzles\bis_m18.jpg,179.87201
muzzles\fos_m19.jpg,180.89584
muzzles\fos_m16.jpg,183.45848
muzzles\fos_m29.jpg,183.79396
muzzles\bis_m1.jpg,186.12979
muzzles\fos_m6.jpg,186.90619
muzzles\bis_m6.jpg,187.16989
muzzles\fos_m37.jpg,188.83423
muzzles\fos_m2.jpg,188.89357
muzzles\fos_m41.jpg,192.0322
muzzles\fos_m25.jpg,193.58832
muzzles\bis_m12.jpg,193.7851
muzzles\bis_m11.jpg,194.60089
muzzles\fos_m34.jpg,195.06525
muzzles\bis_m16.jpg,197.2132
muzzles\fos_m21.jpg,198.75056
muzzles\fos_m24.jpg,202.76225
muzzles\bis_m14.jpg,203.21127
muzzles\fos_m14.jpg,203.7001
muzzles\bis_m19.jpg,205.90636
