"image name","distance score"
muzzles\ask_m45.jpg,50.359512
muzzles\ask_m59.jpg,66.86699
muzzles\ask_m56.jpg,68.0876
muzzles\ask_m64.jpg,68.8109
muzzles\ask_m39.jpg,70.50118
muzzles\ask_m42.jpg,70.53195
muzzles\ask_m51.jpg,70.63335
muzzles\ask_m35.jpg,70.71918
muzzles\ask_m41.jpg,72.442924
muzzles\ask_m17.jpg,75.38167
muzzles\ask_m93.jpg,76.95562
muzzles\ask_m40.jpg,77.54303
muzzles\ask_m86.jpg,77.621284
muzzles\ask_m50.jpg,77.73301
muzzles\ask_m12.jpg,78.38028
muzzles\ask_m61.jpg,78.45083
muzzles\ask_m90.jpg,78.841255
muzzles\ask_m57.jpg,79.01399
muzzles\ask_m55.jpg,79.2331
muzzles\ask_m54.jpg,80.58622
muzzles\ask_m30.jpg,81.69988
muzzles\ask_m11.jpg,81.82725
muzzles\ask_m37.jpg,83.19418
muzzles\ask_m44.jpg,83.28468
muzzles\ask_m25.jpg,83.51751
muzzles\ask_m95.jpg,83.58249
muzzles\ask_m47.jpg,84.248665
muzzles\ask_m85.jpg,84.31759
muzzles\ask_m31.jpg,84.73306
muzzles\ask_m32.jpg,85.14628
muzzles\ask_m14.jpg,85.68015
muzzles\ask_m78.jpg,86.94162
muzzles\ask_m18.jpg,87.29216
muzzles\ask_m19.jpg,87.295395
muzzles\ask_m28.jpg,87.51381
muzzles\ask_m1.jpg,88.00899
muzzles\ask_m3.jpg,88.08744
muzzles\ask_m27.jpg,88.26822
muzzles\ask_m60.jpg,88.851456
muzzles\fos_m36.jpg,88.91141
muzzles\fos_m17.jpg,90.64286
muzzles\ask_m62.jpg,90.668015
muzzles\ask_m87.jpg,90.882
muzzles\ask_m88.jpg,91.318756
muzzles\ask_m91.jpg,91.56019
muzzles\ask_m65.jpg,92.141205
muzzles\ask_m46.jpg,92.185
muzzles\fos_m26.jpg,92.72202
muzzles\ask_m81.jpg,92.89611
muzzles\ask_m92.jpg,93.14856
muzzles\fos_m1.jpg,93.7759
muzzles\ask_m15.jpg,94.02856
muzzles\fos_m11.jpg,94.15146
muzzles\ask_m13.jpg,94.214134
muzzles\fos_m38.jpg,94.64928
muzzles\ask_m16.jpg,94.76665
muzzles\ask_m94.jpg,94.797295
muzzles\ask_m58.jpg,95.36887
muzzles\ask_m75.jpg,97.797226
muzzles\fos_m30.jpg,97.857285
muzzles\ask_m26.jpg,97.91721
muzzles\fos_m18.jpg,98.77833
muzzles\ask_m49.jpg,98.92552
muzzles\ask_m38.jpg,99.11786
muzzles\fos_m15.jpg,99.52914
muzzles\ask_m20.jpg,99.59761
muzzles\ask_m6.jpg,99.89332
muzzles\ask_m29.jpg,100.491486
muzzles\ask_m89.jpg,100.57654
muzzles\ask_m10.jpg,100.77599
muzzles\ask_m23.jpg,101.183464
muzzles\ask_m24.jpg,101.34378
muzzles\ask_m48.jpg,101.67525
muzzles\fos_m35.jpg,101.77717
muzzles\fos_m7.jpg,101.91712
muzzles\ask_m82.jpg,102.00105
muzzles\ask_m43.jpg,102.098366
muzzles\ask_m36.jpg,102.28245
muzzles\ask_m63.jpg,102.317696
muzzles\ask_m68.jpg,103.75879
muzzles\ask_m76.jpg,104.201294
muzzles\ask_m33.jpg,105.30011
muzzles\ask_m67.jpg,106.27976
muzzles\ask_m4.jpg,106.93433
muzzles\ask_m73.jpg,106.94077
muzzles\bis_m3.jpg,107.47806
muzzles\fos_m27.jpg,108.69407
muzzles\fos_m12.jpg,110.13906
muzzles\ask_m34.jpg,111.94942
muzzles\fos_m10.jpg,112.05891
muzzles\ask_m69.jpg,112.91996
muzzles\fos_m8.jpg,112.93693
muzzles\fos_m32.jpg,114.85791
muzzles\ask_m53.jpg,115.17431
muzzles\fos_m44.jpg,116.52397
muzzles\ask_m22.jpg,116.59653
muzzles\ask_m72.jpg,116.8237
muzzles\ask_m71.jpg,116.96827
muzzles\ask_m8.jpg,117.13227
muzzles\fos_m16.jpg,117.17062
muzzles\ask_m80.jpg,117.64151
muzzles\fos_m19.jpg,118.576225
muzzles\ask_m66.jpg,118.788216
muzzles\fos_m9.jpg,119.14818
muzzles\fos_m5.jpg,120.16117
muzzles\ask_m7.jpg,120.60968
muzzles\fos_m43.jpg,120.82185
muzzles\fos_m4.jpg,122.13139
muzzles\fos_m23.jpg,122.32506
muzzles\fos_m37.jpg,123.10826
muzzles\ask_m83.jpg,123.12242
muzzles\ask_m52.jpg,124.415504
muzzles\ask_m5.jpg,125.13121
muzzles\fos_m41.jpg,125.76757
muzzles\fos_m40.jpg,125.87042
muzzles\bis_m10.jpg,125.94889
muzzles\fos_m34.jpg,126.22239
muzzles\fos_m29.jpg,127.11946
muzzles\ask_m9.jpg,127.43422
muzzles\fos_m6.jpg,128.61899
muzzles\ask_m74.jpg,130.71477
muzzles\fos_m20.jpg,131.6255
muzzles\bis_m1.jpg,132.2089
muzzles\fos_m31.jpg,134.13828
muzzles\fos_m21.jpg,134.35175
muzzles\fos_m3.jpg,136.31624
muzzles\ask_m84.jpg,136.53864
muzzles\fos_m25.jpg,137.66016
muzzles\fos_m22.jpg,137.87035
muzzles\fos_m28.jpg,138.78798
muzzles\fos_m2.jpg,138.81117
muzzles\bis_m12.jpg,139.2684
muzzles\bis_m18.jpg,139.39867
muzzles\ask_m79.jpg,141.20564
muzzles\fos_m24.jpg,143.80429
muzzles\bis_m17.jpg,149.00224
muzzles\ask_m77.jpg,149.4325
muzzles\bis_m5.jpg,150.19147
muzzles\ask_m70.jpg,150.84647
muzzles\fos_m33.jpg,153.3174
muzzles\fos_m14.jpg,156.18582
muzzles\bis_m6.jpg,159.12175
muzzles\fos_m13.jpg,163.228
muzzles\bis_m4.jpg,164.21051
muzzles\bis_m8.jpg,164.99205
muzzles\bis_m11.jpg,180.41139
muzzles\bis_m16.jpg,184.80946
muzzles\bis_m14.jpg,191.63257
muzzles\bis_m19.jpg,196.47668
