"image name","distance score"
muzzles\ask_m84.jpg,69.75415
muzzles\fos_m31.jpg,79.024284
muzzles\ask_m70.jpg,84.28032
muzzles\ask_m23.jpg,86.432556
muzzles\ask_m20.jpg,87.17436
muzzles\ask_m16.jpg,89.70102
muzzles\ask_m52.jpg,90.56038
muzzles\ask_m83.jpg,90.68632
muzzles\ask_m28.jpg,90.86402
muzzles\ask_m38.jpg,92.568665
muzzles\ask_m68.jpg,93.62219
muzzles\ask_m5.jpg,94.415764
muzzles\ask_m33.jpg,95.00722
muzzles\ask_m30.jpg,95.551956
muzzles\ask_m34.jpg,95.59816
muzzles\ask_m67.jpg,95.618965
muzzles\ask_m58.jpg,95.8277
muzzles\ask_m22.jpg,97.26905
muzzles\ask_m15.jpg,98.77555
muzzles\ask_m39.jpg,99.229385
muzzles\ask_m78.jpg,99.91302
muzzles\ask_m91.jpg,100.41049
muzzles\ask_m11.jpg,101.10373
muzzles\ask_m14.jpg,101.40984
muzzles\ask_m71.jpg,101.73395
muzzles\ask_m9.jpg,104.155785
muzzles\ask_m60.jpg,104.62127
muzzles\ask_m24.jpg,104.698364
muzzles\ask_m75.jpg,105.61044
muzzles\ask_m66.jpg,105.71132
muzzles\ask_m32.jpg,106.168465
muzzles\ask_m62.jpg,106.23906
muzzles\ask_m42.jpg,106.736435
muzzles\ask_m95.jpg,109.382744
muzzles\ask_m89.jpg,109.81258
muzzles\fos_m28.jpg,110.49344
muzzles\ask_m72.jpg,110.65331
muzzles\ask_m93.jpg,110.73296
muzzles\ask_m7.jpg,111.03231
muzzles\ask_m49.jpg,111.689415
muzzles\ask_m69.jpg,111.94513
muzzles\ask_m27.jpg,113.506424
muzzles\ask_m90.jpg,113.68241
muzzles\ask_m36.jpg,113.69761
muzzles\ask_m81.jpg,114.04087
muzzles\ask_m79.jpg,114.157814
muzzles\ask_m3.jpg,114.62479
muzzles\fos_m1.jpg,115.89833
muzzles\fos_m36.jpg,116.034065
muzzles\ask_m61.jpg,117.19318
muzzles\fos_m38.jpg,117.50713
muzzles\ask_m57.jpg,118.09623
muzzles\ask_m50.jpg,118.29692
muzzles\ask_m6.jpg,118.45033
muzzles\ask_m12.jpg,118.50989
muzzles\ask_m8.jpg,118.96549
muzzles\ask_m43.jpg,118.98259
muzzles\ask_m56.jpg,119.13918
muzzles\ask_m88.jpg,119.30532
muzzles\ask_m87.jpg,119.48711
muzzles\ask_m76.jpg,119.7826
muzzles\ask_m18.jpg,121.03491
muzzles\ask_m1.jpg,121.303375
muzzles\fos_m40.jpg,121.30807
muzzles\ask_m10.jpg,122.18517
muzzles\ask_m55.jpg,122.46309
muzzles\ask_m65.jpg,123.43981
muzzles\ask_m51.jpg,123.984795
muzzles\fos_m33.jpg,124.14714
muzzles\ask_m53.jpg,124.169044
muzzles\ask_m26.jpg,126.37447
muzzles\ask_m35.jpg,126.39644
muzzles\ask_m64.jpg,126.41456
muzzles\ask_m82.jpg,126.838806
muzzles\ask_m17.jpg,128.16681
muzzles\ask_m85.jpg,128.43979
muzzles\fos_m13.jpg,130.09088
muzzles\ask_m94.jpg,130.10028
muzzles\ask_m25.jpg,130.13528
muzzles\ask_m44.jpg,130.28793
muzzles\ask_m2.jpg,130.71477
muzzles\fos_m7.jpg,130.77704
muzzles\ask_m45.jpg,131.45396
muzzles\ask_m48.jpg,131.52652
muzzles\fos_m10.jpg,132.5141
muzzles\bis_m4.jpg,132.53824
muzzles\ask_m19.jpg,132.77504
muzzles\ask_m29.jpg,133.31381
muzzles\ask_m73.jpg,133.64436
muzzles\ask_m37.jpg,133.67409
muzzles\fos_m27.jpg,134.17987
muzzles\fos_m18.jpg,134.99663
muzzles\bis_m10.jpg,135.40634
muzzles\fos_m5.jpg,135.59268
muzzles\ask_m13.jpg,136.36403
muzzles\bis_m8.jpg,136.53362
muzzles\ask_m40.jpg,136.74886
muzzles\fos_m35.jpg,137.54338
muzzles\ask_m54.jpg,137.58002
muzzles\fos_m43.jpg,137.5831
muzzles\ask_m59.jpg,139.42505
muzzles\ask_m86.jpg,140.35876
muzzles\ask_m80.jpg,140.54985
muzzles\ask_m41.jpg,141.92545
muzzles\ask_m63.jpg,144.7599
muzzles\fos_m3.jpg,144.9583
muzzles\ask_m31.jpg,146.89532
muzzles\fos_m44.jpg,147.23018
muzzles\bis_m3.jpg,147.6577
muzzles\ask_m77.jpg,148.4814
muzzles\fos_m15.jpg,149.4253
muzzles\ask_m92.jpg,152.62581
muzzles\fos_m11.jpg,154.67276
muzzles\bis_m18.jpg,155.10764
muzzles\bis_m17.jpg,157.82011
muzzles\bis_m6.jpg,158.61037
muzzles\ask_m47.jpg,159.63675
muzzles\bis_m1.jpg,160.02303
muzzles\bis_m5.jpg,162.32938
muzzles\bis_m11.jpg,162.50821
muzzles\fos_m8.jpg,162.53561
muzzles\ask_m46.jpg,163.64017
muzzles\fos_m17.jpg,164.19856
muzzles\fos_m9.jpg,164.73755
muzzles\fos_m30.jpg,166.12889
muzzles\fos_m26.jpg,166.42253
muzzles\bis_m16.jpg,166.47827
muzzles\fos_m23.jpg,172.66286
muzzles\fos_m20.jpg,174.22011
muzzles\bis_m19.jpg,174.7265
muzzles\bis_m14.jpg,175.09703
muzzles\fos_m4.jpg,175.94383
muzzles\fos_m19.jpg,183.02225
muzzles\ask_m4.jpg,184.18872
muzzles\fos_m12.jpg,184.5476
muzzles\fos_m2.jpg,188.26955
muzzles\fos_m16.jpg,192.78888
muzzles\fos_m32.jpg,194.17523
muzzles\bis_m12.jpg,196.37013
muzzles\fos_m29.jpg,197.60947
muzzles\fos_m37.jpg,197.9648
muzzles\fos_m22.jpg,200.13254
muzzles\fos_m6.jpg,201.5021
muzzles\fos_m34.jpg,204.5069
muzzles\fos_m41.jpg,207.16075
muzzles\fos_m25.jpg,212.32193
muzzles\fos_m21.jpg,214.16022
muzzles\fos_m24.jpg,218.79112
muzzles\fos_m14.jpg,226.11917
